"ppant_id" "session_id" "ppant_no" "acc" "balance" "slope" "bias" "place" "place.acc"
"007-01" "007" 1 0.618055555555556 0.722222222222222 2.09258333126856 0.123515357798246 2 2
"007-02" "007" 2 0.670138888888889 0.704861111111111 4.12310308572382 0.0691078908393129 1 1
"007-03" "007" 3 0.552083333333333 0.510416666666667 0.952383214961127 0.0110900835455644 3 3
"009-01" "009" 1 0.572916666666667 0.559027777777778 1.95690256112332 0.0319388760712312 1 3
"009-02" "009" 2 0.590277777777778 0.597222222222222 1.00933262278165 0.099498888836389 3 2
"009-03" "009" 3 0.59375 0.475694444444444 1.39020271375985 -0.0176258548536918 2 1
"010-01" "010" 1 0.618055555555556 0.611111111111111 2.46975400436506 0.0506512929540626 3 3
"010-02" "010" 2 0.670138888888889 0.440972222222222 3.76574896588448 -0.0209201861307279 1 2
"010-03" "010" 3 0.701388888888889 0.5625 3.55442922222545 0.0206525549643891 2 1
"011-01" "011" 1 0.697916666666667 0.517361111111111 3.49465765269909 0.00611947416246178 2 2
"011-02" "011" 2 0.607638888888889 0.621527777777778 2.48604384173668 0.0548327312796636 3 3
"011-03" "011" 3 0.704861111111111 0.447916666666667 4.07497372577986 -0.0181949496288391 1 1
"012-01" "012" 1 0.725694444444444 0.53125 4.43903267402406 0.0114315704216997 1 1
"012-02" "012" 2 0.541666666666667 0.555555555555556 0.785309650584676 0.0722549968899204 2 2
"012-03" "012" 3 0.482638888888889 0.607638888888889 -0.364563787569754 -0.29986498707857 3 3
"013-01" "013" 1 0.583333333333333 0.680555555555556 1.33982766547429 0.145236748403345 2 1
"013-02" "013" 2 0.548611111111111 0.708333333333333 0.954124552375504 0.233977088757626 3 3
"013-03" "013" 3 0.565972222222222 0.579861111111111 1.49038173759321 0.056850712046278 1 2
"014-01" "014" 1 0.513888888888889 0.0763888888888889 0.967940188018227 -0.601687792950696 3 3
"014-02" "014" 2 0.611111111111111 0.201388888888889 2.8289202639918 -0.137460219158897 2 2
"014-03" "014" 3 0.753472222222222 0.447916666666667 4.86693641662255 -0.0156633941659728 1 1
"015-01" "015" 1 0.541666666666667 0.270833333333333 0.94189732179065 -0.263375908699808 3 3
"015-02" "015" 2 0.729166666666667 0.416666666666667 5.12395313615986 -0.0234116193053072 1 1
"015-03" "015" 3 0.579861111111111 0.329861111111111 1.35058612258309 -0.135564008542074 2 2
"016-01" "016" 1 0.635416666666667 0.454861111111111 3.22182427004955 -0.0166250638079263 2 3
"016-02" "016" 2 0.732638888888889 0.489583333333333 4.29835868575895 -0.00406904793461542 1 1
"016-03" "016" 3 0.65625 0.552083333333333 3.07559436018531 0.0195556320315657 3 2
"017-01" "017" 1 0.704861111111111 0.621527777777778 4.13030453319514 0.0395924231057362 2 2
"017-02" "017" 2 0.746527777777778 0.461805555555556 4.99265842611067 -0.0107854305179781 1 1
"017-03" "017" 3 0.5 0.416666666666667 0.485251261318106 -0.173812527995672 3 3
"018-01" "018" 1 0.513888888888889 0.229166666666667 0.850769080560171 -0.353445603344992 3 3
"018-02" "018" 2 0.565972222222222 0.357638888888889 1.64459159176142 -0.0939059556107824 2 2
"018-03" "018" 3 0.59375 0.739583333333333 1.84298478118057 0.149942075676434 1 1
"019-01" "019" 1 0.5625 0.708333333333333 0.711607652731941 0.311200427971717 3 2
"019-02" "019" 2 0.576388888888889 0.555555555555556 1.19118129762938 0.0482883928426099 1 1
"019-03" "019" 3 0.534722222222222 0.402777777777778 0.803684569733612 -0.124098086573476 2 3
"020-01" "020" 1 0.427083333333333 0.440972222222222 -0.728855182676136 0.0823893796326499 3 3
"020-02" "020" 2 0.635416666666667 0.600694444444444 2.68111888824445 0.0450461499245006 1 1
"020-03" "020" 3 0.631944444444444 0.569444444444444 2.64994249398938 0.0297777743031293 2 2
"021-01" "021" 1 0.513888888888889 0.430555555555556 -0.0146942851414131 4.75009702074191 3 3
"021-02" "021" 2 0.708333333333333 0.729166666666667 4.55794219592606 0.074717256169378 1 1
"021-03" "021" 3 0.586805555555556 0.34375 1.53071138651547 -0.110102127744324 2 2
"022-01" "022" 1 0.552083333333333 0.385416666666667 1.08948214442382 -0.109446912724933 3 3
"022-02" "022" 2 0.670138888888889 0.385416666666667 3.4290400333947 -0.0412809623820443 2 2
"022-03" "022" 3 0.677083333333333 0.53125 3.72435633454207 0.010380971800456 1 1
