subblock_no	block_no	practice	TrialNumber	target_pos	target_screen_nr	contrast_idx	ran	contrast	group_dec_maker	group_dec	group_dec_rt	participants	feedback_texts_order	0_indiv_dec	0_indiv_dec_rt	0_client	1_indiv_dec	1_indiv_dec_rt	1_client	2_indiv_dec	2_indiv_dec_rt	2_client	trial_wait.duration	fixation.duration	stim1.duration	blank_between.duration	stim2.duration
0	0	True	1	0	0	3	1.0	0.17	0.0	--	--	[0, 1, 2]	[0, 1, 2]	--	--	--	--	--	--	1.0	56.5715	client-C	0.0500902	0.520677	0.0733352	0.984037	0.0665867
0	0	True	2	4	1	2	1.0	0.135	-1.0	--	--	[0, 1, 2]	[0, 1, 2]	--	--	--	--	--	--	0.0	17.5882	client-C	0.0333572	0.500348	0.094288	0.983579	0.0666225
0	0	True	3	4	1	1	1.0	0.115	1.0	--	--	[0, 1, 2]	[0, 1, 2]	--	--	--	--	--	--	0.0	11.6936	client-C	0.033318	0.500303	0.0999864	0.994595	0.0666242
0	0	True	4	5	1	4	1.0	0.25	2.0	0.0	5.53853	[0, 1, 2]	[0, 1, 2]	--	--	--	--	--	--	0.0	7.75692	client-C	0.0334188	0.500342	0.111729	0.999448	0.0666066
0	0	True	5	0	1	3	1.0	0.17	0.0	--	--	[0, 1, 2]	[0, 1, 2]	--	--	--	--	--	--	1.0	4.58762	client-C	0.0500332	0.483644	0.0665998	0.984048	0.0666161
0	0	True	6	5	0	4	1.0	0.25	-1.0	--	--	[0, 1, 2]	[0, 1, 2]	--	--	--	--	--	--	1.0	9.19146	client-C	0.0333976	0.500251	0.0999762	0.994576	0.0666373
0	0	True	7	3	0	2	1.0	0.135	1.0	--	--	[0, 1, 2]	[0, 1, 2]	--	--	--	--	--	--	0.0	2.51913	client-C	0.0333962	0.483653	0.0666108	0.984051	0.0666359
0	0	True	8	0	0	1	1.0	0.115	2.0	1.0	17.5988	[0, 1, 2]	[0, 1, 2]	--	--	--	--	--	--	1.0	73.4026	client-C	0.0334054	0.500322	0.0999627	0.994608	0.0666179
0	0	False	1	1	1	1	1.0	0.115	0.0	--	--	[0, 1, 2]	[0, 1, 2]	--	--	--	--	--	--	1.0	2.60313	client-C	0.0500902	0.500258	0.0937901	0.984017	0.0665832
0	0	False	2	0	1	3	1.0	0.17	1.0	--	--	[0, 1, 2]	[0, 1, 2]	--	--	--	--	--	--	1.0	10.191	client-C	0.0334429	0.50027	0.100091	1.00074	0.111732
0	0	False	3	0	1	3	1.0	0.17	2.0	0.0	3.3033	[0, 1, 2]	[0, 1, 2]	--	--	--	--	--	--	0.0	3.65343	client-C	0.0333994	0.483613	0.0666168	0.984076	0.0666186
0	0	False	4	3	0	2	1.0	0.135	0.0	--	--	[0, 1, 2]	[0, 1, 2]	--	--	--	--	--	--	0.0	2.65319	client-C	0.0500714	0.483619	0.0666207	0.984072	0.0665935
0	0	False	5	5	0	3	1.0	0.17	1.0	--	--	[0, 1, 2]	[0, 1, 2]	--	--	--	--	--	--	0.0	2.90279	client-C	0.0334811	0.500233	0.0771091	0.984034	0.0666133
0	0	False	6	2	1	4	1.0	0.25	2.0	1.0	4.25414	[0, 1, 2]	[0, 1, 2]	--	--	--	--	--	--	1.0	2.50241	client-C	0.0333997	0.483629	0.0666292	0.984079	0.0666154
0	0	False	7	5	1	2	1.0	0.135	0.0	--	--	[0, 1, 2]	[0, 1, 2]	--	--	--	--	--	--	1.0	1.73511	client-C	0.0500859	0.483625	0.0666158	0.984065	0.0666048
0	0	False	8	3	0	2	1.0	0.135	1.0	--	--	[0, 1, 2]	[0, 1, 2]	--	--	--	--	--	--	0.0	1.18466	client-C	0.0334209	0.4836	0.0666285	0.984678	0.0666242
0	0	False	9	5	1	2	1.0	0.135	2.0	1.0	4.38754	[0, 1, 2]	[0, 1, 2]	--	--	--	--	--	--	1.0	1.86857	client-C	0.0333137	0.500301	0.0999925	0.994581	0.0666136
0	0	False	10	3	0	2	1.0	0.135	0.0	--	--	[0, 1, 2]	[0, 1, 2]	--	--	--	--	--	--	1.0	4.37068	client-C	0.0501079	0.483629	0.0666331	0.984057	0.0666253
0	0	False	11	5	0	3	1.0	0.17	1.0	--	--	[0, 1, 2]	[0, 1, 2]	--	--	--	--	--	--	1.0	1.50157	client-C	0.0334153	0.483637	0.066603	0.98408	0.0666111
0	0	False	12	0	1	3	1.0	0.17	2.0	1.0	2.11894	[0, 1, 2]	[0, 1, 2]	--	--	--	--	--	--	1.0	1.58498	client-C	0.050081	0.483633	0.0665984	0.984071	0.066626
0	0	False	13	5	0	3	1.0	0.17	0.0	--	--	[0, 1, 2]	[0, 1, 2]	--	--	--	--	--	--	1.0	5.8219	client-C	0.0334999	0.500285	0.0998863	0.99462	0.0666175
0	0	False	14	1	1	1	1.0	0.115	1.0	--	--	[0, 1, 2]	[0, 1, 2]	--	--	--	--	--	--	0.0	1.80181	client-C	0.0333894	0.483651	0.066608	0.984078	0.0666147
0	0	False	15	5	1	2	1.0	0.135	2.0	1.0	5.18819	[0, 1, 2]	[0, 1, 2]	--	--	--	--	--	--	1.0	1.86856	client-C	0.0333965	0.483648	0.0665867	0.984073	0.0666228
0	0	False	16	2	0	4	1.0	0.25	-1.0	--	--	[0, 1, 2]	[0, 1, 2]	--	--	--	--	--	--	0.0	1.30138	client-C	0.0667513	0.483631	0.0666306	0.984065	0.0665977
0	0	False	17	0	1	3	1.0	0.17	0.0	--	--	[0, 1, 2]	[0, 1, 2]	--	--	--	--	--	--	1.0	1.30143	client-C	0.0499458	0.500425	0.110662	0.983792	0.0666083
0	0	False	18	2	1	4	1.0	0.25	1.0	--	--	[0, 1, 2]	[0, 1, 2]	--	--	--	--	--	--	1.0	1.11791	client-C	0.0500498	0.483639	0.0666203	0.984066	0.0666384
0	0	False	19	3	0	2	1.0	0.135	2.0	1.0	3.33667	[0, 1, 2]	[0, 1, 2]	--	--	--	--	--	--	1.0	2.21884	client-C	0.0334241	0.48362	0.0666338	0.984058	0.0666101
0	0	False	20	5	0	1	1.0	0.115	0.0	--	--	[0, 1, 2]	[0, 1, 2]	--	--	--	--	--	--	0.0	1.01781	client-C	0.0500732	0.483652	0.0666034	0.984076	0.0666172
0	0	False	21	5	0	1	1.0	0.115	1.0	--	--	[0, 1, 2]	[0, 1, 2]	--	--	--	--	--	--	1.0	1.2013	client-C	0.0333909	0.500358	0.0999426	0.994587	0.0666126
0	0	False	22	2	1	4	1.0	0.25	-1.0	--	--	[0, 1, 2]	[0, 1, 2]	--	--	--	--	--	--	1.0	3.98709	client-C	0.033388	0.483638	0.0666292	0.984079	0.0665881
0	0	False	23	5	1	2	1.0	0.135	2.0	0.0	3.1365	[0, 1, 2]	[0, 1, 2]	--	--	--	--	--	--	0.0	1.20131	client-C	0.0334025	0.483639	0.0666158	0.984078	0.0666097
0	0	False	24	5	0	1	1.0	0.115	-1.0	--	--	[0, 1, 2]	[0, 1, 2]	--	--	--	--	--	--	1.0	4.18719	client-C	0.0500842	0.483632	0.0665995	0.984075	0.0666196
0	0	False	25	5	0	1	1.0	0.115	-1.0	--	--	[0, 1, 2]	[0, 1, 2]	--	--	--	--	--	--	0.0	3.12025	client-C	0.0333806	0.483648	0.0666285	0.984064	0.0666005
0	0	False	26	5	0	3	1.0	0.17	0.0	--	--	[0, 1, 2]	[0, 1, 2]	--	--	--	--	--	--	0.0	0.600828	client-C	0.0667793	0.483632	0.0665942	0.984087	0.0665917
0	0	False	27	2	0	4	1.0	0.25	-1.0	--	--	[0, 1, 2]	[0, 1, 2]	--	--	--	--	--	--	0.0	1.05123	client-C	0.0333081	0.50032	0.0999875	0.994581	0.0666104
0	0	False	28	2	1	4	1.0	0.25	1.0	--	--	[0, 1, 2]	[0, 1, 2]	--	--	--	--	--	--	1.0	0.884402	client-C	0.0500923	0.483631	0.0666281	0.984057	0.0666154
0	0	False	29	2	0	4	1.0	0.25	-1.0	--	--	[0, 1, 2]	[0, 1, 2]	--	--	--	--	--	--	0.0	0.667538	client-C	0.0333597	0.483663	0.0666083	0.984072	0.0666129
0	0	False	30	1	1	1	1.0	0.115	2.0	0.0	4.42091	[0, 1, 2]	[0, 1, 2]	--	--	--	--	--	--	1.0	0.850992	client-C	0.0333831	0.483641	0.0665949	0.984084	0.0666076
0	0	False	31	2	0	4	1.0	0.25	-1.0	--	--	[0, 1, 2]	[0, 1, 2]	--	--	--	--	--	--	0.0	0.667532	client-C	0.0500728	0.483644	0.0666175	0.984074	0.0666299
0	0	False	32	1	1	1	1.0	0.115	0.0	--	--	[0, 1, 2]	[0, 1, 2]	--	--	--	--	--	--	1.0	2.15212	client-C	0.0501026	0.483628	0.0666356	0.984681	0.0666207
1	0	False	1	0	1	1	1.0	0.115	1.0	--	--	[0, 1, 2]	[0, 1, 2]	--	--	--	--	--	--	0.0	1.16795	client-C	0.0500782	0.500265	0.0999302	0.99457	0.0665959
1	0	False	2	4	0	3	1.0	0.17	2.0	0.0	2.35246	[0, 1, 2]	[0, 1, 2]	--	--	--	--	--	--	0.0	0.734232	client-C	0.0334238	0.483629	0.0666264	0.984071	0.0666023
1	0	False	3	3	0	1	1.0	0.115	0.0	--	--	[0, 1, 2]	[0, 1, 2]	--	--	--	--	--	--	0.0	0.650825	client-C	0.033387	0.483646	0.0665966	0.984092	0.0666101
1	0	False	4	3	0	1	1.0	0.115	1.0	--	--	[0, 1, 2]	[0, 1, 2]	--	--	--	--	--	--	0.0	0.967796	client-C	0.0501075	0.483632	0.0666101	0.984683	0.0666016
1	0	False	5	1	0	2	1.0	0.135	2.0	0.0	1.10136	[0, 1, 2]	[0, 1, 2]	--	--	--	--	--	--	0.0	0.984449	client-C	0.0501125	0.500299	0.100076	0.9945	0.0666037
1	0	False	6	1	1	4	1.0	0.25	0.0	--	--	[0, 1, 2]	[0, 1, 2]	--	--	--	--	--	--	1.0	1.71847	client-C	0.0500728	0.483653	0.0666119	0.984057	0.0666048
1	0	False	7	3	1	2	1.0	0.135	1.0	--	--	[0, 1, 2]	[0, 1, 2]	--	--	--	--	--	--	0.0	1.3848	client-C	0.0500948	0.483637	0.0666097	0.984068	0.0666257
1	0	False	8	5	0	4	1.0	0.25	2.0	0.0	1.90273	[0, 1, 2]	[0, 1, 2]	--	--	--	--	--	--	0.0	1.08455	client-C	0.0333905	0.483625	0.0666239	0.984065	0.0666271
1	0	False	9	5	0	4	1.0	0.25	0.0	--	--	[0, 1, 2]	[0, 1, 2]	--	--	--	--	--	--	0.0	0.534044	client-C	0.0335703	0.500139	0.100052	1.00065	0.110511
1	0	False	10	1	0	2	1.0	0.135	-1.0	--	--	[0, 1, 2]	[0, 1, 2]	--	--	--	--	--	--	1.0	1.7184	client-C	0.0667481	0.483618	0.0666242	0.984079	0.0666108
1	0	False	11	1	1	3	1.0	0.17	1.0	--	--	[0, 1, 2]	[0, 1, 2]	--	--	--	--	--	--	0.0	1.63502	client-C	0.0333905	0.483649	0.0665797	0.984093	0.0665839
1	0	False	12	3	1	2	1.0	0.135	-1.0	--	--	[0, 1, 2]	[0, 1, 2]	--	--	--	--	--	--	1.0	1.88522	client-C	0.0333948	0.483654	0.0665839	0.984087	0.0666214
1	0	False	13	1	1	4	1.0	0.25	-1.0	--	--	[0, 1, 2]	[0, 1, 2]	--	--	--	--	--	--	1.0	0.901046	client-C	0.0334171	0.483638	0.0666175	0.984067	0.0666232
1	0	False	14	1	0	2	1.0	0.135	2.0	1.0	2.88626	[0, 1, 2]	[0, 1, 2]	--	--	--	--	--	--	0.0	0.700878	client-C	0.0333933	0.483638	0.0665942	0.984088	0.0666182
1	0	False	15	1	1	3	1.0	0.17	0.0	--	--	[0, 1, 2]	[0, 1, 2]	--	--	--	--	--	--	0.0	0.534101	client-C	0.0500905	0.483652	0.0666175	0.984684	0.0666203
1	0	False	16	5	0	4	1.0	0.25	1.0	--	--	[0, 1, 2]	[0, 1, 2]	--	--	--	--	--	--	0.0	0.750946	client-C	0.050264	0.500165	0.094271	0.983579	0.0666384
1	0	False	17	1	1	3	1.0	0.17	2.0	1.0	1.86873	[0, 1, 2]	[0, 1, 2]	--	--	--	--	--	--	1.0	0.901095	client-C	0.0334029	0.483636	0.0666062	0.984032	0.0666603
1	0	False	18	0	1	1	1.0	0.115	0.0	--	--	[0, 1, 2]	[0, 1, 2]	--	--	--	--	--	--	0.0	0.517426	client-C	0.0500831	0.483643	0.0665864	0.98408	0.0665896
1	0	False	19	4	0	3	1.0	0.17	-1.0	--	--	[0, 1, 2]	[0, 1, 2]	--	--	--	--	--	--	0.0	0.684257	client-C	0.0500976	0.483623	0.0666264	0.984049	0.0665839
1	0	False	20	1	0	2	1.0	0.135	1.0	--	--	[0, 1, 2]	[0, 1, 2]	--	--	--	--	--	--	1.0	0.60078	client-C	0.0500852	0.483612	0.0666419	0.984059	0.0666119
1	0	False	21	0	1	1	1.0	0.115	2.0	0.0	1.36822	[0, 1, 2]	[0, 1, 2]	--	--	--	--	--	--	0.0	1.70177	client-C	0.0334047	0.483643	0.0665966	0.984044	0.0665917
1	0	False	22	3	1	2	1.0	0.135	0.0	--	--	[0, 1, 2]	[0, 1, 2]	--	--	--	--	--	--	1.0	2.13543	client-C	0.0667555	0.500342	0.099938	0.994589	0.0666193
1	0	False	23	1	1	3	1.0	0.17	-1.0	--	--	[0, 1, 2]	[0, 1, 2]	--	--	--	--	--	--	1.0	0.767684	client-C	0.0500537	0.483637	0.0665956	0.984085	0.0665651
1	0	False	24	5	0	4	1.0	0.25	1.0	--	--	[0, 1, 2]	[0, 1, 2]	--	--	--	--	--	--	0.0	0.584095	client-C	0.050099	0.483615	0.0666115	0.984083	0.0665973
1	0	False	25	1	1	4	1.0	0.25	2.0	0.0	2.10229	[0, 1, 2]	[0, 1, 2]	--	--	--	--	--	--	0.0	0.617516	client-C	0.0333725	0.483644	0.0666147	0.984075	0.0666034
1	0	False	26	1	1	4	1.0	0.25	0.0	--	--	[0, 1, 2]	[0, 1, 2]	--	--	--	--	--	--	1.0	4.5709	client-C	0.0500728	0.483621	0.0666108	0.984072	0.0666165
1	0	False	27	3	0	1	1.0	0.115	1.0	--	--	[0, 1, 2]	[0, 1, 2]	--	--	--	--	--	--	1.0	1.06793	client-C	0.05011	0.500286	0.0942951	0.983583	0.066585
1	0	False	28	0	1	1	1.0	0.115	-1.0	--	--	[0, 1, 2]	[0, 1, 2]	--	--	--	--	--	--	0.0	1.05127	client-C	0.0333257	0.483607	0.0665807	0.984014	0.0665457
1	0	False	29	3	0	1	1.0	0.115	2.0	1.0	1.80215	[0, 1, 2]	[0, 1, 2]	--	--	--	--	--	--	1.0	0.60089	client-C	0.0500474	0.483578	0.0665503	0.984034	0.0665227
1	0	False	30	4	0	3	1.0	0.17	0.0	--	--	[0, 1, 2]	[0, 1, 2]	--	--	--	--	--	--	0.0	3.31998	client-C	0.0500343	0.483634	0.0665294	0.984083	0.0665428
1	0	False	31	3	1	2	1.0	0.135	1.0	--	--	[0, 1, 2]	[0, 1, 2]	--	--	--	--	--	--	0.0	0.567355	client-C	0.0333657	0.483552	0.0665577	0.984103	0.0666228
1	0	False	32	4	0	3	1.0	0.17	-1.0	--	--	[0, 1, 2]	[0, 1, 2]	--	--	--	--	--	--	1.0	1.51825	client-C	0.0333958	0.500265	0.0998506	0.994626	0.0666087
2	0	False	1	3	0	3	1.0	0.17	2.0	0.0	1.71861	[0, 1, 2]	[0, 1, 2]	--	--	--	--	--	--	0.0	0.450654	client-C	0.0333434	0.483598	0.0666044	0.984043	0.0665719
2	0	False	2	4	1	1	1.0	0.115	0.0	--	--	[0, 1, 2]	[0, 1, 2]	--	--	--	--	--	--	1.0	2.15216	client-C	0.0500792	0.48362	0.0665991	0.984094	0.0666101
2	0	False	3	4	0	2	1.0	0.135	-1.0	--	--	[0, 1, 2]	[0, 1, 2]	--	--	--	--	--	--	1.0	1.08452	client-C	0.0334064	0.483628	0.0665952	0.984065	0.0666235
2	0	False	4	5	0	4	1.0	0.25	1.0	--	--	[0, 1, 2]	[0, 1, 2]	--	--	--	--	--	--	0.0	3.43661	client-C	0.0334206	0.483639	0.0665973	0.984076	0.0665659
2	0	False	5	4	1	2	1.0	0.135	2.0	1.0	1.16812	[0, 1, 2]	[0, 1, 2]	--	--	--	--	--	--	1.0	2.18546	client-C	0.0737114	0.515593	0.0999928	0.994569	0.0666345
2	0	False	6	3	1	4	1.0	0.25	0.0	--	--	[0, 1, 2]	[0, 1, 2]	--	--	--	--	--	--	1.0	0.967763	client-C	0.0500739	0.483651	0.0666101	0.984071	0.0666278
2	0	False	7	5	0	4	1.0	0.25	-1.0	--	--	[0, 1, 2]	[0, 1, 2]	--	--	--	--	--	--	0.0	0.56745	client-C	0.0333838	0.483648	0.0666101	0.984059	0.0666264
2	0	False	8	3	1	4	1.0	0.25	1.0	--	--	[0, 1, 2]	[0, 1, 2]	--	--	--	--	--	--	1.0	0.834325	client-C	0.0500629	0.483639	0.0666066	0.984068	0.0666009
2	0	False	9	4	0	2	1.0	0.135	2.0	0.0	1.36832	[0, 1, 2]	[0, 1, 2]	--	--	--	--	--	--	0.0	0.901094	client-C	0.0501029	0.483635	0.0665963	0.984091	0.0665928
2	0	False	10	3	0	3	1.0	0.17	0.0	--	--	[0, 1, 2]	[0, 1, 2]	--	--	--	--	--	--	1.0	1.98529	client-C	0.0667502	0.483652	0.0666055	0.984085	0.0666037
2	0	False	11	4	1	1	1.0	0.115	1.0	--	--	[0, 1, 2]	[0, 1, 2]	--	--	--	--	--	--	1.0	1.30139	client-C	0.033427	0.500372	0.0937303	0.984078	0.0666016
2	0	False	12	3	1	3	1.0	0.17	-1.0	--	--	[0, 1, 2]	[0, 1, 2]	--	--	--	--	--	--	1.0	1.08454	client-C	0.050069	0.483655	0.0666168	0.984084	0.0666111
2	0	False	13	3	1	3	1.0	0.17	-1.0	--	--	[0, 1, 2]	[0, 1, 2]	--	--	--	--	--	--	1.0	0.567453	client-C	0.0500629	0.483652	0.0666228	0.984058	0.0666069
2	0	False	14	3	1	4	1.0	0.25	-1.0	--	--	[0, 1, 2]	[0, 1, 2]	--	--	--	--	--	--	1.0	0.550732	client-C	0.0333944	0.483674	0.0665928	0.984087	0.066625
2	0	False	15	4	0	2	1.0	0.135	2.0	1.0	1.23482	[0, 1, 2]	[0, 1, 2]	--	--	--	--	--	--	1.0	1.26803	client-C	0.033399	0.483642	0.0666097	0.984086	0.0665945
2	0	False	16	5	0	4	1.0	0.25	0.0	--	--	[0, 1, 2]	[0, 1, 2]	--	--	--	--	--	--	0.0	0.867692	client-C	0.0667474	0.483624	0.0666051	0.984086	0.0665977
2	0	False	17	3	1	3	1.0	0.17	1.0	--	--	[0, 1, 2]	[0, 1, 2]	--	--	--	--	--	--	1.0	0.750934	client-C	0.0667435	0.483636	0.0666147	0.98407	0.0666179
2	0	False	18	4	1	2	1.0	0.135	2.0	1.0	0.917901	[0, 1, 2]	[0, 1, 2]	--	--	--	--	--	--	1.0	0.867382	client-C	0.033399	0.500311	0.0999702	1.00075	0.110815
2	0	False	19	3	1	3	1.0	0.17	-1.0	--	--	[0, 1, 2]	[0, 1, 2]	--	--	--	--	--	--	1.0	0.834411	client-C	0.0500909	0.483628	0.0666009	0.984067	0.0666218
2	0	False	20	4	0	1	1.0	0.115	-1.0	--	--	[0, 1, 2]	[0, 1, 2]	--	--	--	--	--	--	1.0	1.08452	client-C	0.0334022	0.483623	0.0666161	0.98408	0.0666175
2	0	False	21	4	0	1	1.0	0.115	0.0	--	--	[0, 1, 2]	[0, 1, 2]	--	--	--	--	--	--	0.0	2.10208	client-C	0.0333647	0.483647	0.0666182	0.984085	0.0666083
2	0	False	22	5	0	4	1.0	0.25	-1.0	--	--	[0, 1, 2]	[0, 1, 2]	--	--	--	--	--	--	0.0	0.0169913	client-C	0.0334146	0.483629	0.0666182	0.984068	0.0666154
2	0	False	23	4	0	1	1.0	0.115	1.0	--	--	[0, 1, 2]	[0, 1, 2]	--	--	--	--	--	--	1.0	0.784317	client-C	0.0334043	0.483652	0.0666051	1.00075	0.0666073
2	0	False	24	4	1	2	1.0	0.135	2.0	1.0	1.71862	[0, 1, 2]	[0, 1, 2]	--	--	--	--	--	--	1.0	0.767591	client-C	0.0332868	0.500306	0.100019	0.994528	0.0666211
2	0	False	25	3	0	3	1.0	0.17	-1.0	--	--	[0, 1, 2]	[0, 1, 2]	--	--	--	--	--	--	0.0	1.16797	client-C	0.0500647	0.483645	0.0666228	0.984069	0.0666122
2	0	False	26	4	1	2	1.0	0.135	0.0	--	--	[0, 1, 2]	[0, 1, 2]	--	--	--	--	--	--	1.0	0.567444	client-C	0.0500633	0.483646	0.0665913	0.984099	0.0665981
2	0	False	27	4	0	2	1.0	0.135	1.0	--	--	[0, 1, 2]	[0, 1, 2]	--	--	--	--	--	--	0.0	1.01782	client-C	0.0334156	0.483637	0.0666041	0.984087	0.0665998
2	0	False	28	4	0	1	1.0	0.115	-1.0	--	--	[0, 1, 2]	[0, 1, 2]	--	--	--	--	--	--	1.0	0.967742	client-C	0.0500881	0.483638	0.0666087	0.984102	0.06662
2	0	False	29	4	1	1	1.0	0.115	-1.0	--	--	[0, 1, 2]	[0, 1, 2]	--	--	--	--	--	--	0.0	0.767574	client-C	0.0333933	0.483625	0.0666179	0.984067	0.0666115
2	0	False	30	3	1	4	1.0	0.25	2.0	0.0	1.22372	[0, 1, 2]	[0, 1, 2]	--	--	--	--	--	--	0.0	1.1352	client-C	0.0333873	0.483635	0.0666359	0.984068	0.0666083
2	0	False	31	3	0	3	1.0	0.17	0.0	--	--	[0, 1, 2]	[0, 1, 2]	--	--	--	--	--	--	1.0	0.734246	client-C	0.0500902	0.500334	0.0942965	0.983586	0.0666285
2	0	False	32	4	1	1	1.0	0.115	1.0	--	--	[0, 1, 2]	[0, 1, 2]	--	--	--	--	--	--	0.0	1.40155	client-C	0.0334117	0.483633	0.0666115	0.984061	0.0665966
0	1	False	1	2	0	2	1.0	0.135	-1.0	--	--	[2, 0, 1]	[0, 1, 2]	--	--	--	0.0	1.05118	client-C	--	--	--	0.0334068	0.500245	0.0937993	0.984042	0.0665574
0	1	False	2	1	0	4	1.0	0.25	2.0	--	--	[2, 0, 1]	[0, 1, 2]	--	--	--	1.0	1.20128	client-C	--	--	--	0.0333969	0.483642	0.0666062	0.984079	0.0666306
0	1	False	3	3	1	4	1.0	0.25	0.0	--	--	[2, 0, 1]	[0, 1, 2]	--	--	--	1.0	0.650835	client-C	--	--	--	0.0333951	0.48364	0.0666058	0.984065	0.0666172
0	1	False	4	2	0	2	1.0	0.135	1.0	0.0	3.60353	[2, 0, 1]	[0, 1, 2]	--	--	--	0.0	0.750432	client-C	--	--	--	0.0333134	0.500333	0.0999627	1.00075	0.0943276
0	1	False	5	1	1	2	1.0	0.135	2.0	--	--	[2, 0, 1]	[0, 1, 2]	--	--	--	1.0	0.717553	client-C	--	--	--	0.0333785	0.483644	0.0666221	0.984072	0.0666143
0	1	False	6	2	1	3	1.0	0.17	0.0	--	--	[2, 0, 1]	[0, 1, 2]	--	--	--	1.0	1.61837	client-C	--	--	--	0.0334025	0.483649	0.0665846	0.984079	0.0665789
0	1	False	7	2	1	3	1.0	0.17	1.0	0.0	3.60353	[2, 0, 1]	[0, 1, 2]	--	--	--	1.0	1.10121	client-C	--	--	--	0.0500608	0.483627	0.0666225	0.984075	0.0666009
0	1	False	8	3	1	4	1.0	0.25	2.0	--	--	[2, 0, 1]	[0, 1, 2]	--	--	--	1.0	1.10123	client-C	--	--	--	0.0500686	0.483629	0.0666271	0.984073	0.0666005
0	1	False	9	4	0	3	1.0	0.17	0.0	--	--	[2, 0, 1]	[0, 1, 2]	--	--	--	0.0	1.30142	client-C	--	--	--	0.0500859	0.48427	0.0666055	0.984075	0.0666126
0	1	False	10	4	0	3	1.0	0.17	1.0	0.0	4.6211	[2, 0, 1]	[0, 1, 2]	--	--	--	1.0	0.817689	client-C	--	--	--	0.0333728	0.500313	0.0999953	0.994568	0.0666097
0	1	False	11	1	0	4	1.0	0.25	2.0	--	--	[2, 0, 1]	[0, 1, 2]	--	--	--	1.0	0.901058	client-C	--	--	--	0.0667442	0.483647	0.066597	0.984088	0.0665977
0	1	False	12	5	1	1	1.0	0.115	-1.0	--	--	[2, 0, 1]	[0, 1, 2]	--	--	--	0.0	0.951066	client-C	--	--	--	0.0334011	0.48366	0.0665959	0.984079	0.0666465
0	1	False	13	1	1	2	1.0	0.135	0.0	--	--	[2, 0, 1]	[0, 1, 2]	--	--	--	0.0	1.95199	client-C	--	--	--	0.0500774	0.483641	0.0665874	0.984105	0.0666005
0	1	False	14	4	0	3	1.0	0.17	-1.0	--	--	[2, 0, 1]	[0, 1, 2]	--	--	--	1.0	0.567445	client-C	--	--	--	0.0334093	0.483636	0.0666398	0.984049	0.0665938
0	1	False	15	2	0	2	1.0	0.135	1.0	1.0	1.75195	[2, 0, 1]	[0, 1, 2]	--	--	--	1.0	1.25008	client-C	--	--	--	0.0500764	0.483625	0.0666044	0.984094	0.0685049
0	1	False	16	4	0	1	1.0	0.115	-1.0	--	--	[2, 0, 1]	[0, 1, 2]	--	--	--	0.0	0.850994	client-C	--	--	--	0.0500895	0.500319	0.110792	0.983769	0.0666235
0	1	False	17	2	1	3	1.0	0.17	2.0	--	--	[2, 0, 1]	[0, 1, 2]	--	--	--	1.0	1.21804	client-C	--	--	--	0.0334001	0.483655	0.0665913	0.984076	0.0666027
0	1	False	18	2	0	2	1.0	0.135	0.0	--	--	[2, 0, 1]	[0, 1, 2]	--	--	--	0.0	0.667537	client-C	--	--	--	0.0333749	0.483651	0.0666246	0.984094	0.0665966
0	1	False	19	2	1	3	1.0	0.17	-1.0	--	--	[2, 0, 1]	[0, 1, 2]	--	--	--	1.0	0.767617	client-C	--	--	--	0.0333919	0.483647	0.066614	0.984067	0.0666211
0	1	False	20	1	1	2	1.0	0.135	-1.0	--	--	[2, 0, 1]	[0, 1, 2]	--	--	--	1.0	0.95109	client-C	--	--	--	0.0333972	0.483647	0.0666158	0.984086	0.0665931
0	1	False	21	4	0	1	1.0	0.115	-1.0	--	--	[2, 0, 1]	[0, 1, 2]	--	--	--	1.0	0.567443	client-C	--	--	--	0.0334089	0.483649	0.0666073	0.984056	0.0666211
0	1	False	22	1	0	4	1.0	0.25	-1.0	--	--	[2, 0, 1]	[0, 1, 2]	--	--	--	0.0	0.383942	client-C	--	--	--	0.0334167	0.48363	0.0666242	0.984064	0.0666143
0	1	False	23	4	0	1	1.0	0.115	-1.0	--	--	[2, 0, 1]	[0, 1, 2]	--	--	--	0.0	1.06846	client-C	--	--	--	0.0334082	0.483634	0.0666129	0.984072	0.0666327
0	1	False	24	5	1	1	1.0	0.115	1.0	0.0	2.70276	[2, 0, 1]	[0, 1, 2]	--	--	--	1.0	0.533188	client-C	--	--	--	0.0333463	0.5004	0.0999181	1.00077	0.094672
0	1	False	25	5	1	1	1.0	0.115	2.0	--	--	[2, 0, 1]	[0, 1, 2]	--	--	--	1.0	0.884397	client-C	--	--	--	0.0334149	0.483638	0.0666274	0.984074	0.066603
0	1	False	26	5	1	1	1.0	0.115	0.0	--	--	[2, 0, 1]	[0, 1, 2]	--	--	--	1.0	1.08458	client-C	--	--	--	0.0333976	0.483624	0.0666377	0.984064	0.0665942
0	1	False	27	4	0	1	1.0	0.115	1.0	0.0	9.57599	[2, 0, 1]	[0, 1, 2]	--	--	--	1.0	1.03455	client-C	--	--	--	0.033388	0.483664	0.0666161	0.984073	0.0666027
0	1	False	28	4	0	3	1.0	0.17	-1.0	--	--	[2, 0, 1]	[0, 1, 2]	--	--	--	1.0	1.60164	client-C	--	--	--	0.083451	0.505906	0.0998969	0.994602	0.066626
0	1	False	29	3	1	4	1.0	0.25	-1.0	--	--	[2, 0, 1]	[0, 1, 2]	--	--	--	1.0	1.26806	client-C	--	--	--	0.0667584	0.483644	0.066632	0.984071	0.066586
0	1	False	30	1	1	2	1.0	0.135	2.0	--	--	[2, 0, 1]	[0, 1, 2]	--	--	--	1.0	1.00113	client-C	--	--	--	0.0334195	0.483627	0.0666306	0.984073	0.0665821
0	1	False	31	3	1	4	1.0	0.25	0.0	--	--	[2, 0, 1]	[0, 1, 2]	--	--	--	1.0	0.750923	client-C	--	--	--	0.0333834	0.483648	0.0665998	0.984079	0.0666119
0	1	False	32	1	0	4	1.0	0.25	1.0	1.0	3.70361	[2, 0, 1]	[0, 1, 2]	--	--	--	0.0	1.51828	client-C	--	--	--	0.033371	0.500456	0.0770062	0.984058	0.0832733
1	1	False	1	1	0	3	1.0	0.17	-1.0	--	--	[2, 0, 1]	[0, 1, 2]	--	--	--	0.0	1.21795	client-C	--	--	--	0.0500506	0.483596	0.0665811	0.984062	0.0665782
1	1	False	2	0	1	4	1.0	0.25	2.0	--	--	[2, 0, 1]	[0, 1, 2]	--	--	--	1.0	0.634147	client-C	--	--	--	0.033393	0.483654	0.0666076	0.984091	0.0666023
1	1	False	3	4	0	1	1.0	0.115	0.0	--	--	[2, 0, 1]	[0, 1, 2]	--	--	--	0.0	0.450663	client-C	--	--	--	0.0334047	0.483636	0.0666296	0.984062	0.066615
1	1	False	4	1	1	3	1.0	0.17	-1.0	--	--	[2, 0, 1]	[0, 1, 2]	--	--	--	1.0	0.650852	client-C	--	--	--	0.0333997	0.483648	0.0666143	0.984095	0.0665878
1	1	False	5	1	0	3	1.0	0.17	1.0	0.0	5.24386	[2, 0, 1]	[0, 1, 2]	--	--	--	1.0	0.800957	client-C	--	--	--	0.0333696	0.483637	0.0666066	0.984099	0.0666041
1	1	False	6	5	0	2	1.0	0.135	2.0	--	--	[2, 0, 1]	[0, 1, 2]	--	--	--	1.0	0.967324	client-C	--	--	--	0.0666579	0.500314	0.100028	1.0007	0.0943022
1	1	False	7	1	1	3	1.0	0.17	-1.0	--	--	[2, 0, 1]	[0, 1, 2]	--	--	--	0.0	0.984488	client-C	--	--	--	0.0334096	0.483646	0.0666055	0.98406	0.0666062
1	1	False	8	4	0	1	1.0	0.115	0.0	--	--	[2, 0, 1]	[0, 1, 2]	--	--	--	0.0	0.967771	client-C	--	--	--	0.0334128	0.483629	0.0666182	0.984069	0.0666352
1	1	False	9	5	0	4	1.0	0.25	1.0	0.0	2.31918	[2, 0, 1]	[0, 1, 2]	--	--	--	1.0	1.65169	client-C	--	--	--	0.0334011	0.483638	0.0666175	0.984077	0.0666108
1	1	False	10	1	1	2	1.0	0.135	-1.0	--	--	[2, 0, 1]	[0, 1, 2]	--	--	--	0.0	0.45068	client-C	--	--	--	0.033364	0.483668	0.0666044	0.984074	0.0666193
1	1	False	11	4	0	1	1.0	0.115	-1.0	--	--	[2, 0, 1]	[0, 1, 2]	--	--	--	0.0	2.03536	client-C	--	--	--	0.0667619	0.483631	0.0666158	0.984073	0.0666051
1	1	False	12	1	1	2	1.0	0.135	2.0	--	--	[2, 0, 1]	[0, 1, 2]	--	--	--	0.0	1.96862	client-C	--	--	--	0.0335724	0.500192	0.100017	0.994515	0.0666264
1	1	False	13	0	1	4	1.0	0.25	0.0	--	--	[2, 0, 1]	[0, 1, 2]	--	--	--	1.0	0.834358	client-C	--	--	--	0.0334047	0.483629	0.0666296	0.984042	0.0666193
1	1	False	14	0	1	4	1.0	0.25	1.0	1.0	1.91876	[2, 0, 1]	[0, 1, 2]	--	--	--	1.0	1.28471	client-C	--	--	--	0.0333845	0.483637	0.0666158	0.984054	0.0666285
1	1	False	15	1	1	1	1.0	0.115	2.0	--	--	[2, 0, 1]	[0, 1, 2]	--	--	--	0.0	1.00113	client-C	--	--	--	0.0334178	0.483629	0.0666104	0.984092	0.0666186
1	1	False	16	5	0	2	1.0	0.135	-1.0	--	--	[2, 0, 1]	[0, 1, 2]	--	--	--	0.0	0.816322	client-C	--	--	--	0.0333495	0.500356	0.0999691	1.00076	0.111809
1	1	False	17	1	1	2	1.0	0.135	-1.0	--	--	[2, 0, 1]	[0, 1, 2]	--	--	--	0.0	0.650826	client-C	--	--	--	0.033394	0.483641	0.0666066	0.984058	0.0666285
1	1	False	18	4	0	1	1.0	0.115	0.0	--	--	[2, 0, 1]	[0, 1, 2]	--	--	--	0.0	1.83523	client-C	--	--	--	0.0333682	0.483652	0.0666172	0.984081	0.0666133
1	1	False	19	1	0	3	1.0	0.17	-1.0	--	--	[2, 0, 1]	[0, 1, 2]	--	--	--	0.0	1.0679	client-C	--	--	--	0.0334337	0.483626	0.0666073	0.984073	0.0666062
1	1	False	20	1	1	2	1.0	0.135	-1.0	--	--	[2, 0, 1]	[0, 1, 2]	--	--	--	0.0	0.984471	client-C	--	--	--	0.0333926	0.483646	0.0666129	0.984076	0.0665881
1	1	False	21	1	0	3	1.0	0.17	1.0	0.0	4.13733	[2, 0, 1]	[0, 1, 2]	--	--	--	1.0	0.750914	client-C	--	--	--	0.0333898	0.483655	0.0665928	0.984095	0.0666083
1	1	False	22	5	0	4	1.0	0.25	-1.0	--	--	[2, 0, 1]	[0, 1, 2]	--	--	--	0.0	0.467348	client-C	--	--	--	0.050231	0.500155	0.100002	0.99458	0.0666253
1	1	False	23	1	1	1	1.0	0.115	2.0	--	--	[2, 0, 1]	[0, 1, 2]	--	--	--	1.0	0.800974	client-C	--	--	--	0.0334054	0.483648	0.0666136	0.984079	0.0666041
1	1	False	24	5	0	2	1.0	0.135	0.0	--	--	[2, 0, 1]	[0, 1, 2]	--	--	--	1.0	2.25227	client-C	--	--	--	0.0334054	0.483623	0.0666342	0.984053	0.066591
1	1	False	25	1	1	1	1.0	0.115	1.0	0.0	6.93976	[2, 0, 1]	[0, 1, 2]	--	--	--	1.0	0.667551	client-C	--	--	--	0.0333916	0.483642	0.0665804	0.984127	0.0666069
1	1	False	26	5	0	4	1.0	0.25	-1.0	--	--	[2, 0, 1]	[0, 1, 2]	--	--	--	0.0	0.550789	client-C	--	--	--	0.0333774	0.48428	0.0665673	0.984111	0.066608
1	1	False	27	1	1	3	1.0	0.17	2.0	--	--	[2, 0, 1]	[0, 1, 2]	--	--	--	1.0	0.784313	client-C	--	--	--	0.0334627	0.500192	0.0999535	0.994627	0.0666182
1	1	False	28	0	1	4	1.0	0.25	0.0	--	--	[2, 0, 1]	[0, 1, 2]	--	--	--	1.0	0.567422	client-C	--	--	--	0.0333725	0.483665	0.0666172	0.98405	0.0666225
1	1	False	29	5	0	4	1.0	0.25	1.0	0.0	2.08554	[2, 0, 1]	[0, 1, 2]	--	--	--	0.0	0.383938	client-C	--	--	--	0.0334096	0.483632	0.0666073	0.984083	0.0666246
1	1	False	30	5	0	2	1.0	0.135	2.0	--	--	[2, 0, 1]	[0, 1, 2]	--	--	--	0.0	0.867657	client-C	--	--	--	0.0334061	0.483644	0.0666094	0.984073	0.0666168
1	1	False	31	1	1	3	1.0	0.17	0.0	--	--	[2, 0, 1]	[0, 1, 2]	--	--	--	0.0	0.951124	client-C	--	--	--	0.0333919	0.483658	0.0665605	0.984107	0.066585
1	1	False	32	1	1	1	1.0	0.115	1.0	1.0	3.10313	[2, 0, 1]	[0, 1, 2]	--	--	--	0.0	1.1343	client-C	--	--	--	0.0501252	0.500285	0.0999794	1.00078	0.110776
2	1	False	1	1	1	1	1.0	0.115	2.0	--	--	[2, 0, 1]	[0, 1, 2]	--	--	--	0.0	0.984419	client-C	--	--	--	0.0500594	0.483579	0.0665517	0.984068	0.0665853
2	1	False	2	2	0	2	1.0	0.135	0.0	--	--	[2, 0, 1]	[0, 1, 2]	--	--	--	1.0	1.41817	client-C	--	--	--	0.0333909	0.483638	0.0665945	0.984079	0.0666288
2	1	False	3	5	0	4	1.0	0.25	1.0	0.0	2.05221	[2, 0, 1]	[0, 1, 2]	--	--	--	0.0	0.650877	client-C	--	--	--	0.0333693	0.483651	0.0666076	0.984073	0.0665977
2	1	False	4	3	1	4	1.0	0.25	2.0	--	--	[2, 0, 1]	[0, 1, 2]	--	--	--	1.0	0.817639	client-C	--	--	--	0.0334022	0.483632	0.0666154	0.984069	0.0666232
2	1	False	5	3	1	4	1.0	0.25	0.0	--	--	[2, 0, 1]	[0, 1, 2]	--	--	--	1.0	0.668146	client-C	--	--	--	0.0334121	0.48363	0.0666083	0.984077	0.0666232
2	1	False	6	2	0	2	1.0	0.135	1.0	0.0	2.16901	[2, 0, 1]	[0, 1, 2]	--	--	--	0.0	2.90277	client-C	--	--	--	0.0333831	0.5003	0.0938145	0.984071	0.0666009
2	1	False	7	1	1	1	1.0	0.115	-1.0	--	--	[2, 0, 1]	[0, 1, 2]	--	--	--	0.0	1.60171	client-C	--	--	--	0.0500757	0.48364	0.0666189	0.98406	0.0666172
2	1	False	8	3	1	3	1.0	0.17	2.0	--	--	[2, 0, 1]	[0, 1, 2]	--	--	--	1.0	0.884385	client-C	--	--	--	0.0334135	0.483664	0.066592	0.984072	0.0666218
2	1	False	9	2	0	3	1.0	0.17	0.0	--	--	[2, 0, 1]	[0, 1, 2]	--	--	--	0.0	1.1346	client-C	--	--	--	0.0334008	0.48364	0.0666182	0.984065	0.0666214
2	1	False	10	3	0	1	1.0	0.115	1.0	0.0	1.71855	[2, 0, 1]	[0, 1, 2]	--	--	--	0.0	1.25136	client-C	--	--	--	0.0334047	0.483617	0.0666412	0.984073	0.0666037
2	1	False	11	5	0	4	1.0	0.25	2.0	--	--	[2, 0, 1]	[0, 1, 2]	--	--	--	1.0	0.851034	client-C	--	--	--	0.033404	0.483643	0.0666246	0.984062	0.0666218
2	1	False	12	5	0	4	1.0	0.25	0.0	--	--	[2, 0, 1]	[0, 1, 2]	--	--	--	0.0	5.53837	client-C	--	--	--	0.0333979	0.500293	0.099979	0.994587	0.0666189
2	1	False	13	5	0	4	1.0	0.25	1.0	0.0	1.21815	[2, 0, 1]	[0, 1, 2]	--	--	--	0.0	0.717596	client-C	--	--	--	0.0334075	0.483646	0.0666083	0.984087	0.0666218
2	1	False	14	3	1	3	1.0	0.17	-1.0	--	--	[2, 0, 1]	[0, 1, 2]	--	--	--	1.0	0.700844	client-C	--	--	--	0.0500796	0.483663	0.0666119	0.984063	0.0666296
2	1	False	15	2	0	3	1.0	0.17	2.0	--	--	[2, 0, 1]	[0, 1, 2]	--	--	--	0.0	0.884388	client-C	--	--	--	0.033404	0.483641	0.0666179	0.984058	0.0666211
2	1	False	16	3	1	4	1.0	0.25	0.0	--	--	[2, 0, 1]	[0, 1, 2]	--	--	--	1.0	0.851057	client-C	--	--	--	0.0333894	0.483633	0.066625	0.984057	0.0666094
2	1	False	17	4	1	2	1.0	0.135	-1.0	--	--	[2, 0, 1]	[0, 1, 2]	--	--	--	0.0	0.750933	client-C	--	--	--	0.0334294	0.483602	0.066602	0.984069	0.0666161
2	1	False	18	2	0	3	1.0	0.17	1.0	0.0	2.65276	[2, 0, 1]	[0, 1, 2]	--	--	--	0.0	0.817669	client-C	--	--	--	0.0501001	0.500414	0.0941893	0.983588	0.0666104
2	1	False	19	3	1	3	1.0	0.17	2.0	--	--	[2, 0, 1]	[0, 1, 2]	--	--	--	1.0	0.68419	client-C	--	--	--	0.0500821	0.483642	0.0666027	0.984056	0.0666143
2	1	False	20	3	0	1	1.0	0.115	0.0	--	--	[2, 0, 1]	[0, 1, 2]	--	--	--	1.0	2.25223	client-C	--	--	--	0.0334011	0.483635	0.0666327	0.984073	0.0665906
2	1	False	21	1	1	1	1.0	0.115	1.0	1.0	1.41835	[2, 0, 1]	[0, 1, 2]	--	--	--	1.0	0.717555	client-C	--	--	--	0.050098	0.483604	0.0666218	0.984071	0.0665942
2	1	False	22	3	1	4	1.0	0.25	2.0	--	--	[2, 0, 1]	[0, 1, 2]	--	--	--	1.0	0.884371	client-C	--	--	--	0.0500859	0.483637	0.0666196	0.984075	0.0666094
2	1	False	23	3	0	1	1.0	0.115	0.0	--	--	[2, 0, 1]	[0, 1, 2]	--	--	--	1.0	1.41818	client-C	--	--	--	0.0334018	0.483642	0.066615	0.984694	0.0666104
2	1	False	24	1	1	1	1.0	0.115	1.0	1.0	1.15146	[2, 0, 1]	[0, 1, 2]	--	--	--	1.0	1.33475	client-C	--	--	--	0.033388	0.500358	0.0942494	0.983604	0.0666352
2	1	False	25	2	0	3	1.0	0.17	-1.0	--	--	[2, 0, 1]	[0, 1, 2]	--	--	--	1.0	1.11791	client-C	--	--	--	0.0500721	0.483641	0.0666317	0.984074	0.0665973
2	1	False	26	2	0	2	1.0	0.135	2.0	--	--	[2, 0, 1]	[0, 1, 2]	--	--	--	1.0	1.55159	client-C	--	--	--	0.0334079	0.483651	0.0666097	0.984082	0.066602
2	1	False	27	4	1	2	1.0	0.135	0.0	--	--	[2, 0, 1]	[0, 1, 2]	--	--	--	1.0	1.1179	client-C	--	--	--	0.0333994	0.483645	0.0666235	0.984065	0.066626
2	1	False	28	4	1	2	1.0	0.135	-1.0	--	--	[2, 0, 1]	[0, 1, 2]	--	--	--	1.0	1.4682	client-C	--	--	--	0.0333972	0.483645	0.0666076	0.98408	0.0666154
2	1	False	29	2	0	2	1.0	0.135	1.0	1.0	2.47479	[2, 0, 1]	[0, 1, 2]	--	--	--	0.0	1.20133	client-C	--	--	--	0.0334025	0.483658	0.066608	0.984063	0.0666207
2	1	False	30	3	0	1	1.0	0.115	-1.0	--	--	[2, 0, 1]	[0, 1, 2]	--	--	--	1.0	2.35233	client-C	--	--	--	0.0500406	0.500288	0.100006	0.994567	0.0666012
2	1	False	31	4	1	2	1.0	0.135	2.0	--	--	[2, 0, 1]	[0, 1, 2]	--	--	--	0.0	0.734262	client-C	--	--	--	0.0667453	0.483651	0.0666009	0.984076	0.0665881
2	1	False	32	3	1	3	1.0	0.17	0.0	--	--	[2, 0, 1]	[0, 1, 2]	--	--	--	1.0	0.800953	client-C	--	--	--	0.0334149	0.483629	0.0666179	0.984053	0.0666232
0	2	False	1	1	1	1	1.0	0.115	-1.0	--	--	[1, 2, 0]	[0, 1, 2]	0.0	3.40319	client-C	--	--	--	--	--	--	0.0333346	0.500297	0.0937993	0.984022	0.0665733
0	2	False	2	2	0	4	1.0	0.25	1.0	--	--	[1, 2, 0]	[0, 1, 2]	1.0	0.550813	client-C	--	--	--	--	--	--	0.0834573	0.483646	0.066626	0.98407	0.0665644
0	2	False	3	2	0	4	1.0	0.25	2.0	--	--	[1, 2, 0]	[0, 1, 2]	1.0	0.500673	client-C	--	--	--	--	--	--	0.0333933	0.483621	0.0666426	0.984069	0.0666338
0	2	False	4	2	0	2	1.0	0.135	-1.0	--	--	[1, 2, 0]	[0, 1, 2]	1.0	0.400615	client-C	--	--	--	--	--	--	0.0333933	0.483646	0.0665804	0.984113	0.066608
0	2	False	5	2	0	2	1.0	0.135	-1.0	--	--	[1, 2, 0]	[0, 1, 2]	1.0	2.75266	client-C	--	--	--	--	--	--	0.0334213	0.483642	0.0665945	0.984068	0.0666211
0	2	False	6	2	1	2	1.0	0.135	0.0	1.0	3.55967	[1, 2, 0]	[0, 1, 2]	1.0	0.400617	client-C	--	--	--	--	--	--	0.0333856	0.483658	0.0666034	0.984087	0.0666073
0	2	False	7	0	1	4	1.0	0.25	-1.0	--	--	[1, 2, 0]	[0, 1, 2]	1.0	0.717588	client-C	--	--	--	--	--	--	0.0500966	0.500284	0.110814	0.983767	0.0666062
0	2	False	8	3	0	3	1.0	0.17	1.0	--	--	[1, 2, 0]	[0, 1, 2]	1.0	1.40149	client-C	--	--	--	--	--	--	0.0667665	0.483631	0.0666391	0.984071	0.0666069
0	2	False	9	2	1	2	1.0	0.135	2.0	--	--	[1, 2, 0]	[0, 1, 2]	1.0	2.28562	client-C	--	--	--	--	--	--	0.0334117	0.483644	0.0666126	0.984086	0.0665885
0	2	False	10	2	0	4	1.0	0.25	0.0	1.0	3.6536	[1, 2, 0]	[0, 1, 2]	1.0	1.78516	client-C	--	--	--	--	--	--	0.0334255	0.483626	0.0665963	0.984068	0.0666338
0	2	False	11	0	1	4	1.0	0.25	1.0	--	--	[1, 2, 0]	[0, 1, 2]	0.0	1.85184	client-C	--	--	--	--	--	--	0.0500796	0.483621	0.0666175	0.984085	0.0666207
0	2	False	12	1	1	3	1.0	0.17	2.0	--	--	[1, 2, 0]	[0, 1, 2]	0.0	0.650805	client-C	--	--	--	--	--	--	0.0334071	0.483631	0.0666281	0.984057	0.0666207
0	2	False	13	2	0	2	1.0	0.135	0.0	0.0	2.31909	[1, 2, 0]	[0, 1, 2]	0.0	0.43398	client-C	--	--	--	--	--	--	0.0333512	0.500362	0.110737	0.983769	0.0666115
0	2	False	14	1	1	3	1.0	0.17	1.0	--	--	[1, 2, 0]	[0, 1, 2]	0.0	0.500733	client-C	--	--	--	--	--	--	0.0834644	0.483645	0.0665995	0.984061	0.0666324
0	2	False	15	5	0	1	1.0	0.115	2.0	--	--	[1, 2, 0]	[0, 1, 2]	1.0	1.46819	client-C	--	--	--	--	--	--	0.0334181	0.48365	0.0666073	0.984065	0.0666179
0	2	False	16	1	1	1	1.0	0.115	0.0	0.0	3.10312	[1, 2, 0]	[0, 1, 2]	0.0	0.784297	client-C	--	--	--	--	--	--	0.0334096	0.483624	0.0666285	0.984068	0.0665991
0	2	False	17	3	0	3	1.0	0.17	-1.0	--	--	[1, 2, 0]	[0, 1, 2]	0.0	2.18553	client-C	--	--	--	--	--	--	0.0500799	0.48362	0.066614	0.984082	0.0666271
0	2	False	18	1	1	3	1.0	0.17	1.0	--	--	[1, 2, 0]	[0, 1, 2]	0.0	0.534034	client-C	--	--	--	--	--	--	0.0333937	0.483642	0.066591	0.984088	0.0666186
0	2	False	19	5	0	1	1.0	0.115	-1.0	--	--	[1, 2, 0]	[0, 1, 2]	0.0	0.517376	client-C	--	--	--	--	--	--	0.100081	0.500327	0.111798	0.999459	0.0666147
0	2	False	20	0	1	4	1.0	0.25	2.0	--	--	[1, 2, 0]	[0, 1, 2]	0.0	2.26891	client-C	--	--	--	--	--	--	0.0500994	0.483626	0.0666271	0.984078	0.0666147
0	2	False	21	0	1	4	1.0	0.25	0.0	0.0	2.06887	[1, 2, 0]	[0, 1, 2]	0.0	2.61924	client-C	--	--	--	--	--	--	0.0834322	0.483647	0.0666023	0.984083	0.0665747
0	2	False	22	3	0	3	1.0	0.17	1.0	--	--	[1, 2, 0]	[0, 1, 2]	1.0	0.567469	client-C	--	--	--	--	--	--	0.0500796	0.483638	0.0666253	0.984053	0.066597
0	2	False	23	1	1	1	1.0	0.115	2.0	--	--	[1, 2, 0]	[0, 1, 2]	1.0	0.667531	client-C	--	--	--	--	--	--	0.0334195	0.48365	0.0666062	0.984085	0.066602
0	2	False	24	2	0	2	1.0	0.135	-1.0	--	--	[1, 2, 0]	[0, 1, 2]	0.0	0.200411	client-C	--	--	--	--	--	--	0.0334093	0.483635	0.0666271	0.98408	0.0666207
0	2	False	25	3	0	3	1.0	0.17	0.0	0.0	0.884536	[1, 2, 0]	[0, 1, 2]	0.0	1.35142	client-C	--	--	--	--	--	--	0.0334015	0.483616	0.0666246	0.984057	0.0666296
0	2	False	26	5	0	1	1.0	0.115	1.0	--	--	[1, 2, 0]	[0, 1, 2]	0.0	0.500754	client-C	--	--	--	--	--	--	0.0502413	0.500165	0.099967	0.994605	0.0666094
0	2	False	27	2	1	2	1.0	0.135	2.0	--	--	[1, 2, 0]	[0, 1, 2]	0.0	0.634134	client-C	--	--	--	--	--	--	0.0667389	0.48364	0.066602	0.984069	0.0666069
0	2	False	28	2	1	2	1.0	0.135	0.0	0.0	1.95216	[1, 2, 0]	[0, 1, 2]	0.0	2.28559	client-C	--	--	--	--	--	--	0.0334008	0.483629	0.0666129	0.984086	0.0665977
0	2	False	29	2	0	4	1.0	0.25	1.0	--	--	[1, 2, 0]	[0, 1, 2]	1.0	0.534068	client-C	--	--	--	--	--	--	0.0500789	0.483655	0.0665938	0.984081	0.066597
0	2	False	30	5	0	1	1.0	0.115	2.0	--	--	[1, 2, 0]	[0, 1, 2]	0.0	1.40147	client-C	--	--	--	--	--	--	0.0333661	0.48365	0.0666027	0.984092	0.0666175
0	2	False	31	1	1	1	1.0	0.115	0.0	0.0	3.26995	[1, 2, 0]	[0, 1, 2]	1.0	0.734308	client-C	--	--	--	--	--	--	0.0333937	0.483648	0.0665825	0.984699	0.06662
0	2	False	32	1	1	3	1.0	0.17	1.0	--	--	[1, 2, 0]	[0, 1, 2]	0.0	0.500381	client-C	--	--	--	--	--	--	0.0667796	0.50032	0.0999436	1.00077	0.11082
1	2	False	1	0	1	3	1.0	0.17	2.0	--	--	[1, 2, 0]	[0, 1, 2]	0.0	4.45406	client-C	--	--	--	--	--	--	0.0333799	0.483603	0.0665736	0.984038	0.0665804
1	2	False	2	4	0	4	1.0	0.25	0.0	1.0	2.20235	[1, 2, 0]	[0, 1, 2]	1.0	4.87115	client-C	--	--	--	--	--	--	0.0334156	0.483649	0.0665814	0.984085	0.0666165
1	2	False	3	0	1	3	1.0	0.17	-1.0	--	--	[1, 2, 0]	[0, 1, 2]	1.0	0.500729	client-C	--	--	--	--	--	--	0.0500969	0.48364	0.0666165	0.98407	0.0666366
1	2	False	4	1	1	2	1.0	0.135	1.0	--	--	[1, 2, 0]	[0, 1, 2]	1.0	2.8249	client-C	--	--	--	--	--	--	0.0334171	0.483645	0.0666002	0.984695	0.0666147
1	2	False	5	3	0	1	1.0	0.115	2.0	--	--	[1, 2, 0]	[0, 1, 2]	1.0	1.83525	client-C	--	--	--	--	--	--	0.0334001	0.500321	0.110787	0.983776	0.0665751
1	2	False	6	3	0	1	1.0	0.115	-1.0	--	--	[1, 2, 0]	[0, 1, 2]	1.0	2.36897	client-C	--	--	--	--	--	--	0.0333834	0.483653	0.0666073	0.98406	0.0666143
1	2	False	7	1	1	2	1.0	0.135	-1.0	--	--	[1, 2, 0]	[0, 1, 2]	1.0	0.417305	client-C	--	--	--	--	--	--	0.0334057	0.483618	0.0666051	0.984071	0.0666066
1	2	False	8	0	0	3	1.0	0.17	0.0	1.0	1.03467	[1, 2, 0]	[0, 1, 2]	1.0	1.83515	client-C	--	--	--	--	--	--	0.0334043	0.483627	0.0666285	0.984068	0.0666027
1	2	False	9	2	1	4	1.0	0.25	1.0	--	--	[1, 2, 0]	[0, 1, 2]	0.0	0.600817	client-C	--	--	--	--	--	--	0.0500757	0.483637	0.0665793	0.984116	0.0666012
1	2	False	10	5	0	2	1.0	0.135	2.0	--	--	[1, 2, 0]	[0, 1, 2]	0.0	0.150412	client-C	--	--	--	--	--	--	0.0333679	0.483653	0.0666203	0.984091	0.0665938
1	2	False	11	4	1	1	1.0	0.115	0.0	0.0	2.63606	[1, 2, 0]	[0, 1, 2]	0.0	2.41905	client-C	--	--	--	--	--	--	0.033393	0.484268	0.0666242	0.98406	0.0665984
1	2	False	12	5	0	2	1.0	0.135	1.0	--	--	[1, 2, 0]	[0, 1, 2]	0.0	0.450686	client-C	--	--	--	--	--	--	0.0501121	0.500304	0.0999666	0.99456	0.0666264
1	2	False	13	3	0	1	1.0	0.115	2.0	--	--	[1, 2, 0]	[0, 1, 2]	1.0	2.85274	client-C	--	--	--	--	--	--	0.0334057	0.500346	0.0666104	0.984074	0.0666073
1	2	False	14	5	0	2	1.0	0.135	0.0	1.0	1.31828	[1, 2, 0]	[0, 1, 2]	1.0	3.30311	client-C	--	--	--	--	--	--	0.033382	0.483662	0.0665906	0.984069	0.0666239
1	2	False	15	4	0	4	1.0	0.25	-1.0	--	--	[1, 2, 0]	[0, 1, 2]	0.0	2.43567	client-C	--	--	--	--	--	--	0.0333774	0.483635	0.0666193	0.984079	0.0666267
1	2	False	16	2	1	4	1.0	0.25	1.0	--	--	[1, 2, 0]	[0, 1, 2]	0.0	2.05204	client-C	--	--	--	--	--	--	0.0333873	0.483651	0.0665931	0.984093	0.0665959
1	2	False	17	1	1	2	1.0	0.135	2.0	--	--	[1, 2, 0]	[0, 1, 2]	1.0	2.18417	client-C	--	--	--	--	--	--	0.0334188	0.500292	0.0999695	1.00072	0.111843
1	2	False	18	4	1	1	1.0	0.115	0.0	1.0	1.48505	[1, 2, 0]	[0, 1, 2]	1.0	4.07045	client-C	--	--	--	--	--	--	0.0333933	0.483658	0.0665896	0.984104	0.0665906
1	2	False	19	4	1	1	1.0	0.115	1.0	--	--	[1, 2, 0]	[0, 1, 2]	1.0	1.8185	client-C	--	--	--	--	--	--	0.0334022	0.483637	0.0666324	0.984074	0.0665995
1	2	False	20	4	1	1	1.0	0.115	-1.0	--	--	[1, 2, 0]	[0, 1, 2]	1.0	1.01781	client-C	--	--	--	--	--	--	0.0333937	0.483639	0.0666193	0.984071	0.0666288
1	2	False	21	0	0	3	1.0	0.17	2.0	--	--	[1, 2, 0]	[0, 1, 2]	1.0	3.95365	client-C	--	--	--	--	--	--	0.033381	0.483633	0.0666062	0.984077	0.0666239
1	2	False	22	2	1	4	1.0	0.25	0.0	0.0	2.2191	[1, 2, 0]	[0, 1, 2]	0.0	2.18548	client-C	--	--	--	--	--	--	0.0334025	0.483614	0.0666168	0.984077	0.0665998
1	2	False	23	0	1	3	1.0	0.17	1.0	--	--	[1, 2, 0]	[0, 1, 2]	1.0	8.54098	client-C	--	--	--	--	--	--	0.0667803	0.500279	0.0938201	0.984082	0.0665984
1	2	False	24	2	1	4	1.0	0.25	-1.0	--	--	[1, 2, 0]	[0, 1, 2]	1.0	3.31989	client-C	--	--	--	--	--	--	0.0333894	0.483635	0.0665864	0.984065	0.0665878
1	2	False	25	0	0	3	1.0	0.17	2.0	--	--	[1, 2, 0]	[0, 1, 2]	1.0	2.98616	client-C	--	--	--	--	--	--	0.0333898	0.483654	0.0666009	0.984091	0.0666058
1	2	False	26	0	0	3	1.0	0.17	0.0	1.0	4.68795	[1, 2, 0]	[0, 1, 2]	1.0	4.56034	client-C	--	--	--	--	--	--	0.0333894	0.483663	0.0666119	0.98408	0.066591
1	2	False	27	4	0	4	1.0	0.25	-1.0	--	--	[1, 2, 0]	[0, 1, 2]	0.0	6.28906	client-C	--	--	--	--	--	--	0.0333572	0.500305	0.0999479	0.994579	0.0665892
1	2	False	28	1	1	2	1.0	0.135	-1.0	--	--	[1, 2, 0]	[0, 1, 2]	0.0	0.717587	client-C	--	--	--	--	--	--	0.033404	0.483626	0.0666119	0.984086	0.0665952
1	2	False	29	5	0	2	1.0	0.135	1.0	--	--	[1, 2, 0]	[0, 1, 2]	0.0	0.73429	client-C	--	--	--	--	--	--	0.0334171	0.483653	0.0665988	0.984039	0.066586
1	2	False	30	3	0	1	1.0	0.115	2.0	--	--	[1, 2, 0]	[0, 1, 2]	0.0	0.617467	client-C	--	--	--	--	--	--	0.0333948	0.483625	0.0666129	0.984074	0.0666147
1	2	False	31	0	1	3	1.0	0.17	0.0	1.0	2.71945	[1, 2, 0]	[0, 1, 2]	0.0	4.55976	client-C	--	--	--	--	--	--	0.0334008	0.483647	0.0665956	0.984085	0.0665952
1	2	False	32	4	0	4	1.0	0.25	1.0	--	--	[1, 2, 0]	[0, 1, 2]	0.0	0.567163	client-C	--	--	--	--	--	--	0.050138	0.500237	0.0999762	1.00076	0.110817
2	2	False	1	1	0	4	1.0	0.25	2.0	--	--	[1, 2, 0]	[0, 1, 2]	0.0	0.13373	client-C	--	--	--	--	--	--	0.0333488	0.483604	0.0665747	0.984051	0.0665634
2	2	False	2	0	1	4	1.0	0.25	0.0	1.0	9.27509	[1, 2, 0]	[0, 1, 2]	0.0	0.734242	client-C	--	--	--	--	--	--	0.0333841	0.483635	0.0666334	0.984061	0.0666203
2	2	False	3	1	0	4	1.0	0.25	1.0	--	--	[1, 2, 0]	[0, 1, 2]	1.0	1.45156	client-C	--	--	--	--	--	--	0.0333611	0.483659	0.0666111	0.984059	0.066625
2	2	False	4	4	0	1	1.0	0.115	2.0	--	--	[1, 2, 0]	[0, 1, 2]	0.0	2.28557	client-C	--	--	--	--	--	--	0.0334135	0.506001	0.0998226	0.994608	0.0665949
2	2	False	5	0	1	3	1.0	0.17	0.0	1.0	2.21902	[1, 2, 0]	[0, 1, 2]	1.0	1.05118	client-C	--	--	--	--	--	--	0.0667725	0.483641	0.066614	0.98408	0.0666005
2	2	False	6	0	1	3	1.0	0.17	-1.0	--	--	[1, 2, 0]	[0, 1, 2]	1.0	3.21971	client-C	--	--	--	--	--	--	0.033376	0.483638	0.0666349	0.984058	0.0666058
2	2	False	7	2	0	3	1.0	0.17	1.0	--	--	[1, 2, 0]	[0, 1, 2]	1.0	1.56831	client-C	--	--	--	--	--	--	0.0334096	0.483644	0.0666147	0.984075	0.0665843
2	2	False	8	0	1	4	1.0	0.25	-1.0	--	--	[1, 2, 0]	[0, 1, 2]	1.0	0.817667	client-C	--	--	--	--	--	--	0.0333781	0.483657	0.0665995	0.984063	0.0666296
2	2	False	9	0	1	4	1.0	0.25	-1.0	--	--	[1, 2, 0]	[0, 1, 2]	1.0	0.767616	client-C	--	--	--	--	--	--	0.0334128	0.483632	0.0666398	0.984071	0.0665846
2	2	False	10	2	0	3	1.0	0.17	-1.0	--	--	[1, 2, 0]	[0, 1, 2]	1.0	1.21801	client-C	--	--	--	--	--	--	0.0333742	0.483664	0.0665981	0.98407	0.0665885
2	2	False	11	2	0	3	1.0	0.17	2.0	--	--	[1, 2, 0]	[0, 1, 2]	0.0	0.784287	client-C	--	--	--	--	--	--	0.0334093	0.48364	0.0666253	0.984682	0.0666161
2	2	False	12	4	0	1	1.0	0.115	-1.0	--	--	[1, 2, 0]	[0, 1, 2]	0.0	0.884401	client-C	--	--	--	--	--	--	0.033353	0.500226	0.0942926	0.983602	0.0666242
2	2	False	13	3	0	2	1.0	0.135	0.0	1.0	3.18657	[1, 2, 0]	[0, 1, 2]	0.0	1.45151	client-C	--	--	--	--	--	--	0.0333771	0.483637	0.0666058	0.984072	0.0666264
2	2	False	14	0	1	4	1.0	0.25	-1.0	--	--	[1, 2, 0]	[0, 1, 2]	1.0	3.40324	client-C	--	--	--	--	--	--	0.0334015	0.483621	0.0666214	0.984075	0.0666129
2	2	False	15	1	0	4	1.0	0.25	1.0	--	--	[1, 2, 0]	[0, 1, 2]	1.0	0.267214	client-C	--	--	--	--	--	--	0.0334079	0.483657	0.0665874	0.984087	0.0665977
2	2	False	16	0	1	2	1.0	0.135	2.0	--	--	[1, 2, 0]	[0, 1, 2]	0.0	3.18634	client-C	--	--	--	--	--	--	0.033393	0.483657	0.0666119	0.984076	0.0666232
2	2	False	17	4	1	1	1.0	0.115	-1.0	--	--	[1, 2, 0]	[0, 1, 2]	1.0	0.767665	client-C	--	--	--	--	--	--	0.0333905	0.483653	0.0666218	0.984048	0.0665793
2	2	False	18	0	1	3	1.0	0.17	-1.0	--	--	[1, 2, 0]	[0, 1, 2]	1.0	0.650796	client-C	--	--	--	--	--	--	0.0333887	0.483627	0.0666324	0.984061	0.0666182
2	2	False	19	1	0	4	1.0	0.25	0.0	0.0	1.652	[1, 2, 0]	[0, 1, 2]	1.0	5.03745	client-C	--	--	--	--	--	--	0.0334206	0.500275	0.100004	1.00074	0.0943287
2	2	False	20	3	0	2	1.0	0.135	1.0	--	--	[1, 2, 0]	[0, 1, 2]	1.0	1.83516	client-C	--	--	--	--	--	--	0.0334086	0.483624	0.0666062	0.984077	0.0666349
2	2	False	21	4	1	1	1.0	0.115	2.0	--	--	[1, 2, 0]	[0, 1, 2]	1.0	1.93525	client-C	--	--	--	--	--	--	0.0333884	0.483638	0.0666182	0.984068	0.0666257
2	2	False	22	2	0	3	1.0	0.17	-1.0	--	--	[1, 2, 0]	[0, 1, 2]	1.0	1.40148	client-C	--	--	--	--	--	--	0.0333502	0.483657	0.0665991	0.984079	0.0666267
2	2	False	23	0	1	2	1.0	0.135	-1.0	--	--	[1, 2, 0]	[0, 1, 2]	1.0	2.76937	client-C	--	--	--	--	--	--	0.0334057	0.483647	0.0666129	0.984074	0.0665928
2	2	False	24	0	1	3	1.0	0.17	-1.0	--	--	[1, 2, 0]	[0, 1, 2]	1.0	0.467343	client-C	--	--	--	--	--	--	0.0333562	0.48364	0.0666016	0.984095	0.0665991
2	2	False	25	4	0	1	1.0	0.115	-1.0	--	--	[1, 2, 0]	[0, 1, 2]	1.0	2.21947	client-C	--	--	--	--	--	--	0.033381	0.483643	0.0666097	0.984055	0.0666214
2	2	False	26	4	1	1	1.0	0.115	0.0	0.0	1.71862	[1, 2, 0]	[0, 1, 2]	0.0	0.750967	client-C	--	--	--	--	--	--	0.0667311	0.505887	0.0771141	0.984037	0.0665938
2	2	False	27	4	1	1	1.0	0.115	1.0	--	--	[1, 2, 0]	[0, 1, 2]	0.0	0.417296	client-C	--	--	--	--	--	--	0.0334125	0.483637	0.0666207	0.984096	0.0665871
2	2	False	28	3	0	2	1.0	0.135	2.0	--	--	[1, 2, 0]	[0, 1, 2]	0.0	0.9011	client-C	--	--	--	--	--	--	0.0333424	0.483659	0.0665931	0.98408	0.0666129
2	2	False	29	0	1	2	1.0	0.135	0.0	0.0	2.4359	[1, 2, 0]	[0, 1, 2]	0.0	0.0670004	client-C	--	--	--	--	--	--	0.0333534	0.483652	0.0666044	0.98408	0.0666066
2	2	False	30	0	1	2	1.0	0.135	1.0	--	--	[1, 2, 0]	[0, 1, 2]	1.0	1.86856	client-C	--	--	--	--	--	--	0.0334093	0.483638	0.0666083	0.984087	0.0665924
2	2	False	31	3	0	2	1.0	0.135	2.0	--	--	[1, 2, 0]	[0, 1, 2]	1.0	1.25137	client-C	--	--	--	--	--	--	0.0500421	0.483632	0.0666211	0.984045	0.0666242
2	2	False	32	4	0	1	1.0	0.115	0.0	0.0	4.97138	[1, 2, 0]	[0, 1, 2]	1.0	3.68678	client-C	--	--	--	--	--	--	0.0333962	0.500234	0.110805	0.983773	0.0666108
