subblock_no	block_no	practice	TrialNumber	target_pos	target_screen_nr	contrast_idx	ran	contrast	group_dec_maker	group_dec	group_dec_rt	participants	feedback_texts_order	0_indiv_dec	0_indiv_dec_rt	0_client	1_indiv_dec	1_indiv_dec_rt	1_client	2_indiv_dec	2_indiv_dec_rt	2_client	trial_wait.duration	fixation.duration	stim1.duration	blank_between.duration	stim2.duration
0	0	True	1	3	0	2	1.0	0.135	-1.0	--	--	[0, 1, 2]	[0, 1, 2]	--	--	--	1.0	3.07027	client-B	--	--	--	0.0333807	0.520877	0.0959934	0.99459	0.0665817
0	0	True	2	0	0	4	1.0	0.25	0.0	--	--	[0, 1, 2]	[0, 1, 2]	--	--	--	1.0	2.35238	client-B	--	--	--	0.0333354	0.50034	0.0999981	0.994614	0.0666139
0	0	True	3	3	1	2	1.0	0.135	1.0	1.0	17.6389	[0, 1, 2]	[0, 1, 2]	--	--	--	0.0	2.05211	client-B	--	--	--	0.0333524	0.500338	0.0999712	0.994633	0.0666008
0	0	True	4	4	0	3	1.0	0.17	-1.0	--	--	[0, 1, 2]	[0, 1, 2]	--	--	--	0.0	3.21977	client-B	--	--	--	0.0500844	0.500317	0.0771345	0.984071	0.0666316
0	0	True	5	1	0	1	1.0	0.115	2.0	--	--	[0, 1, 2]	[0, 1, 2]	--	--	--	0.0	1.535	client-B	--	--	--	0.0333758	0.48366	0.0665877	0.984119	0.0665742
0	0	True	6	4	1	1	1.0	0.115	0.0	--	--	[0, 1, 2]	[0, 1, 2]	--	--	--	0.0	1.75187	client-B	--	--	--	0.0333736	0.483644	0.0666096	0.984097	0.0666054
0	0	True	7	1	1	3	1.0	0.17	1.0	0.0	2.11903	[0, 1, 2]	[0, 1, 2]	--	--	--	0.0	1.21801	client-B	--	--	--	0.0333807	0.483655	0.0666121	0.98409	0.066617
0	0	True	8	1	1	4	1.0	0.25	2.0	--	--	[0, 1, 2]	[0, 1, 2]	--	--	--	1.0	0.800981	client-B	--	--	--	0.0501056	0.500275	0.0999808	0.994589	0.066611
0	0	False	1	0	1	2	1.0	0.135	0.0	--	--	[0, 1, 2]	[0, 1, 2]	--	--	--	0.0	0.817624	client-B	--	--	--	0.0333697	0.48361	0.0665594	0.98406	0.0666015
0	0	False	2	4	0	2	1.0	0.135	-1.0	--	--	[0, 1, 2]	[0, 1, 2]	--	--	--	0.0	1.10125	client-B	--	--	--	0.0333712	0.484303	0.0666064	0.984115	0.0666103
0	0	False	3	3	0	4	1.0	0.25	-1.0	--	--	[0, 1, 2]	[0, 1, 2]	--	--	--	0.0	1.05123	client-B	--	--	--	0.0332894	0.500333	0.0999829	0.994624	0.0666121
0	0	False	4	4	0	2	1.0	0.135	1.0	0.0	5.57201	[0, 1, 2]	[0, 1, 2]	--	--	--	1.0	0.734282	client-B	--	--	--	0.0333782	0.483658	0.0666259	0.984071	0.0666174
0	0	False	5	1	1	1	1.0	0.115	2.0	--	--	[0, 1, 2]	[0, 1, 2]	--	--	--	0.0	1.45162	client-B	--	--	--	0.0500596	0.483637	0.0666209	0.984103	0.0666103
0	0	False	6	4	0	3	1.0	0.17	0.0	--	--	[0, 1, 2]	[0, 1, 2]	--	--	--	1.0	1.83524	client-B	--	--	--	0.033363	0.483618	0.0665909	0.984131	0.0666319
0	0	False	7	3	0	4	1.0	0.25	-1.0	--	--	[0, 1, 2]	[0, 1, 2]	--	--	--	0.0	0.834382	client-B	--	--	--	0.0333634	0.483648	0.0666245	0.984077	0.0666287
0	0	False	8	4	0	3	1.0	0.17	-1.0	--	--	[0, 1, 2]	[0, 1, 2]	--	--	--	0.0	2.15168	client-B	--	--	--	0.0333903	0.50031	0.099962	1.00078	0.0943149
0	0	False	9	4	0	3	1.0	0.17	-1.0	--	--	[0, 1, 2]	[0, 1, 2]	--	--	--	0.0	0.684233	client-B	--	--	--	0.0333496	0.483658	0.0666217	0.984085	0.0666146
0	0	False	10	4	0	2	1.0	0.135	1.0	0.0	9.22528	[0, 1, 2]	[0, 1, 2]	--	--	--	0.0	2.26897	client-B	--	--	--	0.0333535	0.483664	0.0666209	0.984096	0.0666174
0	0	False	11	1	1	1	1.0	0.115	2.0	--	--	[0, 1, 2]	[0, 1, 2]	--	--	--	1.0	1.75182	client-B	--	--	--	0.0500514	0.483671	0.0665764	0.984107	0.0666057
0	0	False	12	0	1	2	1.0	0.135	-1.0	--	--	[0, 1, 2]	[0, 1, 2]	--	--	--	0.0	0.801041	client-B	--	--	--	0.0319835	0.500296	0.0999957	0.994613	0.0665615
0	0	False	13	0	0	1	1.0	0.115	0.0	--	--	[0, 1, 2]	[0, 1, 2]	--	--	--	0.0	0.884391	client-B	--	--	--	0.0333712	0.48363	0.0666163	0.984086	0.0666231
0	0	False	14	4	1	3	1.0	0.17	1.0	0.0	2.10237	[0, 1, 2]	[0, 1, 2]	--	--	--	0.0	0.76764	client-B	--	--	--	0.0333669	0.483638	0.0666259	0.984097	0.0666071
0	0	False	15	4	1	3	1.0	0.17	-1.0	--	--	[0, 1, 2]	[0, 1, 2]	--	--	--	0.0	1.71844	client-B	--	--	--	0.050055	0.483628	0.0666125	0.984124	0.0666234
0	0	False	16	0	0	1	1.0	0.115	-1.0	--	--	[0, 1, 2]	[0, 1, 2]	--	--	--	0.0	1.61839	client-B	--	--	--	0.0333503	0.483663	0.0666146	0.984098	0.0666107
0	0	False	17	4	0	3	1.0	0.17	-1.0	--	--	[0, 1, 2]	[0, 1, 2]	--	--	--	0.0	1.00117	client-B	--	--	--	0.0333634	0.483652	0.0665728	0.984172	0.0665831
0	0	False	18	4	1	3	1.0	0.17	2.0	--	--	[0, 1, 2]	[0, 1, 2]	--	--	--	0.0	1.7852	client-B	--	--	--	0.0333623	0.483665	0.0666195	0.984093	0.0666086
0	0	False	19	2	1	4	1.0	0.25	0.0	--	--	[0, 1, 2]	[0, 1, 2]	--	--	--	0.0	1.76853	client-B	--	--	--	0.0333981	0.500393	0.0942183	0.983624	0.0666319
0	0	False	20	3	0	4	1.0	0.25	-1.0	--	--	[0, 1, 2]	[0, 1, 2]	--	--	--	0.0	0.65088	client-B	--	--	--	0.0333814	0.483642	0.0665905	0.984144	0.0666121
0	0	False	21	0	0	1	1.0	0.115	-1.0	--	--	[0, 1, 2]	[0, 1, 2]	--	--	--	0.0	0.901112	client-B	--	--	--	0.033363	0.483659	0.0665972	0.984109	0.0665972
0	0	False	22	1	1	1	1.0	0.115	1.0	1.0	1.40168	[0, 1, 2]	[0, 1, 2]	--	--	--	1.0	0.934448	client-B	--	--	--	0.0333655	0.483637	0.0666093	0.98412	0.0666015
0	0	False	23	2	1	4	1.0	0.25	2.0	--	--	[0, 1, 2]	[0, 1, 2]	--	--	--	1.0	2.01872	client-B	--	--	--	0.0500716	0.483651	0.0666117	0.984084	0.0666206
0	0	False	24	2	1	4	1.0	0.25	-1.0	--	--	[0, 1, 2]	[0, 1, 2]	--	--	--	0.0	1.38484	client-B	--	--	--	0.0333361	0.500364	0.100043	0.994541	0.0666125
0	0	False	25	0	0	1	1.0	0.115	0.0	--	--	[0, 1, 2]	[0, 1, 2]	--	--	--	0.0	0.817673	client-B	--	--	--	0.0500681	0.483657	0.0666086	0.984092	0.0666259
0	0	False	26	2	1	4	1.0	0.25	1.0	0.0	22.2931	[0, 1, 2]	[0, 1, 2]	--	--	--	1.0	1.48495	client-B	--	--	--	0.0333736	0.483643	0.0666142	0.984097	0.0666206
0	0	False	27	4	1	3	1.0	0.17	2.0	--	--	[0, 1, 2]	[0, 1, 2]	--	--	--	0.0	0.684214	client-B	--	--	--	0.0500291	0.500358	0.110774	0.983794	0.0666163
0	0	False	28	0	1	2	1.0	0.135	0.0	--	--	[0, 1, 2]	[0, 1, 2]	--	--	--	0.0	1.03453	client-B	--	--	--	0.0333775	0.483655	0.0666089	0.98409	0.0666135
0	0	False	29	3	0	4	1.0	0.25	1.0	0.0	1.58518	[0, 1, 2]	[0, 1, 2]	--	--	--	0.0	0.784314	client-B	--	--	--	0.0333581	0.483644	0.0666217	0.984091	0.0665873
0	0	False	30	0	1	2	1.0	0.135	-1.0	--	--	[0, 1, 2]	[0, 1, 2]	--	--	--	0.0	0.884435	client-B	--	--	--	0.0500762	0.483639	0.0666355	0.984098	0.066617
0	0	False	31	1	1	1	1.0	0.115	2.0	--	--	[0, 1, 2]	[0, 1, 2]	--	--	--	0.0	2.95292	client-B	--	--	--	0.0333634	0.483666	0.066616	0.984093	0.0666121
0	0	False	32	4	0	2	1.0	0.135	-1.0	--	--	[0, 1, 2]	[0, 1, 2]	--	--	--	0.0	0.50072	client-B	--	--	--	0.0334713	0.500227	0.0999765	0.994607	0.066617
1	0	False	1	3	1	3	1.0	0.17	0.0	--	--	[0, 1, 2]	[0, 1, 2]	--	--	--	0.0	1.30145	client-B	--	--	--	0.0333761	0.483605	0.0665381	0.984079	0.0665866
1	0	False	2	4	0	2	1.0	0.135	1.0	0.0	4.65456	[0, 1, 2]	[0, 1, 2]	--	--	--	0.0	0.851079	client-B	--	--	--	0.0333627	0.48366	0.0666185	0.984095	0.0665962
1	0	False	3	5	1	2	1.0	0.135	2.0	--	--	[0, 1, 2]	[0, 1, 2]	--	--	--	0.0	0.917781	client-B	--	--	--	0.0500946	0.483627	0.0666004	0.98408	0.0666149
1	0	False	4	3	0	4	1.0	0.25	-1.0	--	--	[0, 1, 2]	[0, 1, 2]	--	--	--	0.0	1.11797	client-B	--	--	--	0.050061	0.483634	0.066634	0.984688	0.0666404
1	0	False	5	4	0	2	1.0	0.135	0.0	--	--	[0, 1, 2]	[0, 1, 2]	--	--	--	0.0	1.06791	client-B	--	--	--	0.0334455	0.500268	0.0938378	0.984074	0.0666206
1	0	False	6	3	0	4	1.0	0.25	-1.0	--	--	[0, 1, 2]	[0, 1, 2]	--	--	--	0.0	0.534118	client-B	--	--	--	0.0333588	0.483671	0.0666061	0.984093	0.0666224
1	0	False	7	3	0	4	1.0	0.25	-1.0	--	--	[0, 1, 2]	[0, 1, 2]	--	--	--	0.0	0.55082	client-B	--	--	--	0.033368	0.483654	0.0665898	0.984117	0.0665615
1	0	False	8	1	0	1	1.0	0.115	1.0	1.0	0.600997	[0, 1, 2]	[0, 1, 2]	--	--	--	1.0	0.951165	client-B	--	--	--	0.0333751	0.483631	0.0666365	0.984087	0.0665739
1	0	False	9	4	1	4	1.0	0.25	2.0	--	--	[0, 1, 2]	[0, 1, 2]	--	--	--	0.0	1.53498	client-B	--	--	--	0.0500688	0.483648	0.0666132	0.984114	0.0666043
1	0	False	10	3	1	3	1.0	0.17	0.0	--	--	[0, 1, 2]	[0, 1, 2]	--	--	--	0.0	2.01874	client-B	--	--	--	0.0500684	0.483624	0.066611	0.984111	0.0665813
1	0	False	11	4	1	4	1.0	0.25	1.0	1.0	4.08751	[0, 1, 2]	[0, 1, 2]	--	--	--	1.0	0.967798	client-B	--	--	--	0.0333552	0.483659	0.0666245	0.984095	0.0666284
1	0	False	12	5	1	2	1.0	0.135	2.0	--	--	[0, 1, 2]	[0, 1, 2]	--	--	--	0.0	1.25135	client-B	--	--	--	0.0500529	0.500299	0.0999649	0.994627	0.06661
1	0	False	13	5	0	3	1.0	0.17	-1.0	--	--	[0, 1, 2]	[0, 1, 2]	--	--	--	0.0	0.917775	client-B	--	--	--	0.0500553	0.483638	0.0666245	0.984101	0.0666199
1	0	False	14	0	1	1	1.0	0.115	0.0	--	--	[0, 1, 2]	[0, 1, 2]	--	--	--	1.0	2.35241	client-B	--	--	--	0.0500337	0.483662	0.0665965	0.984079	0.0666174
1	0	False	15	4	1	4	1.0	0.25	1.0	1.0	5.32244	[0, 1, 2]	[0, 1, 2]	--	--	--	1.0	0.984487	client-B	--	--	--	0.0333705	0.483658	0.0666093	0.984106	0.0665859
1	0	False	16	4	0	2	1.0	0.135	2.0	--	--	[0, 1, 2]	[0, 1, 2]	--	--	--	0.0	0.584126	client-B	--	--	--	0.0500606	0.483649	0.0666075	0.984086	0.0666319
1	0	False	17	5	1	2	1.0	0.135	0.0	--	--	[0, 1, 2]	[0, 1, 2]	--	--	--	0.0	0.834405	client-B	--	--	--	0.0333719	0.500363	0.099945	0.994607	0.0665799
1	0	False	18	0	1	1	1.0	0.115	1.0	0.0	0.884559	[0, 1, 2]	[0, 1, 2]	--	--	--	0.0	2.65269	client-B	--	--	--	0.0333644	0.483645	0.0666227	0.984099	0.0666238
1	0	False	19	4	1	4	1.0	0.25	2.0	--	--	[0, 1, 2]	[0, 1, 2]	--	--	--	1.0	3.2365	client-B	--	--	--	0.0667512	0.483648	0.0666036	0.984109	0.0665894
1	0	False	20	5	0	3	1.0	0.17	0.0	--	--	[0, 1, 2]	[0, 1, 2]	--	--	--	1.0	2.13551	client-B	--	--	--	0.0333521	0.483649	0.0666333	0.984091	0.0666156
1	0	False	21	3	1	3	1.0	0.17	1.0	0.0	5.23842	[0, 1, 2]	[0, 1, 2]	--	--	--	0.0	2.70267	client-B	--	--	--	0.0333899	0.500369	0.0937748	0.984089	0.066605
1	0	False	22	1	0	1	1.0	0.115	-1.0	--	--	[0, 1, 2]	[0, 1, 2]	--	--	--	0.0	1.61841	client-B	--	--	--	0.0500635	0.483651	0.0665997	0.984093	0.0665933
1	0	False	23	5	1	2	1.0	0.135	2.0	--	--	[0, 1, 2]	[0, 1, 2]	--	--	--	0.0	2.80274	client-B	--	--	--	0.0333648	0.483655	0.0665852	0.98411	0.0666199
1	0	False	24	0	1	1	1.0	0.115	0.0	--	--	[0, 1, 2]	[0, 1, 2]	--	--	--	0.0	2.85843	client-B	--	--	--	0.0333602	0.483649	0.0666057	0.984697	0.0666323
1	0	False	25	3	1	3	1.0	0.17	1.0	0.0	5.0883	[0, 1, 2]	[0, 1, 2]	--	--	--	1.0	1.16801	client-B	--	--	--	0.0500759	0.500298	0.0771498	0.984083	0.0666273
1	0	False	26	5	0	3	1.0	0.17	-1.0	--	--	[0, 1, 2]	[0, 1, 2]	--	--	--	0.0	2.25232	client-B	--	--	--	0.0500518	0.483652	0.0665831	0.984091	0.0666195
1	0	False	27	0	1	1	1.0	0.115	2.0	--	--	[0, 1, 2]	[0, 1, 2]	--	--	--	0.0	0.834382	client-B	--	--	--	0.0333651	0.483665	0.0666156	0.984077	0.0666266
1	0	False	28	3	0	4	1.0	0.25	0.0	--	--	[0, 1, 2]	[0, 1, 2]	--	--	--	1.0	1.21804	client-B	--	--	--	0.0333436	0.483684	0.0666139	0.984095	0.0666174
1	0	False	29	5	0	3	1.0	0.17	-1.0	--	--	[0, 1, 2]	[0, 1, 2]	--	--	--	0.0	0.467052	client-B	--	--	--	0.0333506	0.500343	0.0999461	1.00079	0.110815
1	0	False	30	4	0	2	1.0	0.135	-1.0	--	--	[0, 1, 2]	[0, 1, 2]	--	--	--	0.0	1.38487	client-B	--	--	--	0.0500486	0.483665	0.0666241	0.984089	0.0666064
1	0	False	31	1	0	1	1.0	0.115	1.0	0.0	3.92061	[0, 1, 2]	[0, 1, 2]	--	--	--	0.0	0.567489	client-B	--	--	--	0.0500483	0.483647	0.0665948	0.984109	0.0666008
1	0	False	32	1	0	1	1.0	0.115	2.0	--	--	[0, 1, 2]	[0, 1, 2]	--	--	--	0.0	1.61835	client-B	--	--	--	0.0500624	0.483673	0.0665965	0.984098	0.0666114
2	0	False	1	4	1	3	1.0	0.17	0.0	--	--	[0, 1, 2]	[0, 1, 2]	--	--	--	0.0	1.63502	client-B	--	--	--	0.0500465	0.483596	0.0665955	0.984054	0.0666025
2	0	False	2	4	0	3	1.0	0.17	-1.0	--	--	[0, 1, 2]	[0, 1, 2]	--	--	--	0.0	0.250523	client-B	--	--	--	0.0501074	0.500313	0.110816	0.98375	0.066634
2	0	False	3	4	0	3	1.0	0.17	-1.0	--	--	[0, 1, 2]	[0, 1, 2]	--	--	--	0.0	0.917746	client-B	--	--	--	0.0500557	0.483693	0.0664819	0.984108	0.0666142
2	0	False	4	1	1	4	1.0	0.25	-1.0	--	--	[0, 1, 2]	[0, 1, 2]	--	--	--	1.0	0.750969	client-B	--	--	--	0.0500433	0.483653	0.0666224	0.984097	0.0665972
2	0	False	5	0	0	2	1.0	0.135	1.0	0.0	3.93726	[0, 1, 2]	[0, 1, 2]	--	--	--	0.0	0.901209	client-B	--	--	--	0.033363	0.483646	0.0666202	0.984111	0.066622
2	0	False	6	2	0	1	1.0	0.115	2.0	--	--	[0, 1, 2]	[0, 1, 2]	--	--	--	0.0	0.95112	client-B	--	--	--	0.0500472	0.483664	0.0666107	0.984084	0.0666386
2	0	False	7	2	0	1	1.0	0.115	0.0	--	--	[0, 1, 2]	[0, 1, 2]	--	--	--	0.0	0.634188	client-B	--	--	--	0.0333627	0.48364	0.0666259	0.984096	0.0665937
2	0	False	8	2	0	1	1.0	0.115	1.0	0.0	1.69088	[0, 1, 2]	[0, 1, 2]	--	--	--	0.0	0.517398	client-B	--	--	--	0.0500596	0.483642	0.0666188	0.984115	0.0665979
2	0	False	9	0	0	2	1.0	0.135	-1.0	--	--	[0, 1, 2]	[0, 1, 2]	--	--	--	0.0	0.867753	client-B	--	--	--	0.0500532	0.500351	0.0770807	0.984123	0.0666188
2	0	False	10	2	1	2	1.0	0.135	2.0	--	--	[0, 1, 2]	[0, 1, 2]	--	--	--	1.0	0.584132	client-B	--	--	--	0.0500656	0.483645	0.0666121	0.984091	0.0666128
2	0	False	11	0	0	2	1.0	0.135	-1.0	--	--	[0, 1, 2]	[0, 1, 2]	--	--	--	0.0	0.53413	client-B	--	--	--	0.0333935	0.483645	0.0666291	0.984091	0.0666075
2	0	False	12	4	1	3	1.0	0.17	0.0	--	--	[0, 1, 2]	[0, 1, 2]	--	--	--	0.0	0.767625	client-B	--	--	--	0.0333729	0.483648	0.0666209	0.9841	0.0666096
2	0	False	13	1	1	4	1.0	0.25	1.0	0.0	3.67037	[0, 1, 2]	[0, 1, 2]	--	--	--	0.0	0.650881	client-B	--	--	--	0.033379	0.483645	0.0666125	1.0008	0.0666054
2	0	False	14	4	0	3	1.0	0.17	2.0	--	--	[0, 1, 2]	[0, 1, 2]	--	--	--	0.0	0.467413	client-B	--	--	--	0.0500578	0.483664	0.0666277	0.984091	0.0665948
2	0	False	15	4	1	1	1.0	0.115	0.0	--	--	[0, 1, 2]	[0, 1, 2]	--	--	--	0.0	1.10128	client-B	--	--	--	0.0333754	0.483643	0.0666163	0.984098	0.0666238
2	0	False	16	2	0	4	1.0	0.25	-1.0	--	--	[0, 1, 2]	[0, 1, 2]	--	--	--	0.0	0.467387	client-B	--	--	--	0.0332487	0.500406	0.0998895	1.0007	0.110511
2	0	False	17	2	0	1	1.0	0.115	1.0	0.0	4.95482	[0, 1, 2]	[0, 1, 2]	--	--	--	0.0	1.06794	client-B	--	--	--	0.0333524	0.483666	0.0666309	0.984091	0.0666128
2	0	False	18	4	1	3	1.0	0.17	2.0	--	--	[0, 1, 2]	[0, 1, 2]	--	--	--	1.0	1.13466	client-B	--	--	--	0.0500617	0.48365	0.0665887	0.984131	0.0666082
2	0	False	19	4	1	1	1.0	0.115	0.0	--	--	[0, 1, 2]	[0, 1, 2]	--	--	--	0.0	0.550784	client-B	--	--	--	0.0333998	0.483626	0.0666156	0.984095	0.0666263
2	0	False	20	2	0	4	1.0	0.25	-1.0	--	--	[0, 1, 2]	[0, 1, 2]	--	--	--	0.0	0.467369	client-B	--	--	--	0.0333821	0.483656	0.0666178	0.984111	0.0666068
2	0	False	21	2	0	4	1.0	0.25	-1.0	--	--	[0, 1, 2]	[0, 1, 2]	--	--	--	0.0	0.484636	client-B	--	--	--	0.0500575	0.483636	0.0666213	0.984103	0.0666319
2	0	False	22	4	1	1	1.0	0.115	1.0	0.0	6.13922	[0, 1, 2]	[0, 1, 2]	--	--	--	0.0	0.867704	client-B	--	--	--	0.050055	0.505873	0.0999765	0.994609	0.0666125
2	0	False	23	4	0	3	1.0	0.17	-1.0	--	--	[0, 1, 2]	[0, 1, 2]	--	--	--	0.0	0.800983	client-B	--	--	--	0.0834067	0.483659	0.0666089	0.984106	0.066611
2	0	False	24	2	1	2	1.0	0.135	-1.0	--	--	[0, 1, 2]	[0, 1, 2]	--	--	--	0.0	0.584143	client-B	--	--	--	0.0333524	0.483662	0.0665714	0.984134	0.0666386
2	0	False	25	1	1	4	1.0	0.25	2.0	--	--	[0, 1, 2]	[0, 1, 2]	--	--	--	1.0	1.08461	client-B	--	--	--	0.0333655	0.483633	0.0665983	0.984107	0.0666298
2	0	False	26	4	1	3	1.0	0.17	0.0	--	--	[0, 1, 2]	[0, 1, 2]	--	--	--	0.0	0.801002	client-B	--	--	--	0.0333669	0.483662	0.0666008	0.984103	0.0666082
2	0	False	27	1	1	4	1.0	0.25	1.0	1.0	1.99115	[0, 1, 2]	[0, 1, 2]	--	--	--	0.0	0.700881	client-B	--	--	--	0.0333666	0.483671	0.0832871	1.00078	0.0666167
2	0	False	28	2	0	4	1.0	0.25	-1.0	--	--	[0, 1, 2]	[0, 1, 2]	--	--	--	0.0	0.884379	client-B	--	--	--	0.033524	0.500183	0.0942742	0.983625	0.0666206
2	0	False	29	2	1	2	1.0	0.135	2.0	--	--	[0, 1, 2]	[0, 1, 2]	--	--	--	1.0	1.51834	client-B	--	--	--	0.0667487	0.483648	0.0666142	0.984089	0.0666089
2	0	False	30	0	0	2	1.0	0.135	0.0	--	--	[0, 1, 2]	[0, 1, 2]	--	--	--	1.0	2.16888	client-B	--	--	--	0.0333864	0.483633	0.0666167	0.984107	0.0666284
2	0	False	31	4	1	1	1.0	0.115	1.0	0.0	3.43682	[0, 1, 2]	[0, 1, 2]	--	--	--	0.0	0.717599	client-B	--	--	--	0.0333361	0.483671	0.0666117	0.984091	0.0666178
2	0	False	32	2	1	2	1.0	0.135	2.0	--	--	[0, 1, 2]	[0, 1, 2]	--	--	--	0.0	0.567465	client-B	--	--	--	0.0500613	0.483638	0.0665806	0.984118	0.0666156
0	1	False	1	4	1	2	1.0	0.135	2.0	--	--	[2, 0, 1]	[0, 1, 2]	0.0	1.05119	client-B	--	--	--	--	--	--	0.033317	0.500268	0.0937968	0.984073	0.0665817
0	1	False	2	4	0	2	1.0	0.135	0.0	0.0	3.58697	[2, 0, 1]	[0, 1, 2]	0.0	0.917776	client-B	--	--	--	--	--	--	0.0333641	0.483649	0.0666135	0.98411	0.066599
0	1	False	3	3	0	4	1.0	0.25	-1.0	--	--	[2, 0, 1]	[0, 1, 2]	0.0	0.984479	client-B	--	--	--	--	--	--	0.0500514	0.483645	0.0666376	0.984069	0.0665955
0	1	False	4	1	0	1	1.0	0.115	-1.0	--	--	[2, 0, 1]	[0, 1, 2]	0.0	0.96778	client-B	--	--	--	--	--	--	0.0333751	0.500372	0.0770758	0.984088	0.0666096
0	1	False	5	1	0	1	1.0	0.115	1.0	--	--	[2, 0, 1]	[0, 1, 2]	1.0	1.15133	client-B	--	--	--	--	--	--	0.0500624	0.48365	0.0665994	0.984093	0.0665877
0	1	False	6	0	1	4	1.0	0.25	2.0	--	--	[2, 0, 1]	[0, 1, 2]	0.0	0.750965	client-B	--	--	--	--	--	--	0.0500249	0.483656	0.0666135	0.984108	0.0666107
0	1	False	7	0	1	4	1.0	0.25	0.0	1.0	3.13661	[2, 0, 1]	[0, 1, 2]	0.0	0.767597	client-B	--	--	--	--	--	--	0.0333683	0.483669	0.0666029	0.984093	0.066617
0	1	False	8	1	0	1	1.0	0.115	-1.0	--	--	[2, 0, 1]	[0, 1, 2]	0.0	1.23469	client-B	--	--	--	--	--	--	0.0500677	0.483647	0.0666245	0.984088	0.0666209
0	1	False	9	4	0	2	1.0	0.135	-1.0	--	--	[2, 0, 1]	[0, 1, 2]	0.0	0.617474	client-B	--	--	--	--	--	--	0.0333588	0.483666	0.0665884	0.984136	0.0666068
0	1	False	10	3	0	4	1.0	0.25	-1.0	--	--	[2, 0, 1]	[0, 1, 2]	0.0	0.717607	client-B	--	--	--	--	--	--	0.0500585	0.483626	0.066611	0.984093	0.0666156
0	1	False	11	3	0	4	1.0	0.25	-1.0	--	--	[2, 0, 1]	[0, 1, 2]	0.0	0.768224	client-B	--	--	--	--	--	--	0.0333623	0.483662	0.0666047	0.984107	0.0666025
0	1	False	12	3	0	3	1.0	0.17	-1.0	--	--	[2, 0, 1]	[0, 1, 2]	0.0	0.717583	client-B	--	--	--	--	--	--	0.0333609	0.483659	0.0665856	0.984156	0.0666001
0	1	False	13	1	1	1	1.0	0.115	1.0	--	--	[2, 0, 1]	[0, 1, 2]	0.0	0.584334	client-B	--	--	--	--	--	--	0.057043	0.515593	0.100033	0.994552	0.0665976
0	1	False	14	0	1	4	1.0	0.25	2.0	--	--	[2, 0, 1]	[0, 1, 2]	0.0	0.617489	client-B	--	--	--	--	--	--	0.0667349	0.483649	0.0665979	0.984118	0.0665923
0	1	False	15	4	1	2	1.0	0.135	0.0	1.0	2.88634	[2, 0, 1]	[0, 1, 2]	0.0	1.13463	client-B	--	--	--	--	--	--	0.0333641	0.483673	0.0666015	0.984098	0.0665958
0	1	False	16	1	1	1	1.0	0.115	-1.0	--	--	[2, 0, 1]	[0, 1, 2]	0.0	1.63505	client-B	--	--	--	--	--	--	0.0500497	0.483651	0.0666167	0.984103	0.0665965
0	1	False	17	4	1	2	1.0	0.135	1.0	--	--	[2, 0, 1]	[0, 1, 2]	0.0	0.634241	client-B	--	--	--	--	--	--	0.033369	0.483669	0.066611	0.98409	0.0665926
0	1	False	18	3	0	3	1.0	0.17	2.0	--	--	[2, 0, 1]	[0, 1, 2]	0.0	0.584115	client-B	--	--	--	--	--	--	0.0333584	0.483659	0.0666202	0.984083	0.0666114
0	1	False	19	0	1	4	1.0	0.25	0.0	1.0	4.60453	[2, 0, 1]	[0, 1, 2]	0.0	0.751	client-B	--	--	--	--	--	--	0.0333765	0.483657	0.0666107	0.984068	0.0665962
0	1	False	20	3	0	4	1.0	0.25	-1.0	--	--	[2, 0, 1]	[0, 1, 2]	0.0	0.467391	client-B	--	--	--	--	--	--	0.0500394	0.500429	0.0770146	0.984115	0.0665742
0	1	False	21	1	1	1	1.0	0.115	1.0	--	--	[2, 0, 1]	[0, 1, 2]	0.0	0.550793	client-B	--	--	--	--	--	--	0.0500589	0.483667	0.0666231	0.984084	0.0665848
0	1	False	22	1	1	1	1.0	0.115	-1.0	--	--	[2, 0, 1]	[0, 1, 2]	0.0	1.08459	client-B	--	--	--	--	--	--	0.0333853	0.483654	0.0666086	0.984103	0.0666086
0	1	False	23	1	1	3	1.0	0.17	2.0	--	--	[2, 0, 1]	[0, 1, 2]	0.0	0.667525	client-B	--	--	--	--	--	--	0.0333429	0.483687	0.0666057	0.984107	0.0666103
0	1	False	24	1	1	3	1.0	0.17	-1.0	--	--	[2, 0, 1]	[0, 1, 2]	0.0	0.834366	client-B	--	--	--	--	--	--	0.0333513	0.483643	0.0666294	0.984112	0.0666054
0	1	False	25	4	1	2	1.0	0.135	0.0	1.0	4.42658	[2, 0, 1]	[0, 1, 2]	0.0	0.617485	client-B	--	--	--	--	--	--	0.0500684	0.483659	0.0666068	0.984084	0.0666188
0	1	False	26	1	0	1	1.0	0.115	-1.0	--	--	[2, 0, 1]	[0, 1, 2]	0.0	0.500739	client-B	--	--	--	--	--	--	0.0500157	0.500297	0.0999949	0.994597	0.0666245
0	1	False	27	4	0	2	1.0	0.135	-1.0	--	--	[2, 0, 1]	[0, 1, 2]	0.0	0.650879	client-B	--	--	--	--	--	--	0.0333832	0.483659	0.066594	0.984109	0.0666178
0	1	False	28	1	1	3	1.0	0.17	1.0	--	--	[2, 0, 1]	[0, 1, 2]	0.0	0.700903	client-B	--	--	--	--	--	--	0.0333701	0.483664	0.0666195	0.984092	0.0666036
0	1	False	29	4	0	2	1.0	0.135	-1.0	--	--	[2, 0, 1]	[0, 1, 2]	0.0	1.28478	client-B	--	--	--	--	--	--	0.0500571	0.483633	0.0666202	0.984102	0.0666082
0	1	False	30	3	0	3	1.0	0.17	-1.0	--	--	[2, 0, 1]	[0, 1, 2]	0.0	1.03452	client-B	--	--	--	--	--	--	0.0333644	0.483656	0.066594	0.984096	0.0666217
0	1	False	31	3	0	3	1.0	0.17	-1.0	--	--	[2, 0, 1]	[0, 1, 2]	0.0	0.50073	client-B	--	--	--	--	--	--	0.03338	0.483649	0.0666064	0.984109	0.0666128
0	1	False	32	1	1	3	1.0	0.17	-1.0	--	--	[2, 0, 1]	[0, 1, 2]	0.0	0.600844	client-B	--	--	--	--	--	--	0.0333503	0.483667	0.0665781	0.984129	0.0665969
1	1	False	1	5	0	3	1.0	0.17	2.0	--	--	[2, 0, 1]	[0, 1, 2]	0.0	0.81764	client-B	--	--	--	--	--	--	0.0333669	0.483611	0.06661	0.984036	0.0665664
1	1	False	2	5	0	1	1.0	0.115	-1.0	--	--	[2, 0, 1]	[0, 1, 2]	0.0	0.467382	client-B	--	--	--	--	--	--	0.0333797	0.483646	0.0665951	0.984098	0.066617
1	1	False	3	2	0	4	1.0	0.25	-1.0	--	--	[2, 0, 1]	[0, 1, 2]	0.0	0.600844	client-B	--	--	--	--	--	--	0.0333528	0.500322	0.100066	0.994549	0.0666167
1	1	False	4	4	1	3	1.0	0.17	0.0	1.0	1.93553	[2, 0, 1]	[0, 1, 2]	0.0	0.600817	client-B	--	--	--	--	--	--	0.0333673	0.483654	0.0666284	0.984098	0.0666093
1	1	False	5	2	0	4	1.0	0.25	-1.0	--	--	[2, 0, 1]	[0, 1, 2]	0.0	0.951092	client-B	--	--	--	--	--	--	0.0500652	0.483646	0.0666128	0.984088	0.066634
1	1	False	6	5	1	2	1.0	0.135	1.0	--	--	[2, 0, 1]	[0, 1, 2]	0.0	0.517421	client-B	--	--	--	--	--	--	0.0333503	0.483666	0.0666121	0.984071	0.0666298
1	1	False	7	4	1	3	1.0	0.17	2.0	--	--	[2, 0, 1]	[0, 1, 2]	0.0	0.951111	client-B	--	--	--	--	--	--	0.0333761	0.483618	0.0666287	0.984104	0.066611
1	1	False	8	5	0	3	1.0	0.17	-1.0	--	--	[2, 0, 1]	[0, 1, 2]	0.0	0.784944	client-B	--	--	--	--	--	--	0.0333627	0.483658	0.0666114	0.984093	0.0666128
1	1	False	9	4	1	3	1.0	0.17	0.0	1.0	3.50348	[2, 0, 1]	[0, 1, 2]	0.0	0.500738	client-B	--	--	--	--	--	--	0.0333697	0.483636	0.0666217	0.984108	0.0666001
1	1	False	10	5	1	2	1.0	0.135	1.0	--	--	[2, 0, 1]	[0, 1, 2]	0.0	0.350609	client-B	--	--	--	--	--	--	0.0332639	0.500353	0.099961	1.00076	0.110532
1	1	False	11	0	1	1	1.0	0.115	-1.0	--	--	[2, 0, 1]	[0, 1, 2]	0.0	0.500731	client-B	--	--	--	--	--	--	0.0333644	0.483678	0.0666036	0.984107	0.0666103
1	1	False	12	5	0	2	1.0	0.135	-1.0	--	--	[2, 0, 1]	[0, 1, 2]	0.0	0.484089	client-B	--	--	--	--	--	--	0.0333659	0.483672	0.0666022	0.984098	0.0666153
1	1	False	13	4	1	4	1.0	0.25	2.0	--	--	[2, 0, 1]	[0, 1, 2]	0.0	0.450697	client-B	--	--	--	--	--	--	0.0333567	0.483648	0.0665827	0.984139	0.0666146
1	1	False	14	0	1	1	1.0	0.115	-1.0	--	--	[2, 0, 1]	[0, 1, 2]	0.0	0.400656	client-B	--	--	--	--	--	--	0.0333598	0.483654	0.0666149	0.984105	0.0666163
1	1	False	15	4	1	4	1.0	0.25	0.0	1.0	15.6205	[2, 0, 1]	[0, 1, 2]	0.0	0.500712	client-B	--	--	--	--	--	--	0.0500617	0.483674	0.0666061	0.984104	0.0666224
1	1	False	16	4	1	4	1.0	0.25	1.0	--	--	[2, 0, 1]	[0, 1, 2]	0.0	0.76766	client-B	--	--	--	--	--	--	0.0500815	0.500408	0.0998796	0.994624	0.066594
1	1	False	17	0	1	1	1.0	0.115	-1.0	--	--	[2, 0, 1]	[0, 1, 2]	0.0	2.08546	client-B	--	--	--	--	--	--	0.0333666	0.483659	0.066616	0.98408	0.0666149
1	1	False	18	4	1	3	1.0	0.17	2.0	--	--	[2, 0, 1]	[0, 1, 2]	0.0	0.55083	client-B	--	--	--	--	--	--	0.0333758	0.483637	0.066617	0.984094	0.0666107
1	1	False	19	5	0	3	1.0	0.17	-1.0	--	--	[2, 0, 1]	[0, 1, 2]	0.0	0.417326	client-B	--	--	--	--	--	--	0.0500628	0.483632	0.066634	0.984097	0.0666132
1	1	False	20	4	1	4	1.0	0.25	0.0	1.0	2.50272	[2, 0, 1]	[0, 1, 2]	0.0	0.367269	client-B	--	--	--	--	--	--	0.0500564	0.483643	0.066627	0.984084	0.0666174
1	1	False	21	0	1	1	1.0	0.115	-1.0	--	--	[2, 0, 1]	[0, 1, 2]	0.0	2.33566	client-B	--	--	--	--	--	--	0.0500369	0.483675	0.066599	0.984098	0.0666241
1	1	False	22	5	0	2	1.0	0.135	-1.0	--	--	[2, 0, 1]	[0, 1, 2]	0.0	0.450699	client-B	--	--	--	--	--	--	0.0506265	0.483673	0.0665951	0.9841	0.0665863
1	1	False	23	5	0	2	1.0	0.135	1.0	--	--	[2, 0, 1]	[0, 1, 2]	0.0	0.450185	client-B	--	--	--	--	--	--	0.0500706	0.505833	0.0999801	1.00079	0.0943255
1	1	False	24	5	1	2	1.0	0.135	2.0	--	--	[2, 0, 1]	[0, 1, 2]	0.0	1.3515	client-B	--	--	--	--	--	--	0.0333651	0.483655	0.0666163	0.984092	0.0666181
1	1	False	25	5	0	1	1.0	0.115	0.0	1.0	2.65277	[2, 0, 1]	[0, 1, 2]	0.0	0.984498	client-B	--	--	--	--	--	--	0.0333503	0.483671	0.0665916	0.984109	0.0666206
1	1	False	26	5	0	2	1.0	0.135	-1.0	--	--	[2, 0, 1]	[0, 1, 2]	0.0	1.0179	client-B	--	--	--	--	--	--	0.0500621	0.483667	0.0665997	0.984106	0.0666178
1	1	False	27	2	0	4	1.0	0.25	-1.0	--	--	[2, 0, 1]	[0, 1, 2]	0.0	0.634169	client-B	--	--	--	--	--	--	0.0333588	0.483657	0.0666071	0.984091	0.066628
1	1	False	28	5	0	1	1.0	0.115	1.0	--	--	[2, 0, 1]	[0, 1, 2]	0.0	0.767632	client-B	--	--	--	--	--	--	0.0333552	0.483687	0.066599	0.984087	0.066627
1	1	False	29	5	1	2	1.0	0.135	-1.0	--	--	[2, 0, 1]	[0, 1, 2]	0.0	0.951103	client-B	--	--	--	--	--	--	0.0667207	0.505859	0.0999918	0.994619	0.0666008
1	1	False	30	5	0	3	1.0	0.17	2.0	--	--	[2, 0, 1]	[0, 1, 2]	0.0	0.817664	client-B	--	--	--	--	--	--	0.033369	0.483655	0.0666146	0.98407	0.0666248
1	1	False	31	5	0	1	1.0	0.115	-1.0	--	--	[2, 0, 1]	[0, 1, 2]	0.0	1.98541	client-B	--	--	--	--	--	--	0.0333616	0.483662	0.0665997	0.984105	0.0666004
1	1	False	32	2	0	4	1.0	0.25	-1.0	--	--	[2, 0, 1]	[0, 1, 2]	0.0	0.567436	client-B	--	--	--	--	--	--	0.0500546	0.483643	0.0666486	0.984082	0.0666209
2	1	False	1	5	0	4	1.0	0.25	-1.0	--	--	[2, 0, 1]	[0, 1, 2]	0.0	0.650839	client-B	--	--	--	--	--	--	0.0333687	0.483643	0.0665608	0.984075	0.0665923
2	1	False	2	2	1	1	1.0	0.115	0.0	0.0	6.87319	[2, 0, 1]	[0, 1, 2]	0.0	0.517453	client-B	--	--	--	--	--	--	0.0333694	0.483649	0.0666061	0.984082	0.0666089
2	1	False	3	0	0	3	1.0	0.17	-1.0	--	--	[2, 0, 1]	[0, 1, 2]	0.0	1.03517	client-B	--	--	--	--	--	--	0.0667261	0.483648	0.066616	0.984098	0.0666036
2	1	False	4	0	0	1	1.0	0.115	-1.0	--	--	[2, 0, 1]	[0, 1, 2]	0.0	0.550804	client-B	--	--	--	--	--	--	0.0334012	0.500299	0.0942805	0.983649	0.0666078
2	1	False	5	2	0	2	1.0	0.135	-1.0	--	--	[2, 0, 1]	[0, 1, 2]	0.0	0.534109	client-B	--	--	--	--	--	--	0.033362	0.483653	0.0666174	0.984053	0.0666556
2	1	False	6	2	1	2	1.0	0.135	1.0	--	--	[2, 0, 1]	[0, 1, 2]	0.0	0.567472	client-B	--	--	--	--	--	--	0.0500497	0.483649	0.0665894	0.984096	0.066627
2	1	False	7	1	1	3	1.0	0.17	2.0	--	--	[2, 0, 1]	[0, 1, 2]	0.0	1.35147	client-B	--	--	--	--	--	--	0.03334	0.483693	0.066593	0.984127	0.0665972
2	1	False	8	5	0	4	1.0	0.25	-1.0	--	--	[2, 0, 1]	[0, 1, 2]	0.0	0.45066	client-B	--	--	--	--	--	--	0.033392	0.483643	0.0666008	0.984102	0.0666068
2	1	False	9	2	1	1	1.0	0.115	-1.0	--	--	[2, 0, 1]	[0, 1, 2]	0.0	0.600867	client-B	--	--	--	--	--	--	0.0500408	0.48365	0.0665926	0.984105	0.066599
2	1	False	10	2	1	2	1.0	0.135	0.0	1.0	3.70926	[2, 0, 1]	[0, 1, 2]	0.0	0.717606	client-B	--	--	--	--	--	--	0.0333651	0.483649	0.0666277	0.98471	0.0665962
2	1	False	11	2	1	2	1.0	0.135	-1.0	--	--	[2, 0, 1]	[0, 1, 2]	0.0	0.517446	client-B	--	--	--	--	--	--	0.0332781	0.50032	0.0999581	0.994595	0.0666128
2	1	False	12	2	0	2	1.0	0.135	1.0	--	--	[2, 0, 1]	[0, 1, 2]	0.0	0.500734	client-B	--	--	--	--	--	--	0.0333747	0.48365	0.0666082	0.984092	0.0666192
2	1	False	13	0	0	3	1.0	0.17	-1.0	--	--	[2, 0, 1]	[0, 1, 2]	0.0	1.28473	client-B	--	--	--	--	--	--	0.0333567	0.483677	0.0665997	0.984121	0.0666167
2	1	False	14	1	1	4	1.0	0.25	2.0	--	--	[2, 0, 1]	[0, 1, 2]	0.0	0.584145	client-B	--	--	--	--	--	--	0.0333662	0.483655	0.0665764	0.984129	0.0666234
2	1	False	15	1	1	3	1.0	0.17	-1.0	--	--	[2, 0, 1]	[0, 1, 2]	0.0	0.517434	client-B	--	--	--	--	--	--	0.0333655	0.483664	0.0666217	0.984107	0.0666086
2	1	False	16	2	1	1	1.0	0.115	0.0	1.0	7.17346	[2, 0, 1]	[0, 1, 2]	0.0	0.717579	client-B	--	--	--	--	--	--	0.0333489	0.483673	0.0666071	0.984109	0.0666241
2	1	False	17	1	1	4	1.0	0.25	1.0	--	--	[2, 0, 1]	[0, 1, 2]	0.0	1.36817	client-B	--	--	--	--	--	--	0.0834272	0.483653	0.0666238	0.984102	0.066616
2	1	False	18	0	0	3	1.0	0.17	-1.0	--	--	[2, 0, 1]	[0, 1, 2]	0.0	0.534115	client-B	--	--	--	--	--	--	0.033534	0.500214	0.0999695	0.994593	0.0666096
2	1	False	19	0	0	3	1.0	0.17	2.0	--	--	[2, 0, 1]	[0, 1, 2]	0.0	0.584212	client-B	--	--	--	--	--	--	0.0333651	0.483644	0.0666263	0.984099	0.0666227
2	1	False	20	1	1	4	1.0	0.25	0.0	1.0	4.2209	[2, 0, 1]	[0, 1, 2]	0.0	0.267184	client-B	--	--	--	--	--	--	0.0333602	0.483655	0.0666047	0.984117	0.0665898
2	1	False	21	0	0	1	1.0	0.115	1.0	--	--	[2, 0, 1]	[0, 1, 2]	0.0	0.667547	client-B	--	--	--	--	--	--	0.0500656	0.483662	0.0666011	0.984112	0.0666185
2	1	False	22	5	0	4	1.0	0.25	-1.0	--	--	[2, 0, 1]	[0, 1, 2]	0.0	1.48493	client-B	--	--	--	--	--	--	0.0500695	0.483628	0.0666273	0.984106	0.0666047
2	1	False	23	0	0	1	1.0	0.115	-1.0	--	--	[2, 0, 1]	[0, 1, 2]	0.0	0.417915	client-B	--	--	--	--	--	--	0.0333669	0.483626	0.0666195	0.984104	0.0666263
2	1	False	24	2	1	1	1.0	0.115	-1.0	--	--	[2, 0, 1]	[0, 1, 2]	0.0	0.600829	client-B	--	--	--	--	--	--	0.0334848	0.5002	0.0943004	0.983638	0.0665933
2	1	False	25	1	1	3	1.0	0.17	2.0	--	--	[2, 0, 1]	[0, 1, 2]	1.0	0.800989	client-B	--	--	--	--	--	--	0.0333754	0.483628	0.0666323	0.984097	0.0666142
2	1	False	26	2	0	2	1.0	0.135	-1.0	--	--	[2, 0, 1]	[0, 1, 2]	0.0	0.383959	client-B	--	--	--	--	--	--	0.0333758	0.483631	0.0666022	0.984116	0.0666287
2	1	False	27	0	0	1	1.0	0.115	-1.0	--	--	[2, 0, 1]	[0, 1, 2]	0.0	0.517451	client-B	--	--	--	--	--	--	0.0333521	0.483639	0.0666167	0.984099	0.0666029
2	1	False	28	1	1	3	1.0	0.17	0.0	1.0	4.03735	[2, 0, 1]	[0, 1, 2]	0.0	0.600801	client-B	--	--	--	--	--	--	0.0500681	0.483626	0.0666156	0.984112	0.0666206
2	1	False	29	2	1	2	1.0	0.135	-1.0	--	--	[2, 0, 1]	[0, 1, 2]	0.0	0.550761	client-B	--	--	--	--	--	--	0.0500518	0.483662	0.0666163	0.984105	0.0666075
2	1	False	30	1	1	4	1.0	0.25	1.0	--	--	[2, 0, 1]	[0, 1, 2]	0.0	0.684224	client-B	--	--	--	--	--	--	0.0333641	0.483668	0.0666156	0.984084	0.0666263
2	1	False	31	5	0	4	1.0	0.25	-1.0	--	--	[2, 0, 1]	[0, 1, 2]	0.0	0.450671	client-B	--	--	--	--	--	--	0.0667112	0.483682	0.0666227	0.984094	0.0666231
2	1	False	32	2	0	2	1.0	0.135	-1.0	--	--	[2, 0, 1]	[0, 1, 2]	0.0	0.534091	client-B	--	--	--	--	--	--	0.0333648	0.483642	0.0665891	0.984758	0.0666139
0	2	False	1	0	0	1	1.0	0.115	1.0	--	--	[1, 2, 0]	[0, 1, 2]	--	--	--	--	--	--	1.0	0.800948	client-B	0.0333432	0.50029	0.0999475	0.994594	0.0665449
0	2	False	2	3	0	2	1.0	0.135	-1.0	--	--	[1, 2, 0]	[0, 1, 2]	--	--	--	--	--	--	0.0	0.884442	client-B	0.0333765	0.483604	0.0666139	0.984131	0.066605
0	2	False	3	0	1	1	1.0	0.115	-1.0	--	--	[1, 2, 0]	[0, 1, 2]	--	--	--	--	--	--	0.0	0.53408	client-B	0.0333574	0.48367	0.0665933	0.984097	0.0666263
0	2	False	4	0	1	1	1.0	0.115	-1.0	--	--	[1, 2, 0]	[0, 1, 2]	--	--	--	--	--	--	0.0	0.58413	client-B	0.0333807	0.483652	0.0666132	0.984103	0.0666064
0	2	False	5	3	0	2	1.0	0.135	-1.0	--	--	[1, 2, 0]	[0, 1, 2]	--	--	--	--	--	--	0.0	0.667558	client-B	0.0333949	0.483647	0.0665933	0.98411	0.0666224
0	2	False	6	4	1	3	1.0	0.17	2.0	1.0	4.67189	[1, 2, 0]	[0, 1, 2]	--	--	--	--	--	--	1.0	0.484038	client-B	0.0333874	0.48364	0.0665926	0.984089	0.0666277
0	2	False	7	5	1	2	1.0	0.135	0.0	--	--	[1, 2, 0]	[0, 1, 2]	--	--	--	--	--	--	1.0	0.399342	client-B	0.0834191	0.505879	0.100035	1.00072	0.111818
0	2	False	8	0	1	4	1.0	0.25	1.0	--	--	[1, 2, 0]	[0, 1, 2]	--	--	--	--	--	--	1.0	0.767639	client-B	0.0333733	0.483647	0.066622	0.984091	0.0666202
0	2	False	9	0	0	1	1.0	0.115	-1.0	--	--	[1, 2, 0]	[0, 1, 2]	--	--	--	--	--	--	0.0	0.450735	client-B	0.0333719	0.483648	0.0665834	0.984078	0.0666086
0	2	False	10	4	0	4	1.0	0.25	-1.0	--	--	[1, 2, 0]	[0, 1, 2]	--	--	--	--	--	--	0.0	0.267224	client-B	0.0500638	0.483649	0.0666195	0.984078	0.0665944
0	2	False	11	5	1	2	1.0	0.135	2.0	1.0	3.62032	[1, 2, 0]	[0, 1, 2]	--	--	--	--	--	--	1.0	1.00117	client-B	0.0500468	0.483662	0.0665983	0.984111	0.0665863
0	2	False	12	4	1	3	1.0	0.17	-1.0	--	--	[1, 2, 0]	[0, 1, 2]	--	--	--	--	--	--	0.0	0.767681	client-B	0.0500281	0.483646	0.0666347	0.984094	0.0666089
0	2	False	13	4	0	3	1.0	0.17	0.0	--	--	[1, 2, 0]	[0, 1, 2]	--	--	--	--	--	--	0.0	0.817671	client-B	0.0500483	0.483669	0.0665997	0.98411	0.0666259
0	2	False	14	0	1	1	1.0	0.115	-1.0	--	--	[1, 2, 0]	[0, 1, 2]	--	--	--	--	--	--	0.0	0.700883	client-B	0.0500249	0.5003	0.0999691	0.994637	0.0666185
0	2	False	15	0	1	4	1.0	0.25	-1.0	--	--	[1, 2, 0]	[0, 1, 2]	--	--	--	--	--	--	1.0	0.61749	client-B	0.0333775	0.483627	0.0666379	0.984091	0.0666333
0	2	False	16	3	0	2	1.0	0.135	-1.0	--	--	[1, 2, 0]	[0, 1, 2]	--	--	--	--	--	--	0.0	0.867703	client-B	0.0500635	0.483635	0.06661	0.984114	0.0666181
0	2	False	17	0	1	4	1.0	0.25	1.0	--	--	[1, 2, 0]	[0, 1, 2]	--	--	--	--	--	--	1.0	0.517421	client-B	0.0333726	0.48366	0.066605	0.984099	0.0665976
0	2	False	18	4	1	3	1.0	0.17	2.0	0.0	3.72042	[1, 2, 0]	[0, 1, 2]	--	--	--	--	--	--	1.0	2.33575	client-B	0.033379	0.483652	0.0665994	0.984082	0.0665707
0	2	False	19	4	0	4	1.0	0.25	-1.0	--	--	[1, 2, 0]	[0, 1, 2]	--	--	--	--	--	--	0.0	0.500732	client-B	0.050072	0.48365	0.0665884	0.984119	0.0665937
0	2	False	20	0	0	1	1.0	0.115	0.0	--	--	[1, 2, 0]	[0, 1, 2]	--	--	--	--	--	--	1.0	0.750928	client-B	0.0333609	0.483677	0.066604	0.984113	0.0666036
0	2	False	21	4	0	4	1.0	0.25	-1.0	--	--	[1, 2, 0]	[0, 1, 2]	--	--	--	--	--	--	0.0	0.233822	client-B	0.050072	0.50031	0.110798	0.98378	0.0666238
0	2	False	22	0	1	1	1.0	0.115	-1.0	--	--	[1, 2, 0]	[0, 1, 2]	--	--	--	--	--	--	0.0	0.734294	client-B	0.0333613	0.483655	0.0666241	0.984082	0.0666213
0	2	False	23	0	1	4	1.0	0.25	1.0	--	--	[1, 2, 0]	[0, 1, 2]	--	--	--	--	--	--	1.0	0.350605	client-B	0.0500571	0.483639	0.0665735	0.984145	0.0666185
0	2	False	24	4	0	3	1.0	0.17	-1.0	--	--	[1, 2, 0]	[0, 1, 2]	--	--	--	--	--	--	0.0	0.300556	client-B	0.0333673	0.48365	0.0666064	0.984104	0.0666146
0	2	False	25	5	1	2	1.0	0.135	2.0	1.0	6.70643	[1, 2, 0]	[0, 1, 2]	--	--	--	--	--	--	1.0	0.700909	client-B	0.0500419	0.483654	0.0666181	0.984104	0.0666015
0	2	False	26	4	1	3	1.0	0.17	0.0	--	--	[1, 2, 0]	[0, 1, 2]	--	--	--	--	--	--	1.0	0.784323	client-B	0.0500589	0.483659	0.0666054	0.9841	0.0666103
0	2	False	27	3	0	2	1.0	0.135	-1.0	--	--	[1, 2, 0]	[0, 1, 2]	--	--	--	--	--	--	0.0	0.350591	client-B	0.0352511	0.49906	0.0666213	0.984094	0.0666068
0	2	False	28	5	1	2	1.0	0.135	1.0	--	--	[1, 2, 0]	[0, 1, 2]	--	--	--	--	--	--	1.0	0.383948	client-B	0.0334292	0.500311	0.0937426	0.984091	0.0666181
0	2	False	29	4	0	4	1.0	0.25	-1.0	--	--	[1, 2, 0]	[0, 1, 2]	--	--	--	--	--	--	0.0	0.80105	client-B	0.0500486	0.483662	0.0666086	0.984093	0.0666209
0	2	False	30	0	0	1	1.0	0.115	-1.0	--	--	[1, 2, 0]	[0, 1, 2]	--	--	--	--	--	--	0.0	0.617574	client-B	0.0500691	0.483645	0.0666068	0.984098	0.0666015
0	2	False	31	4	0	3	1.0	0.17	2.0	0.0	5.75555	[1, 2, 0]	[0, 1, 2]	--	--	--	--	--	--	0.0	0.30059	client-B	0.0500677	0.483638	0.0665834	0.984097	0.0666294
0	2	False	32	4	0	3	1.0	0.17	-1.0	--	--	[1, 2, 0]	[0, 1, 2]	--	--	--	--	--	--	0.0	0.300585	client-B	0.0500359	0.483658	0.0666008	0.984084	0.0665976
1	2	False	1	4	0	2	1.0	0.135	-1.0	--	--	[1, 2, 0]	[0, 1, 2]	--	--	--	--	--	--	0.0	0.517376	client-B	0.0500599	0.483589	0.0665696	0.984083	0.0665848
1	2	False	2	4	1	1	1.0	0.115	-1.0	--	--	[1, 2, 0]	[0, 1, 2]	--	--	--	--	--	--	0.0	0.567514	client-B	0.0333581	0.483642	0.066616	0.984111	0.0666011
1	2	False	3	4	0	2	1.0	0.135	-1.0	--	--	[1, 2, 0]	[0, 1, 2]	--	--	--	--	--	--	0.0	0.467381	client-B	0.0333375	0.483638	0.0666178	0.984106	0.0666125
1	2	False	4	4	1	3	1.0	0.17	0.0	--	--	[1, 2, 0]	[0, 1, 2]	--	--	--	--	--	--	1.0	0.450692	client-B	0.0333627	0.483659	0.0666213	0.984716	0.0666064
1	2	False	5	5	1	2	1.0	0.135	-1.0	--	--	[1, 2, 0]	[0, 1, 2]	--	--	--	--	--	--	0.0	0.417514	client-B	0.033357	0.500296	0.0999974	0.994624	0.0666199
1	2	False	6	4	0	2	1.0	0.135	1.0	--	--	[1, 2, 0]	[0, 1, 2]	--	--	--	--	--	--	1.0	0.734268	client-B	0.0500645	0.483636	0.0666117	0.984093	0.0666054
1	2	False	7	1	0	1	1.0	0.115	-1.0	--	--	[1, 2, 0]	[0, 1, 2]	--	--	--	--	--	--	0.0	1.06794	client-B	0.0333708	0.483631	0.0666213	0.984098	0.0666142
1	2	False	8	1	0	1	1.0	0.115	2.0	0.0	2.45262	[1, 2, 0]	[0, 1, 2]	--	--	--	--	--	--	0.0	0.300523	client-B	0.0334112	0.483635	0.0666181	0.984085	0.0666355
1	2	False	9	5	0	3	1.0	0.17	-1.0	--	--	[1, 2, 0]	[0, 1, 2]	--	--	--	--	--	--	0.0	0.217145	client-B	0.0500613	0.483642	0.0666093	0.984066	0.0666447
1	2	False	10	2	1	4	1.0	0.25	0.0	--	--	[1, 2, 0]	[0, 1, 2]	--	--	--	--	--	--	1.0	0.667588	client-B	0.0500706	0.48366	0.0665912	0.984034	0.0666114
1	2	False	11	2	1	4	1.0	0.25	1.0	--	--	[1, 2, 0]	[0, 1, 2]	--	--	--	--	--	--	1.0	0.817683	client-B	0.0834261	0.483641	0.0666181	0.984078	0.0666156
1	2	False	12	3	0	4	1.0	0.25	-1.0	--	--	[1, 2, 0]	[0, 1, 2]	--	--	--	--	--	--	0.0	0.384025	client-B	0.0332494	0.500309	0.100052	0.994562	0.0665806
1	2	False	13	4	1	1	1.0	0.115	2.0	1.0	3.67036	[1, 2, 0]	[0, 1, 2]	--	--	--	--	--	--	0.0	1.05123	client-B	0.0500475	0.483638	0.0665728	0.984114	0.0666181
1	2	False	14	1	0	1	1.0	0.115	-1.0	--	--	[1, 2, 0]	[0, 1, 2]	--	--	--	--	--	--	0.0	0.500771	client-B	0.0500483	0.48365	0.0666163	0.984089	0.0666125
1	2	False	15	4	1	1	1.0	0.115	0.0	--	--	[1, 2, 0]	[0, 1, 2]	--	--	--	--	--	--	1.0	0.367264	client-B	0.0333641	0.483641	0.0666432	0.984089	0.066617
1	2	False	16	5	1	2	1.0	0.135	-1.0	--	--	[1, 2, 0]	[0, 1, 2]	--	--	--	--	--	--	0.0	0.333957	client-B	0.0334048	0.483645	0.0666061	0.984096	0.0666206
1	2	False	17	4	1	3	1.0	0.17	1.0	--	--	[1, 2, 0]	[0, 1, 2]	--	--	--	--	--	--	1.0	0.567451	client-B	0.0500546	0.483649	0.0666156	0.984099	0.0666231
1	2	False	18	4	1	1	1.0	0.115	2.0	0.0	4.56005	[1, 2, 0]	[0, 1, 2]	--	--	--	--	--	--	1.0	2.10214	client-B	0.0500599	0.483658	0.0666078	0.984088	0.0666294
1	2	False	19	5	0	3	1.0	0.17	-1.0	--	--	[1, 2, 0]	[0, 1, 2]	--	--	--	--	--	--	0.0	0.283877	client-B	0.0334979	0.500209	0.0938187	0.984088	0.0666068
1	2	False	20	4	0	2	1.0	0.135	-1.0	--	--	[1, 2, 0]	[0, 1, 2]	--	--	--	--	--	--	0.0	1.18465	client-B	0.0333719	0.483687	0.0666255	0.984096	0.066616
1	2	False	21	4	1	3	1.0	0.17	0.0	--	--	[1, 2, 0]	[0, 1, 2]	--	--	--	--	--	--	1.0	0.534092	client-B	0.0333627	0.483653	0.066559	0.984143	0.0666033
1	2	False	22	3	0	4	1.0	0.25	-1.0	--	--	[1, 2, 0]	[0, 1, 2]	--	--	--	--	--	--	0.0	0.350659	client-B	0.0333655	0.4837	0.0665597	0.984113	0.0666096
1	2	False	23	1	0	1	1.0	0.115	-1.0	--	--	[1, 2, 0]	[0, 1, 2]	--	--	--	--	--	--	0.0	0.484073	client-B	0.0333651	0.48366	0.0665802	0.984092	0.0666174
1	2	False	24	2	1	4	1.0	0.25	1.0	--	--	[1, 2, 0]	[0, 1, 2]	--	--	--	--	--	--	1.0	0.634166	client-B	0.0333744	0.483662	0.0666206	0.984093	0.0666025
1	2	False	25	5	0	3	1.0	0.17	-1.0	--	--	[1, 2, 0]	[0, 1, 2]	--	--	--	--	--	--	0.0	0.350629	client-B	0.03338	0.483647	0.066617	0.984094	0.0666263
1	2	False	26	4	1	3	1.0	0.17	-1.0	--	--	[1, 2, 0]	[0, 1, 2]	--	--	--	--	--	--	0.0	0.651484	client-B	0.0500405	0.483642	0.0666294	0.984099	0.066604
1	2	False	27	5	1	2	1.0	0.135	2.0	1.0	1.81876	[1, 2, 0]	[0, 1, 2]	--	--	--	--	--	--	1.0	0.517417	client-B	0.0333719	0.505858	0.111825	0.999476	0.0665894
1	2	False	28	3	0	4	1.0	0.25	-1.0	--	--	[1, 2, 0]	[0, 1, 2]	--	--	--	--	--	--	0.0	0.317238	client-B	0.0500543	0.483661	0.0665845	0.984118	0.0666206
1	2	False	29	3	0	4	1.0	0.25	-1.0	--	--	[1, 2, 0]	[0, 1, 2]	--	--	--	--	--	--	0.0	0.417338	client-B	0.03338	0.483637	0.0666107	0.984091	0.066605
1	2	False	30	2	1	4	1.0	0.25	0.0	--	--	[1, 2, 0]	[0, 1, 2]	--	--	--	--	--	--	1.0	0.7176	client-B	0.0500429	0.483621	0.0666227	0.98411	0.0666068
1	2	False	31	5	1	2	1.0	0.135	1.0	--	--	[1, 2, 0]	[0, 1, 2]	--	--	--	--	--	--	1.0	0.550776	client-B	0.0333666	0.483645	0.066605	0.984117	0.0666064
1	2	False	32	5	0	3	1.0	0.17	2.0	0.0	2.3859	[1, 2, 0]	[0, 1, 2]	--	--	--	--	--	--	0.0	0.250607	client-B	0.0333637	0.483671	0.066581	0.984136	0.0665827
2	2	False	1	5	0	3	1.0	0.17	-1.0	--	--	[1, 2, 0]	[0, 1, 2]	--	--	--	--	--	--	0.0	0.183767	client-B	0.050032	0.483621	0.0665764	0.984069	0.0665756
2	2	False	2	0	0	2	1.0	0.135	-1.0	--	--	[1, 2, 0]	[0, 1, 2]	--	--	--	--	--	--	0.0	0.233819	client-B	0.0667473	0.483651	0.0666057	0.984078	0.066622
2	2	False	3	5	1	2	1.0	0.135	0.0	--	--	[1, 2, 0]	[0, 1, 2]	--	--	--	--	--	--	0.0	0.68421	client-B	0.0333538	0.505883	0.0999985	1.00078	0.110488
2	2	False	4	0	0	2	1.0	0.135	1.0	--	--	[1, 2, 0]	[0, 1, 2]	--	--	--	--	--	--	1.0	0.634206	client-B	0.0333924	0.483647	0.0666167	0.98407	0.0666209
2	2	False	5	5	0	4	1.0	0.25	-1.0	--	--	[1, 2, 0]	[0, 1, 2]	--	--	--	--	--	--	0.0	0.467346	client-B	0.0333439	0.483673	0.0666114	0.984094	0.0666209
2	2	False	6	5	1	2	1.0	0.135	-1.0	--	--	[1, 2, 0]	[0, 1, 2]	--	--	--	--	--	--	0.0	0.984483	client-B	0.0333705	0.483679	0.066582	0.9841	0.0666266
2	2	False	7	0	0	2	1.0	0.135	-1.0	--	--	[1, 2, 0]	[0, 1, 2]	--	--	--	--	--	--	0.0	0.317262	client-B	0.0333613	0.483676	0.06661	0.984094	0.0666068
2	2	False	8	2	1	1	1.0	0.115	2.0	1.0	4.127	[1, 2, 0]	[0, 1, 2]	--	--	--	--	--	--	0.0	0.6008	client-B	0.0333765	0.48365	0.0666064	0.984105	0.0666149
2	2	False	9	5	0	1	1.0	0.115	-1.0	--	--	[1, 2, 0]	[0, 1, 2]	--	--	--	--	--	--	0.0	0.650901	client-B	0.0333889	0.500307	0.100117	0.994466	0.0666206
2	2	False	10	5	0	4	1.0	0.25	-1.0	--	--	[1, 2, 0]	[0, 1, 2]	--	--	--	--	--	--	0.0	0.31725	client-B	0.050078	0.483649	0.0666043	0.984097	0.0666011
2	2	False	11	3	1	3	1.0	0.17	0.0	--	--	[1, 2, 0]	[0, 1, 2]	--	--	--	--	--	--	0.0	0.667549	client-B	0.0500723	0.483641	0.0666025	0.984111	0.0666054
2	2	False	12	5	0	3	1.0	0.17	-1.0	--	--	[1, 2, 0]	[0, 1, 2]	--	--	--	--	--	--	0.0	0.317254	client-B	0.0333404	0.483674	0.066617	0.984099	0.0665937
2	2	False	13	2	1	1	1.0	0.115	1.0	--	--	[1, 2, 0]	[0, 1, 2]	--	--	--	--	--	--	0.0	0.534142	client-B	0.0333793	0.483652	0.0666047	0.984085	0.0666075
2	2	False	14	3	1	3	1.0	0.17	-1.0	--	--	[1, 2, 0]	[0, 1, 2]	--	--	--	--	--	--	0.0	0.550757	client-B	0.0333598	0.483655	0.0666263	0.984095	0.066627
2	2	False	15	5	0	1	1.0	0.115	-1.0	--	--	[1, 2, 0]	[0, 1, 2]	--	--	--	--	--	--	0.0	0.834378	client-B	0.0500125	0.483662	0.0666047	0.984114	0.0666181
2	2	False	16	3	1	3	1.0	0.17	2.0	1.0	2.32471	[1, 2, 0]	[0, 1, 2]	--	--	--	--	--	--	1.0	0.617528	client-B	0.0333627	0.483658	0.0666015	0.984104	0.0666107
2	2	False	17	5	1	4	1.0	0.25	0.0	--	--	[1, 2, 0]	[0, 1, 2]	--	--	--	--	--	--	1.0	0.333418	client-B	0.0332965	0.500324	0.0999854	1.00078	0.0942936
2	2	False	18	5	1	2	1.0	0.135	-1.0	--	--	[1, 2, 0]	[0, 1, 2]	--	--	--	--	--	--	0.0	1.33478	client-B	0.0333651	0.483683	0.0666047	0.9841	0.0666192
2	2	False	19	5	0	4	1.0	0.25	-1.0	--	--	[1, 2, 0]	[0, 1, 2]	--	--	--	--	--	--	0.0	0.333885	client-B	0.0333768	0.48364	0.0666224	0.984091	0.0666125
2	2	False	20	3	1	3	1.0	0.17	1.0	--	--	[1, 2, 0]	[0, 1, 2]	--	--	--	--	--	--	0.0	0.884409	client-B	0.0500606	0.483644	0.0666167	0.984105	0.0665986
2	2	False	21	5	1	4	1.0	0.25	2.0	1.0	2.03557	[1, 2, 0]	[0, 1, 2]	--	--	--	--	--	--	1.0	0.40063	client-B	0.0333733	0.483672	0.0666107	0.984096	0.0666248
2	2	False	22	2	1	1	1.0	0.115	0.0	--	--	[1, 2, 0]	[0, 1, 2]	--	--	--	--	--	--	1.0	0.784305	client-B	0.0500415	0.48365	0.0666178	0.984104	0.0665979
2	2	False	23	0	0	2	1.0	0.135	-1.0	--	--	[1, 2, 0]	[0, 1, 2]	--	--	--	--	--	--	0.0	0.517464	client-B	0.0667561	0.505855	0.0999804	0.99462	0.0666025
2	2	False	24	5	1	4	1.0	0.25	-1.0	--	--	[1, 2, 0]	[0, 1, 2]	--	--	--	--	--	--	1.0	0.650852	client-B	0.0333637	0.483656	0.066616	0.984087	0.0666231
2	2	False	25	5	0	1	1.0	0.115	1.0	--	--	[1, 2, 0]	[0, 1, 2]	--	--	--	--	--	--	1.0	0.534089	client-B	0.0333648	0.483657	0.0666036	0.984105	0.0666192
2	2	False	26	2	1	1	1.0	0.115	2.0	1.0	6.15588	[1, 2, 0]	[0, 1, 2]	--	--	--	--	--	--	1.0	0.66754	client-B	0.0333867	0.483627	0.0665898	0.984135	0.0666047
2	2	False	27	5	0	3	1.0	0.17	-1.0	--	--	[1, 2, 0]	[0, 1, 2]	--	--	--	--	--	--	0.0	0.367315	client-B	0.0333761	0.48365	0.0665969	0.984093	0.0666121
2	2	False	28	5	0	1	1.0	0.115	0.0	--	--	[1, 2, 0]	[0, 1, 2]	--	--	--	--	--	--	0.0	0.550771	client-B	0.0333779	0.483629	0.066611	0.984117	0.0666061
2	2	False	29	5	0	3	1.0	0.17	-1.0	--	--	[1, 2, 0]	[0, 1, 2]	--	--	--	--	--	--	0.0	0.567489	client-B	0.033443	0.500262	0.111851	0.99944	0.0665933
2	2	False	30	5	1	4	1.0	0.25	1.0	--	--	[1, 2, 0]	[0, 1, 2]	--	--	--	--	--	--	1.0	0.550825	client-B	0.0333705	0.483652	0.0665972	0.984116	0.0666025
2	2	False	31	5	0	4	1.0	0.25	-1.0	--	--	[1, 2, 0]	[0, 1, 2]	--	--	--	--	--	--	0.0	0.21716	client-B	0.0334002	0.483643	0.0666125	0.984088	0.0666114
2	2	False	32	5	1	2	1.0	0.135	2.0	1.0	2.5527	[1, 2, 0]	[0, 1, 2]	--	--	--	--	--	--	1.0	0.617495	client-B	0.0334129	0.483653	0.066622	0.984087	0.0666132
