subblock_no	block_no	practice	TrialNumber	target_pos	target_screen_nr	contrast_idx	ran	contrast	group_dec_maker	group_dec	group_dec_rt	participants	feedback_texts_order	0_indiv_dec	0_indiv_dec_rt	0_client	1_indiv_dec	1_indiv_dec_rt	1_client	2_indiv_dec	2_indiv_dec_rt	2_client	trial_wait.duration	fixation.duration	stim1.duration	blank_between.duration	stim2.duration
0	0	True	1	0	0	2	1.0	0.135	-1.0	--	--	[0, 1, 2]	[0, 1, 2]	--	--	--	0.0	20.5914	client-B	--	--	--	0.0333962	0.520934	0.0731165	0.984072	0.0665665
0	0	True	2	1	1	3	1.0	0.17	0.0	--	--	[0, 1, 2]	[0, 1, 2]	--	--	--	0.0	11.0935	client-B	--	--	--	0.0331845	0.500332	0.100006	0.994599	0.0666125
0	0	True	3	2	0	3	1.0	0.17	1.0	1.0	14.2298	[0, 1, 2]	[0, 1, 2]	--	--	--	0.0	58.9754	client-B	--	--	--	0.0334103	0.500384	0.0999132	1.00079	0.110491
0	0	True	4	2	1	1	1.0	0.115	2.0	--	--	[0, 1, 2]	[0, 1, 2]	--	--	--	0.0	39.5749	client-B	--	--	--	0.0335522	0.500187	0.0942978	0.983631	0.0666104
0	0	True	5	0	0	4	1.0	0.25	0.0	--	--	[0, 1, 2]	[0, 1, 2]	--	--	--	1.0	8.33049	client-B	--	--	--	0.0333926	0.500368	0.099927	0.99462	0.0666154
0	0	True	6	1	0	1	1.0	0.115	1.0	1.0	9.09186	[0, 1, 2]	[0, 1, 2]	--	--	--	1.0	1.51834	client-B	--	--	--	0.0332638	0.500325	0.099962	0.994615	0.0666193
0	0	True	7	5	1	4	1.0	0.25	2.0	--	--	[0, 1, 2]	[0, 1, 2]	--	--	--	1.0	2.5025	client-B	--	--	--	0.0500596	0.483675	0.0665931	0.984091	0.0666232
0	0	True	8	2	1	2	1.0	0.135	0.0	--	--	[0, 1, 2]	[0, 1, 2]	--	--	--	1.0	4.78787	client-B	--	--	--	0.0333739	0.500339	0.0938031	0.9841	0.0666101
0	0	False	1	1	0	3	1.0	0.17	0.0	--	--	[0, 1, 2]	[0, 1, 2]	--	--	--	1.0	1.56846	client-B	--	--	--	0.0333102	0.500303	0.0938038	0.984053	0.0665644
0	0	False	2	4	0	2	1.0	0.135	1.0	1.0	9.47553	[0, 1, 2]	[0, 1, 2]	--	--	--	1.0	3.10273	client-B	--	--	--	0.0500128	0.500311	0.0999864	1.00083	0.110775
0	0	False	3	5	1	3	1.0	0.17	-1.0	--	--	[0, 1, 2]	[0, 1, 2]	--	--	--	1.0	8.6246	client-B	--	--	--	0.0500465	0.483631	0.0666355	0.984114	0.0666136
0	0	False	4	4	1	2	1.0	0.135	2.0	--	--	[0, 1, 2]	[0, 1, 2]	--	--	--	1.0	2.81947	client-B	--	--	--	0.0333721	0.483643	0.066614	0.984099	0.0666111
0	0	False	5	5	0	1	1.0	0.115	0.0	--	--	[0, 1, 2]	[0, 1, 2]	--	--	--	0.0	3.63687	client-B	--	--	--	0.0333661	0.500318	0.0999967	0.994624	0.0666069
0	0	False	6	1	0	3	1.0	0.17	1.0	1.0	7.64057	[0, 1, 2]	[0, 1, 2]	--	--	--	0.0	1.7185	client-B	--	--	--	0.0333969	0.483655	0.0666147	0.984106	0.0666171
0	0	False	7	1	0	3	1.0	0.17	-1.0	--	--	[0, 1, 2]	[0, 1, 2]	--	--	--	0.0	1.25138	client-B	--	--	--	0.0500635	0.483649	0.0666101	0.984118	0.0666033
0	0	False	8	1	0	3	1.0	0.17	2.0	--	--	[0, 1, 2]	[0, 1, 2]	--	--	--	1.0	1.50168	client-B	--	--	--	0.0333611	0.500332	0.0771552	0.984091	0.0666033
0	0	False	9	4	0	2	1.0	0.135	-1.0	--	--	[0, 1, 2]	[0, 1, 2]	--	--	--	1.0	2.45248	client-B	--	--	--	0.03337	0.483635	0.0666228	0.984114	0.0666101
0	0	False	10	4	0	2	1.0	0.135	0.0	--	--	[0, 1, 2]	[0, 1, 2]	--	--	--	0.0	1.25141	client-B	--	--	--	0.0333629	0.483654	0.0666256	0.984083	0.0666171
0	0	False	11	5	0	1	1.0	0.115	1.0	1.0	5.17175	[0, 1, 2]	[0, 1, 2]	--	--	--	1.0	1.01788	client-B	--	--	--	0.0333586	0.483668	0.0666292	0.984086	0.0666309
0	0	False	12	4	0	2	1.0	0.135	2.0	--	--	[0, 1, 2]	[0, 1, 2]	--	--	--	0.0	1.68461	client-B	--	--	--	0.0500627	0.500311	0.0999577	1.00082	0.0942918
0	0	False	13	1	1	1	1.0	0.115	0.0	--	--	[0, 1, 2]	[0, 1, 2]	--	--	--	0.0	5.25495	client-B	--	--	--	0.033365	0.483638	0.0666338	0.984106	0.0666235
0	0	False	14	5	0	4	1.0	0.25	1.0	0.0	9.39228	[0, 1, 2]	[0, 1, 2]	--	--	--	0.0	3.24205	client-B	--	--	--	0.0500822	0.483677	0.0665895	0.984121	0.0666051
0	0	False	15	4	1	2	1.0	0.135	2.0	--	--	[0, 1, 2]	[0, 1, 2]	--	--	--	0.0	4.38753	client-B	--	--	--	0.0500514	0.500356	0.0999425	0.994637	0.0666125
0	0	False	16	1	1	1	1.0	0.115	-1.0	--	--	[0, 1, 2]	[0, 1, 2]	--	--	--	1.0	0.951148	client-B	--	--	--	0.0333739	0.483643	0.0666334	0.98411	0.0665959
0	0	False	17	5	0	1	1.0	0.115	0.0	--	--	[0, 1, 2]	[0, 1, 2]	--	--	--	0.0	3.21979	client-B	--	--	--	0.0333933	0.483658	0.0666242	0.984106	0.0666129
0	0	False	18	1	1	4	1.0	0.25	-1.0	--	--	[0, 1, 2]	[0, 1, 2]	--	--	--	1.0	0.867719	client-B	--	--	--	0.0334712	0.500298	0.0770997	0.984105	0.0665995
0	0	False	19	1	1	1	1.0	0.115	-1.0	--	--	[0, 1, 2]	[0, 1, 2]	--	--	--	1.0	0.717592	client-B	--	--	--	0.0333841	0.483642	0.0666161	0.984111	0.0666182
0	0	False	20	5	0	4	1.0	0.25	1.0	0.0	4.93818	[0, 1, 2]	[0, 1, 2]	--	--	--	1.0	1.30146	client-B	--	--	--	0.0333866	0.483646	0.0666281	0.98411	0.066592
0	0	False	21	4	1	2	1.0	0.135	2.0	--	--	[0, 1, 2]	[0, 1, 2]	--	--	--	1.0	0.750974	client-B	--	--	--	0.0500535	0.483658	0.06658	0.98414	0.0666065
0	0	False	22	1	1	4	1.0	0.25	0.0	--	--	[0, 1, 2]	[0, 1, 2]	--	--	--	1.0	0.817676	client-B	--	--	--	0.0334075	0.483653	0.0666094	0.984111	0.0666072
0	0	False	23	5	1	3	1.0	0.17	-1.0	--	--	[0, 1, 2]	[0, 1, 2]	--	--	--	1.0	0.917797	client-B	--	--	--	0.0333282	0.500345	0.0999988	0.994585	0.0665948
0	0	False	24	5	0	1	1.0	0.115	-1.0	--	--	[0, 1, 2]	[0, 1, 2]	--	--	--	1.0	0.901059	client-B	--	--	--	0.0333993	0.483654	0.0666313	0.984098	0.0666232
0	0	False	25	5	1	3	1.0	0.17	1.0	0.0	10.7266	[0, 1, 2]	[0, 1, 2]	--	--	--	0.0	1.03454	client-B	--	--	--	0.0500436	0.483654	0.0666125	0.984099	0.066604
0	0	False	26	1	1	4	1.0	0.25	2.0	--	--	[0, 1, 2]	[0, 1, 2]	--	--	--	1.0	0.734296	client-B	--	--	--	0.0500475	0.483655	0.0666225	0.984099	0.0666285
0	0	False	27	5	1	3	1.0	0.17	0.0	--	--	[0, 1, 2]	[0, 1, 2]	--	--	--	1.0	0.700918	client-B	--	--	--	0.0501063	0.500323	0.0771418	0.984097	0.0666182
0	0	False	28	5	0	4	1.0	0.25	-1.0	--	--	[0, 1, 2]	[0, 1, 2]	--	--	--	1.0	0.700916	client-B	--	--	--	0.0334093	0.483652	0.066603	0.98411	0.066614
0	0	False	29	5	0	4	1.0	0.25	-1.0	--	--	[0, 1, 2]	[0, 1, 2]	--	--	--	1.0	1.76854	client-B	--	--	--	0.0333693	0.483635	0.066637	0.984082	0.0666111
0	0	False	30	1	1	1	1.0	0.115	1.0	0.0	6.33941	[0, 1, 2]	[0, 1, 2]	--	--	--	1.0	0.784327	client-B	--	--	--	0.0334047	0.483644	0.066615	0.984109	0.0666143
0	0	False	31	4	1	2	1.0	0.135	2.0	--	--	[0, 1, 2]	[0, 1, 2]	--	--	--	0.0	1.35149	client-B	--	--	--	0.0500436	0.483656	0.0666168	0.984111	0.0666136
0	0	False	32	1	1	4	1.0	0.25	-1.0	--	--	[0, 1, 2]	[0, 1, 2]	--	--	--	1.0	0.784309	client-B	--	--	--	0.033433	0.500273	0.0999815	0.994624	0.0666129
1	0	False	1	0	1	2	1.0	0.135	0.0	--	--	[0, 1, 2]	[0, 1, 2]	--	--	--	1.0	1.10122	client-B	--	--	--	0.0500748	0.483574	0.0665694	0.984087	0.06658
1	0	False	2	2	0	1	1.0	0.115	-1.0	--	--	[0, 1, 2]	[0, 1, 2]	--	--	--	1.0	1.31814	client-B	--	--	--	0.0333636	0.483669	0.0665952	0.984126	0.0665924
1	0	False	3	0	1	1	1.0	0.115	1.0	0.0	6.22327	[0, 1, 2]	[0, 1, 2]	--	--	--	1.0	1.55166	client-B	--	--	--	0.0333778	0.483655	0.0666023	0.984112	0.066598
1	0	False	4	5	0	4	1.0	0.25	-1.0	--	--	[0, 1, 2]	[0, 1, 2]	--	--	--	1.0	0.700927	client-B	--	--	--	0.0500762	0.500307	0.0942769	0.983645	0.0666175
1	0	False	5	0	0	2	1.0	0.135	-1.0	--	--	[0, 1, 2]	[0, 1, 2]	--	--	--	1.0	1.2848	client-B	--	--	--	0.0500741	0.483676	0.0666118	0.984101	0.0666104
1	0	False	6	0	1	1	1.0	0.115	2.0	--	--	[0, 1, 2]	[0, 1, 2]	--	--	--	1.0	0.951126	client-B	--	--	--	0.0334068	0.483657	0.0666154	0.9841	0.0666087
1	0	False	7	0	0	2	1.0	0.135	0.0	--	--	[0, 1, 2]	[0, 1, 2]	--	--	--	1.0	0.700898	client-B	--	--	--	0.0334064	0.483651	0.0666072	0.984103	0.0665902
1	0	False	8	4	0	3	1.0	0.17	1.0	1.0	6.15651	[0, 1, 2]	[0, 1, 2]	--	--	--	0.0	1.7185	client-B	--	--	--	0.0333937	0.483663	0.0666161	0.984108	0.0666186
1	0	False	9	5	0	4	1.0	0.25	2.0	--	--	[0, 1, 2]	[0, 1, 2]	--	--	--	0.0	2.85279	client-B	--	--	--	0.0665287	0.500317	0.0938282	0.98409	0.0666271
1	0	False	10	0	1	2	1.0	0.135	0.0	--	--	[0, 1, 2]	[0, 1, 2]	--	--	--	1.0	2.30233	client-B	--	--	--	0.0500468	0.483654	0.066615	0.9841	0.0666324
1	0	False	11	0	1	1	1.0	0.115	1.0	1.0	5.55542	[0, 1, 2]	[0, 1, 2]	--	--	--	1.0	1.05122	client-B	--	--	--	0.0333965	0.483652	0.0666207	0.984112	0.0666129
1	0	False	12	2	0	1	1.0	0.115	2.0	--	--	[0, 1, 2]	[0, 1, 2]	--	--	--	0.0	1.75247	client-B	--	--	--	0.066775	0.483676	0.0665853	0.984119	0.0666026
1	0	False	13	2	1	3	1.0	0.17	0.0	--	--	[0, 1, 2]	[0, 1, 2]	--	--	--	1.0	1.13459	client-B	--	--	--	0.033307	0.500356	0.0999216	0.994638	0.0666228
1	0	False	14	0	1	2	1.0	0.135	1.0	1.0	4.92156	[0, 1, 2]	[0, 1, 2]	--	--	--	1.0	0.73429	client-B	--	--	--	0.0333636	0.483659	0.0666221	0.984111	0.0666168
1	0	False	15	2	1	3	1.0	0.17	2.0	--	--	[0, 1, 2]	[0, 1, 2]	--	--	--	1.0	1.18467	client-B	--	--	--	0.0500585	0.483655	0.0665931	0.984116	0.0666171
1	0	False	16	2	0	1	1.0	0.115	0.0	--	--	[0, 1, 2]	[0, 1, 2]	--	--	--	1.0	0.851071	client-B	--	--	--	0.0500829	0.483664	0.0666016	0.984715	0.0665998
1	0	False	17	4	0	3	1.0	0.17	1.0	1.0	7.27357	[0, 1, 2]	[0, 1, 2]	--	--	--	1.0	1.01787	client-B	--	--	--	0.0333569	0.500345	0.0938201	0.984092	0.0666309
1	0	False	18	0	1	2	1.0	0.135	-1.0	--	--	[0, 1, 2]	[0, 1, 2]	--	--	--	1.0	1.11796	client-B	--	--	--	0.0500875	0.483671	0.0666058	0.984106	0.0666359
1	0	False	19	5	1	4	1.0	0.25	-1.0	--	--	[0, 1, 2]	[0, 1, 2]	--	--	--	1.0	0.517407	client-B	--	--	--	0.0667661	0.483627	0.066637	0.984108	0.066603
1	0	False	20	5	1	4	1.0	0.25	-1.0	--	--	[0, 1, 2]	[0, 1, 2]	--	--	--	1.0	0.734282	client-B	--	--	--	0.0333689	0.483663	0.0665984	0.984116	0.0666168
1	0	False	21	0	1	1	1.0	0.115	2.0	--	--	[0, 1, 2]	[0, 1, 2]	--	--	--	0.0	0.95113	client-B	--	--	--	0.116783	0.48364	0.066604	0.984127	0.0665924
1	0	False	22	5	0	4	1.0	0.25	-1.0	--	--	[0, 1, 2]	[0, 1, 2]	--	--	--	1.0	2.03548	client-B	--	--	--	0.0334287	0.500369	0.0999454	0.994593	0.0665867
1	0	False	23	0	0	2	1.0	0.135	-1.0	--	--	[0, 1, 2]	[0, 1, 2]	--	--	--	1.0	1.88533	client-B	--	--	--	0.0667325	0.483659	0.0666186	0.984087	0.066604
1	0	False	24	0	0	2	1.0	0.135	-1.0	--	--	[0, 1, 2]	[0, 1, 2]	--	--	--	1.0	1.70179	client-B	--	--	--	0.0500787	0.483653	0.0666164	0.98411	0.0665913
1	0	False	25	4	0	3	1.0	0.17	0.0	--	--	[0, 1, 2]	[0, 1, 2]	--	--	--	1.0	1.25148	client-B	--	--	--	0.0500698	0.483659	0.0666295	0.9841	0.0665895
1	0	False	26	5	1	4	1.0	0.25	1.0	1.0	6.93994	[0, 1, 2]	[0, 1, 2]	--	--	--	0.0	1.43489	client-B	--	--	--	0.0333636	0.483655	0.0666164	0.984099	0.0666193
1	0	False	27	5	1	4	1.0	0.25	2.0	--	--	[0, 1, 2]	[0, 1, 2]	--	--	--	0.0	2.66933	client-B	--	--	--	0.0500688	0.483657	0.0666079	0.984105	0.0666087
1	0	False	28	2	1	3	1.0	0.17	-1.0	--	--	[0, 1, 2]	[0, 1, 2]	--	--	--	1.0	3.53687	client-B	--	--	--	0.0333618	0.500323	0.0999832	0.994626	0.0666002
1	0	False	29	4	0	3	1.0	0.17	-1.0	--	--	[0, 1, 2]	[0, 1, 2]	--	--	--	1.0	2.15226	client-B	--	--	--	0.033394	0.483638	0.0666129	0.984104	0.0666263
1	0	False	30	2	0	1	1.0	0.115	0.0	--	--	[0, 1, 2]	[0, 1, 2]	--	--	--	0.0	1.65173	client-B	--	--	--	0.0333664	0.483662	0.0666161	0.984092	0.0666164
1	0	False	31	2	1	3	1.0	0.17	1.0	1.0	5.02158	[0, 1, 2]	[0, 1, 2]	--	--	--	1.0	0.951168	client-B	--	--	--	0.0333824	0.483654	0.066609	0.984111	0.066581
1	0	False	32	5	0	4	1.0	0.25	2.0	--	--	[0, 1, 2]	[0, 1, 2]	--	--	--	0.0	1.10131	client-B	--	--	--	0.0500904	0.483644	0.0666253	0.98407	0.0666005
2	0	False	1	0	0	3	1.0	0.17	-1.0	--	--	[0, 1, 2]	[0, 1, 2]	--	--	--	1.0	1.20132	client-B	--	--	--	0.0498692	0.500322	0.0999153	0.994591	0.0665754
2	0	False	2	1	0	4	1.0	0.25	0.0	--	--	[0, 1, 2]	[0, 1, 2]	--	--	--	0.0	0.717603	client-B	--	--	--	0.0500974	0.483652	0.0665987	0.984105	0.0665726
2	0	False	3	2	1	4	1.0	0.25	1.0	1.0	3.43681	[0, 1, 2]	[0, 1, 2]	--	--	--	1.0	0.817664	client-B	--	--	--	0.0333781	0.483656	0.0666355	0.984071	0.0666256
2	0	False	4	0	1	3	1.0	0.17	-1.0	--	--	[0, 1, 2]	[0, 1, 2]	--	--	--	1.0	0.684217	client-B	--	--	--	0.0500702	0.483658	0.0666239	0.984102	0.066609
2	0	False	5	5	1	2	1.0	0.135	2.0	--	--	[0, 1, 2]	[0, 1, 2]	--	--	--	0.0	0.967799	client-B	--	--	--	0.033394	0.483618	0.0665871	0.984146	0.066609
2	0	False	6	5	1	2	1.0	0.135	-1.0	--	--	[0, 1, 2]	[0, 1, 2]	--	--	--	1.0	0.984489	client-B	--	--	--	0.0334146	0.505874	0.0999691	0.994633	0.0666104
2	0	False	7	1	0	4	1.0	0.25	0.0	--	--	[0, 1, 2]	[0, 1, 2]	--	--	--	1.0	1.06791	client-B	--	--	--	0.0833998	0.483666	0.0666295	0.984091	0.0666249
2	0	False	8	2	0	2	1.0	0.135	1.0	1.0	4.93818	[0, 1, 2]	[0, 1, 2]	--	--	--	1.0	4.28746	client-B	--	--	--	0.0333753	0.483698	0.0666072	0.984102	0.0666147
2	0	False	9	5	0	1	1.0	0.115	2.0	--	--	[0, 1, 2]	[0, 1, 2]	--	--	--	0.0	1.45158	client-B	--	--	--	0.0500833	0.483663	0.0665832	0.984108	0.0666285
2	0	False	10	0	1	3	1.0	0.17	0.0	--	--	[0, 1, 2]	[0, 1, 2]	--	--	--	1.0	1.11798	client-B	--	--	--	0.0333958	0.483635	0.066614	0.984101	0.0665995
2	0	False	11	0	1	3	1.0	0.17	-1.0	--	--	[0, 1, 2]	[0, 1, 2]	--	--	--	1.0	0.917238	client-B	--	--	--	0.033354	0.50036	0.0999914	1.00077	0.094296
2	0	False	12	2	1	4	1.0	0.25	1.0	0.0	3.80383	[0, 1, 2]	[0, 1, 2]	--	--	--	1.0	0.800965	client-B	--	--	--	0.0500843	0.483649	0.0666182	0.98411	0.0666076
2	0	False	13	2	0	2	1.0	0.135	2.0	--	--	[0, 1, 2]	[0, 1, 2]	--	--	--	1.0	1.35149	client-B	--	--	--	0.0500465	0.483664	0.0666097	0.984102	0.0665825
2	0	False	14	0	1	1	1.0	0.115	0.0	--	--	[0, 1, 2]	[0, 1, 2]	--	--	--	1.0	1.45176	client-B	--	--	--	0.0333944	0.483657	0.066614	0.984091	0.0665984
2	0	False	15	1	0	4	1.0	0.25	1.0	1.0	5.34407	[0, 1, 2]	[0, 1, 2]	--	--	--	1.0	1.23533	client-B	--	--	--	0.0500865	0.483654	0.0832742	1.00077	0.0666256
2	0	False	16	0	1	1	1.0	0.115	-1.0	--	--	[0, 1, 2]	[0, 1, 2]	--	--	--	0.0	1.01753	client-B	--	--	--	0.0667007	0.500331	0.0999747	1.00078	0.110805
2	0	False	17	5	0	1	1.0	0.115	-1.0	--	--	[0, 1, 2]	[0, 1, 2]	--	--	--	1.0	2.3691	client-B	--	--	--	0.0334018	0.483663	0.0665906	0.98413	0.0665842
2	0	False	18	5	1	2	1.0	0.135	2.0	--	--	[0, 1, 2]	[0, 1, 2]	--	--	--	0.0	1.08456	client-B	--	--	--	0.0333668	0.483641	0.0666263	0.984113	0.0666026
2	0	False	19	0	0	3	1.0	0.17	0.0	--	--	[0, 1, 2]	[0, 1, 2]	--	--	--	1.0	1.31814	client-B	--	--	--	0.0334039	0.483666	0.0665963	0.984101	0.0666154
2	0	False	20	0	0	3	1.0	0.17	1.0	1.0	6.46239	[0, 1, 2]	[0, 1, 2]	--	--	--	0.0	2.15226	client-B	--	--	--	0.0333763	0.483656	0.0666267	0.984059	0.0666104
2	0	False	21	5	1	2	1.0	0.135	2.0	--	--	[0, 1, 2]	[0, 1, 2]	--	--	--	1.0	1.21807	client-B	--	--	--	0.0500613	0.50031	0.0771577	0.984071	0.0666055
2	0	False	22	5	0	1	1.0	0.115	-1.0	--	--	[0, 1, 2]	[0, 1, 2]	--	--	--	1.0	0.817693	client-B	--	--	--	0.0333976	0.483651	0.0666129	0.984114	0.0665676
2	0	False	23	2	1	4	1.0	0.25	-1.0	--	--	[0, 1, 2]	[0, 1, 2]	--	--	--	0.0	0.73427	client-B	--	--	--	0.0333533	0.483658	0.0666267	0.984109	0.0666083
2	0	False	24	0	1	1	1.0	0.115	0.0	--	--	[0, 1, 2]	[0, 1, 2]	--	--	--	1.0	0.851077	client-B	--	--	--	0.0333767	0.483646	0.066603	0.984119	0.0666051
2	0	False	25	0	1	3	1.0	0.17	1.0	1.0	5.97243	[0, 1, 2]	[0, 1, 2]	--	--	--	1.0	1.46822	client-B	--	--	--	0.033387	0.483644	0.066632	0.984722	0.0666129
2	0	False	26	1	0	4	1.0	0.25	2.0	--	--	[0, 1, 2]	[0, 1, 2]	--	--	--	0.0	1.08458	client-B	--	--	--	0.0667966	0.500295	0.110842	0.983775	0.0666161
2	0	False	27	2	0	2	1.0	0.135	0.0	--	--	[0, 1, 2]	[0, 1, 2]	--	--	--	1.0	0.967817	client-B	--	--	--	0.0334174	0.483657	0.0665966	0.984122	0.066592
2	0	False	28	0	0	3	1.0	0.17	1.0	0.0	3.95459	[0, 1, 2]	[0, 1, 2]	--	--	--	1.0	0.834345	client-B	--	--	--	0.0334167	0.483646	0.0666267	0.984103	0.0666175
2	0	False	29	2	0	2	1.0	0.135	2.0	--	--	[0, 1, 2]	[0, 1, 2]	--	--	--	0.0	1.46694	client-B	--	--	--	0.0500688	0.50603	0.0998105	1.00081	0.11179
2	0	False	30	5	0	1	1.0	0.115	0.0	--	--	[0, 1, 2]	[0, 1, 2]	--	--	--	0.0	1.95201	client-B	--	--	--	0.0667244	0.483666	0.0666299	0.984087	0.0666044
2	0	False	31	0	1	1	1.0	0.115	1.0	1.0	3.65369	[0, 1, 2]	[0, 1, 2]	--	--	--	1.0	0.884422	client-B	--	--	--	0.0333516	0.483669	0.0666154	0.984106	0.0665945
2	0	False	32	2	1	4	1.0	0.25	-1.0	--	--	[0, 1, 2]	[0, 1, 2]	--	--	--	1.0	0.71764	client-B	--	--	--	0.0500652	0.483669	0.0666189	0.984104	0.0665934
0	1	False	1	3	0	2	1.0	0.135	2.0	--	--	[2, 0, 1]	[0, 1, 2]	1.0	2.26843	client-B	--	--	--	--	--	--	0.033347	0.500302	0.0999231	1.00076	0.0943325
0	1	False	2	3	0	2	1.0	0.135	-1.0	--	--	[2, 0, 1]	[0, 1, 2]	1.0	1.68512	client-B	--	--	--	--	--	--	0.0333187	0.500337	0.0999779	0.994633	0.0666076
0	1	False	3	0	1	4	1.0	0.25	0.0	1.0	4.55449	[2, 0, 1]	[0, 1, 2]	1.0	2.10214	client-B	--	--	--	--	--	--	0.0334135	0.483652	0.0666207	0.984102	0.0666217
0	1	False	4	3	0	4	1.0	0.25	1.0	--	--	[2, 0, 1]	[0, 1, 2]	0.0	0.934423	client-B	--	--	--	--	--	--	0.0500589	0.48366	0.066614	0.984093	0.0666154
0	1	False	5	3	0	4	1.0	0.25	-1.0	--	--	[2, 0, 1]	[0, 1, 2]	0.0	0.851091	client-B	--	--	--	--	--	--	0.0333774	0.48364	0.0666186	0.984111	0.0666136
0	1	False	6	0	1	4	1.0	0.25	2.0	--	--	[2, 0, 1]	[0, 1, 2]	1.0	1.11798	client-B	--	--	--	--	--	--	0.0333657	0.48364	0.066604	0.984105	0.0666065
0	1	False	7	5	0	3	1.0	0.17	0.0	1.0	4.23747	[2, 0, 1]	[0, 1, 2]	1.0	1.16799	client-B	--	--	--	--	--	--	0.0333894	0.483652	0.0666228	0.984113	0.0666058
0	1	False	8	0	0	1	1.0	0.115	1.0	--	--	[2, 0, 1]	[0, 1, 2]	0.0	2.55257	client-B	--	--	--	--	--	--	0.0667187	0.50035	0.111816	0.999457	0.0666154
0	1	False	9	2	1	2	1.0	0.135	-1.0	--	--	[2, 0, 1]	[0, 1, 2]	1.0	1.4182	client-B	--	--	--	--	--	--	0.0333753	0.483639	0.0666228	0.984131	0.0665931
0	1	False	10	0	1	4	1.0	0.25	2.0	--	--	[2, 0, 1]	[0, 1, 2]	0.0	1.06792	client-B	--	--	--	--	--	--	0.0334068	0.483654	0.0666051	0.984106	0.0666143
0	1	False	11	3	0	4	1.0	0.25	0.0	1.0	5.65548	[2, 0, 1]	[0, 1, 2]	0.0	0.884423	client-B	--	--	--	--	--	--	0.0333555	0.483666	0.0666019	0.984108	0.0666101
0	1	False	12	5	0	3	1.0	0.17	-1.0	--	--	[2, 0, 1]	[0, 1, 2]	1.0	3.02026	client-B	--	--	--	--	--	--	0.0500702	0.483665	0.0665938	0.984097	0.0666221
0	1	False	13	0	1	3	1.0	0.17	1.0	--	--	[2, 0, 1]	[0, 1, 2]	1.0	1.30144	client-B	--	--	--	--	--	--	0.0500811	0.500302	0.0999928	0.994622	0.0666094
0	1	False	14	4	1	1	1.0	0.115	-1.0	--	--	[2, 0, 1]	[0, 1, 2]	0.0	1.41823	client-B	--	--	--	--	--	--	0.0333887	0.483673	0.0666069	0.984113	0.066609
0	1	False	15	4	1	1	1.0	0.115	-1.0	--	--	[2, 0, 1]	[0, 1, 2]	1.0	1.30143	client-B	--	--	--	--	--	--	0.0500426	0.483653	0.0666101	0.984116	0.066621
0	1	False	16	3	0	4	1.0	0.25	-1.0	--	--	[2, 0, 1]	[0, 1, 2]	0.0	0.884442	client-B	--	--	--	--	--	--	0.0500546	0.483653	0.066614	0.984107	0.0666104
0	1	False	17	2	1	2	1.0	0.135	-1.0	--	--	[2, 0, 1]	[0, 1, 2]	1.0	0.901081	client-B	--	--	--	--	--	--	0.0500996	0.483644	0.0666203	0.984113	0.0666051
0	1	False	18	0	1	3	1.0	0.17	2.0	--	--	[2, 0, 1]	[0, 1, 2]	0.0	1.03455	client-B	--	--	--	--	--	--	0.0500819	0.483666	0.0665924	0.984126	0.0666104
0	1	False	19	3	0	2	1.0	0.135	0.0	1.0	4.58848	[2, 0, 1]	[0, 1, 2]	1.0	1.23475	client-B	--	--	--	--	--	--	0.033364	0.483645	0.066609	0.984124	0.0666207
0	1	False	20	0	0	1	1.0	0.115	1.0	--	--	[2, 0, 1]	[0, 1, 2]	0.0	1.25142	client-B	--	--	--	--	--	--	0.0500847	0.500305	0.110826	0.983773	0.0666179
0	1	False	21	5	0	3	1.0	0.17	2.0	--	--	[2, 0, 1]	[0, 1, 2]	1.0	1.168	client-B	--	--	--	--	--	--	0.0334085	0.483646	0.0666179	0.984118	0.0665906
0	1	False	22	4	1	1	1.0	0.115	0.0	1.0	4.80473	[2, 0, 1]	[0, 1, 2]	0.0	1.88527	client-B	--	--	--	--	--	--	0.0333594	0.483654	0.066626	0.98409	0.066637
0	1	False	23	0	1	4	1.0	0.25	-1.0	--	--	[2, 0, 1]	[0, 1, 2]	1.0	1.05119	client-B	--	--	--	--	--	--	0.0500581	0.483638	0.0666157	0.984103	0.0666228
0	1	False	24	0	1	3	1.0	0.17	1.0	--	--	[2, 0, 1]	[0, 1, 2]	1.0	0.884403	client-B	--	--	--	--	--	--	0.0333579	0.483645	0.0666363	0.984712	0.0666171
0	1	False	25	0	0	1	1.0	0.115	-1.0	--	--	[2, 0, 1]	[0, 1, 2]	1.0	3.10304	client-B	--	--	--	--	--	--	0.033382	0.500361	0.0942865	0.983641	0.0666225
0	1	False	26	0	1	3	1.0	0.17	-1.0	--	--	[2, 0, 1]	[0, 1, 2]	1.0	2.21897	client-B	--	--	--	--	--	--	0.0500472	0.483639	0.0666412	0.984098	0.066598
0	1	False	27	0	0	1	1.0	0.115	2.0	--	--	[2, 0, 1]	[0, 1, 2]	1.0	1.00115	client-B	--	--	--	--	--	--	0.050056	0.483651	0.066614	0.984101	0.0666019
0	1	False	28	4	1	1	1.0	0.115	0.0	1.0	4.72131	[2, 0, 1]	[0, 1, 2]	1.0	2.36905	client-B	--	--	--	--	--	--	0.0334131	0.483656	0.0666228	0.9841	0.0666217
0	1	False	29	2	1	2	1.0	0.135	1.0	--	--	[2, 0, 1]	[0, 1, 2]	0.0	2.33572	client-B	--	--	--	--	--	--	0.0500907	0.483652	0.066604	0.984117	0.0666019
0	1	False	30	2	1	2	1.0	0.135	2.0	--	--	[2, 0, 1]	[0, 1, 2]	0.0	1.45156	client-B	--	--	--	--	--	--	0.0500804	0.500357	0.110776	0.983804	0.0666062
0	1	False	31	5	0	3	1.0	0.17	0.0	0.0	4.60455	[2, 0, 1]	[0, 1, 2]	0.0	1.13466	client-B	--	--	--	--	--	--	0.0333604	0.483657	0.0666058	0.984106	0.0665895
0	1	False	32	3	0	2	1.0	0.135	-1.0	--	--	[2, 0, 1]	[0, 1, 2]	1.0	2.61929	client-B	--	--	--	--	--	--	0.0500939	0.483652	0.0666214	0.984098	0.0666094
1	1	False	1	5	1	2	1.0	0.135	1.0	--	--	[2, 0, 1]	[0, 1, 2]	0.0	3.57013	client-B	--	--	--	--	--	--	0.033376	0.483614	0.0665602	0.984063	0.0665828
1	1	False	2	1	0	2	1.0	0.135	2.0	--	--	[2, 0, 1]	[0, 1, 2]	0.0	1.11794	client-B	--	--	--	--	--	--	0.0333809	0.483663	0.0666019	0.984098	0.0666122
1	1	False	3	1	0	2	1.0	0.135	0.0	1.0	3.98738	[2, 0, 1]	[0, 1, 2]	1.0	1.33484	client-B	--	--	--	--	--	--	0.0333887	0.500345	0.0999853	1.01129	0.0666079
1	1	False	4	5	0	3	1.0	0.17	1.0	--	--	[2, 0, 1]	[0, 1, 2]	0.0	0.884561	client-B	--	--	--	--	--	--	0.0500712	0.483687	0.066574	0.984108	0.0666079
1	1	False	5	4	1	1	1.0	0.115	2.0	--	--	[2, 0, 1]	[0, 1, 2]	0.0	1.20135	client-B	--	--	--	--	--	--	0.0500911	0.483657	0.0666069	0.984119	0.0666009
1	1	False	6	5	0	4	1.0	0.25	-1.0	--	--	[2, 0, 1]	[0, 1, 2]	0.0	0.834369	client-B	--	--	--	--	--	--	0.0334131	0.483655	0.066598	0.984108	0.0666147
1	1	False	7	5	0	3	1.0	0.17	-1.0	--	--	[2, 0, 1]	[0, 1, 2]	0.0	0.967803	client-B	--	--	--	--	--	--	0.0500957	0.483666	0.0666171	0.984118	0.066591
1	1	False	8	2	0	1	1.0	0.115	0.0	1.0	4.07078	[2, 0, 1]	[0, 1, 2]	1.0	1.15194	client-B	--	--	--	--	--	--	0.0500939	0.483641	0.066603	0.984164	0.0665775
1	1	False	9	5	0	3	1.0	0.17	-1.0	--	--	[2, 0, 1]	[0, 1, 2]	0.0	0.717591	client-B	--	--	--	--	--	--	0.0667382	0.500293	0.110828	0.983794	0.0665984
1	1	False	10	1	0	2	1.0	0.135	1.0	--	--	[2, 0, 1]	[0, 1, 2]	1.0	1.18466	client-B	--	--	--	--	--	--	0.0500804	0.483657	0.0665839	0.984133	0.0666228
1	1	False	11	1	0	2	1.0	0.135	-1.0	--	--	[2, 0, 1]	[0, 1, 2]	0.0	1.33485	client-B	--	--	--	--	--	--	0.0500737	0.483649	0.0666327	0.984102	0.0666079
1	1	False	12	2	0	1	1.0	0.115	-1.0	--	--	[2, 0, 1]	[0, 1, 2]	0.0	1.00122	client-B	--	--	--	--	--	--	0.0500627	0.483689	0.0666267	0.984106	0.0665853
1	1	False	13	5	1	2	1.0	0.135	2.0	--	--	[2, 0, 1]	[0, 1, 2]	1.0	1.15136	client-B	--	--	--	--	--	--	0.0500688	0.483651	0.0666143	0.984095	0.066604
1	1	False	14	5	1	3	1.0	0.17	0.0	1.0	3.60427	[2, 0, 1]	[0, 1, 2]	1.0	1.45157	client-B	--	--	--	--	--	--	0.0334167	0.483659	0.0665924	0.984108	0.0666292
1	1	False	15	5	1	4	1.0	0.25	-1.0	--	--	[2, 0, 1]	[0, 1, 2]	1.0	1.01785	client-B	--	--	--	--	--	--	0.050079	0.505895	0.0938781	0.984026	0.0666062
1	1	False	16	4	1	1	1.0	0.115	1.0	--	--	[2, 0, 1]	[0, 1, 2]	0.0	0.884445	client-B	--	--	--	--	--	--	0.0667753	0.483655	0.0666079	0.984122	0.0665948
1	1	False	17	5	0	4	1.0	0.25	-1.0	--	--	[2, 0, 1]	[0, 1, 2]	0.0	0.867705	client-B	--	--	--	--	--	--	0.0334174	0.483657	0.0666225	0.984097	0.0666278
1	1	False	18	5	1	4	1.0	0.25	2.0	--	--	[2, 0, 1]	[0, 1, 2]	0.0	0.984483	client-B	--	--	--	--	--	--	0.0500985	0.483657	0.0666083	0.98411	0.0665934
1	1	False	19	4	1	1	1.0	0.115	0.0	0.0	3.55364	[2, 0, 1]	[0, 1, 2]	0.0	1.51833	client-B	--	--	--	--	--	--	0.0333901	0.483654	0.0666083	0.984101	0.0666281
1	1	False	20	5	1	2	1.0	0.135	-1.0	--	--	[2, 0, 1]	[0, 1, 2]	1.0	1.01785	client-B	--	--	--	--	--	--	0.0500925	0.483654	0.066615	0.984112	0.066614
1	1	False	21	2	0	1	1.0	0.115	1.0	--	--	[2, 0, 1]	[0, 1, 2]	1.0	1.20136	client-B	--	--	--	--	--	--	0.0333965	0.483642	0.0666235	0.984101	0.0666179
1	1	False	22	5	0	4	1.0	0.25	2.0	--	--	[2, 0, 1]	[0, 1, 2]	0.0	0.834383	client-B	--	--	--	--	--	--	0.0334181	0.500323	0.110802	0.983789	0.066621
1	1	False	23	5	1	3	1.0	0.17	0.0	1.0	3.32008	[2, 0, 1]	[0, 1, 2]	1.0	1.15132	client-B	--	--	--	--	--	--	0.0667676	0.483666	0.0666189	0.984102	0.0666129
1	1	False	24	5	1	3	1.0	0.17	1.0	--	--	[2, 0, 1]	[0, 1, 2]	1.0	1.16798	client-B	--	--	--	--	--	--	0.0500921	0.483655	0.066615	0.984104	0.066621
1	1	False	25	5	1	4	1.0	0.25	-1.0	--	--	[2, 0, 1]	[0, 1, 2]	1.0	1.08457	client-B	--	--	--	--	--	--	0.0334011	0.483666	0.0666037	0.984099	0.0666232
1	1	False	26	5	1	3	1.0	0.17	2.0	--	--	[2, 0, 1]	[0, 1, 2]	1.0	0.934433	client-B	--	--	--	--	--	--	0.050095	0.483666	0.0666125	0.984105	0.0666097
1	1	False	27	5	1	2	1.0	0.135	0.0	1.0	3.87616	[2, 0, 1]	[0, 1, 2]	1.0	1.01845	client-B	--	--	--	--	--	--	0.0334057	0.483652	0.066614	0.984116	0.0666235
1	1	False	28	4	1	1	1.0	0.115	1.0	--	--	[2, 0, 1]	[0, 1, 2]	1.0	1.2347	client-B	--	--	--	--	--	--	0.0501084	0.500368	0.0937885	0.9841	0.0666118
1	1	False	29	5	0	3	1.0	0.17	2.0	--	--	[2, 0, 1]	[0, 1, 2]	0.0	1.33484	client-B	--	--	--	--	--	--	0.0667654	0.483652	0.0665966	0.984118	0.0666288
1	1	False	30	2	0	1	1.0	0.115	-1.0	--	--	[2, 0, 1]	[0, 1, 2]	1.0	0.967765	client-B	--	--	--	--	--	--	0.0333955	0.483655	0.0666186	0.9841	0.0666242
1	1	False	31	5	1	4	1.0	0.25	0.0	1.0	3.38679	[2, 0, 1]	[0, 1, 2]	1.0	1.03453	client-B	--	--	--	--	--	--	0.050085	0.483668	0.0666299	0.984102	0.0666129
1	1	False	32	5	0	4	1.0	0.25	1.0	--	--	[2, 0, 1]	[0, 1, 2]	0.0	0.834334	client-B	--	--	--	--	--	--	0.0500847	0.483639	0.0666306	0.984105	0.0666228
2	1	False	1	5	1	2	1.0	0.135	2.0	--	--	[2, 0, 1]	[0, 1, 2]	1.0	6.72294	client-B	--	--	--	--	--	--	0.033405	0.500245	0.099945	0.994596	0.0665676
2	1	False	2	3	0	3	1.0	0.17	0.0	1.0	4.02068	[2, 0, 1]	[0, 1, 2]	1.0	0.951158	client-B	--	--	--	--	--	--	0.0667792	0.483644	0.0666568	0.984076	0.0666136
2	1	False	3	2	0	4	1.0	0.25	-1.0	--	--	[2, 0, 1]	[0, 1, 2]	0.0	1.31812	client-B	--	--	--	--	--	--	0.0500935	0.483655	0.0666118	0.984112	0.0666132
2	1	False	4	4	0	1	1.0	0.115	1.0	--	--	[2, 0, 1]	[0, 1, 2]	1.0	1.00116	client-B	--	--	--	--	--	--	0.0334103	0.483652	0.0666051	0.984099	0.0666207
2	1	False	5	0	1	1	1.0	0.115	2.0	--	--	[2, 0, 1]	[0, 1, 2]	1.0	1.13464	client-B	--	--	--	--	--	--	0.0334192	0.48364	0.0666423	0.984105	0.066621
2	1	False	6	4	0	1	1.0	0.115	0.0	1.0	3.80386	[2, 0, 1]	[0, 1, 2]	1.0	0.684253	client-B	--	--	--	--	--	--	0.0333785	0.500335	0.0942936	0.983628	0.0666263
2	1	False	7	3	1	3	1.0	0.17	1.0	--	--	[2, 0, 1]	[0, 1, 2]	1.0	1.78537	client-B	--	--	--	--	--	--	0.0834543	0.483661	0.0666048	0.984103	0.0666285
2	1	False	8	4	0	2	1.0	0.135	2.0	--	--	[2, 0, 1]	[0, 1, 2]	1.0	0.467405	client-B	--	--	--	--	--	--	0.0334043	0.483634	0.0666338	0.984101	0.0665956
2	1	False	9	5	1	2	1.0	0.135	0.0	1.0	8.85793	[2, 0, 1]	[0, 1, 2]	1.0	1.68577	client-B	--	--	--	--	--	--	0.0333965	0.483667	0.0666207	0.984099	0.0665998
2	1	False	10	5	1	2	1.0	0.135	1.0	--	--	[2, 0, 1]	[0, 1, 2]	1.0	1.35148	client-B	--	--	--	--	--	--	0.0667785	0.483637	0.0666164	0.984116	0.0665963
2	1	False	11	0	1	1	1.0	0.115	2.0	--	--	[2, 0, 1]	[0, 1, 2]	1.0	2.60262	client-B	--	--	--	--	--	--	0.0334078	0.483655	0.0666239	0.984083	0.0666104
2	1	False	12	2	0	4	1.0	0.25	-1.0	--	--	[2, 0, 1]	[0, 1, 2]	0.0	0.817672	client-B	--	--	--	--	--	--	0.0334124	0.483655	0.0666147	0.984115	0.0665991
2	1	False	13	2	0	4	1.0	0.25	-1.0	--	--	[2, 0, 1]	[0, 1, 2]	0.0	1.3348	client-B	--	--	--	--	--	--	0.0333951	0.483656	0.0666115	0.984121	0.0666012
2	1	False	14	0	1	1	1.0	0.115	0.0	1.0	3.45976	[2, 0, 1]	[0, 1, 2]	1.0	0.967809	client-B	--	--	--	--	--	--	0.0500886	0.483658	0.0666065	0.984104	0.0666239
2	1	False	15	4	0	1	1.0	0.115	1.0	--	--	[2, 0, 1]	[0, 1, 2]	1.0	2.10215	client-B	--	--	--	--	--	--	0.0333933	0.50034	0.0942681	0.983634	0.0666387
2	1	False	16	3	1	4	1.0	0.25	-1.0	--	--	[2, 0, 1]	[0, 1, 2]	0.0	1.56835	client-B	--	--	--	--	--	--	0.0499821	0.483647	0.0666129	0.984108	0.0666306
2	1	False	17	4	0	2	1.0	0.135	2.0	--	--	[2, 0, 1]	[0, 1, 2]	1.0	0.734258	client-B	--	--	--	--	--	--	0.050096	0.483654	0.0666016	0.984128	0.0666168
2	1	False	18	3	1	4	1.0	0.25	0.0	1.0	3.27003	[2, 0, 1]	[0, 1, 2]	1.0	1.25141	client-B	--	--	--	--	--	--	0.0333926	0.483643	0.06662	0.984108	0.0666079
2	1	False	19	2	0	4	1.0	0.25	1.0	--	--	[2, 0, 1]	[0, 1, 2]	0.0	0.867732	client-B	--	--	--	--	--	--	0.0501006	0.483652	0.0666196	0.984104	0.0665917
2	1	False	20	3	1	4	1.0	0.25	2.0	--	--	[2, 0, 1]	[0, 1, 2]	1.0	1.11797	client-B	--	--	--	--	--	--	0.0334446	0.5003	0.0771319	0.984104	0.0666122
2	1	False	21	3	1	4	1.0	0.25	0.0	1.0	5.32186	[2, 0, 1]	[0, 1, 2]	1.0	1.00121	client-B	--	--	--	--	--	--	0.0667725	0.483656	0.0666285	0.984107	0.0665669
2	1	False	22	3	0	3	1.0	0.17	-1.0	--	--	[2, 0, 1]	[0, 1, 2]	0.0	1.63509	client-B	--	--	--	--	--	--	0.0501024	0.483659	0.0666115	0.984107	0.0666009
2	1	False	23	4	0	1	1.0	0.115	1.0	--	--	[2, 0, 1]	[0, 1, 2]	1.0	0.934443	client-B	--	--	--	--	--	--	0.050078	0.48366	0.0666115	0.984112	0.0666115
2	1	False	24	3	1	3	1.0	0.17	2.0	--	--	[2, 0, 1]	[0, 1, 2]	1.0	1.38483	client-B	--	--	--	--	--	--	0.0333795	0.48366	0.0666228	0.984104	0.0666295
2	1	False	25	4	0	2	1.0	0.135	0.0	1.0	4.05407	[2, 0, 1]	[0, 1, 2]	1.0	1.40151	client-B	--	--	--	--	--	--	0.0334156	0.500392	0.0770399	0.984097	0.0665973
2	1	False	26	3	1	3	1.0	0.17	1.0	--	--	[2, 0, 1]	[0, 1, 2]	0.0	1.13467	client-B	--	--	--	--	--	--	0.0834564	0.483648	0.066604	0.984097	0.0666302
2	1	False	27	0	1	1	1.0	0.115	-1.0	--	--	[2, 0, 1]	[0, 1, 2]	1.0	1.03454	client-B	--	--	--	--	--	--	0.0334181	0.500338	0.0666115	0.984101	0.0665991
2	1	False	28	3	0	3	1.0	0.17	-1.0	--	--	[2, 0, 1]	[0, 1, 2]	0.0	1.43489	client-B	--	--	--	--	--	--	0.0501056	0.483652	0.0666179	0.984098	0.0666122
2	1	False	29	3	0	3	1.0	0.17	2.0	--	--	[2, 0, 1]	[0, 1, 2]	1.0	0.817685	client-B	--	--	--	--	--	--	0.0334022	0.483653	0.0666352	0.984094	0.0666232
2	1	False	30	5	1	2	1.0	0.135	0.0	1.0	4.67126	[2, 0, 1]	[0, 1, 2]	1.0	1.76852	client-B	--	--	--	--	--	--	0.0334032	0.484269	0.0666157	0.984119	0.06662
2	1	False	31	3	1	3	1.0	0.17	-1.0	--	--	[2, 0, 1]	[0, 1, 2]	0.0	4.07056	client-B	--	--	--	--	--	--	0.0501226	0.500393	0.0999121	0.994601	0.0666065
2	1	False	32	4	0	2	1.0	0.135	1.0	--	--	[2, 0, 1]	[0, 1, 2]	1.0	0.91774	client-B	--	--	--	--	--	--	0.0333725	0.483679	0.0666111	0.984114	0.0666278
0	2	False	1	4	1	4	1.0	0.25	1.0	--	--	[1, 2, 0]	[0, 1, 2]	--	--	--	--	--	--	1.0	1.71793	client-B	0.0333901	0.500234	0.0999981	1.00076	0.0942635
0	2	False	2	4	1	4	1.0	0.25	-1.0	--	--	[1, 2, 0]	[0, 1, 2]	--	--	--	--	--	--	1.0	1.65178	client-B	0.0333877	0.483666	0.0665821	0.985989	0.0820256
0	2	False	3	2	1	2	1.0	0.135	2.0	0.0	2.60279	[1, 2, 0]	[0, 1, 2]	--	--	--	--	--	--	0.0	0.851047	client-B	0.0333622	0.500356	0.0942614	0.983673	0.0665973
0	2	False	4	4	1	4	1.0	0.25	-1.0	--	--	[1, 2, 0]	[0, 1, 2]	--	--	--	--	--	--	1.0	1.50163	client-B	0.0834235	0.483653	0.0666129	0.984101	0.0666005
0	2	False	5	4	0	3	1.0	0.17	0.0	--	--	[1, 2, 0]	[0, 1, 2]	--	--	--	--	--	--	0.0	1.23472	client-B	0.0334107	0.483639	0.0666363	0.984106	0.0666058
0	2	False	6	0	0	2	1.0	0.135	1.0	--	--	[1, 2, 0]	[0, 1, 2]	--	--	--	--	--	--	0.0	1.2848	client-B	0.0334199	0.483657	0.0666083	0.98409	0.0665842
0	2	False	7	1	0	1	1.0	0.115	2.0	0.0	5.25514	[1, 2, 0]	[0, 1, 2]	--	--	--	--	--	--	0.0	0.550788	client-B	0.033393	0.483674	0.0666104	0.984092	0.0665966
0	2	False	8	2	0	4	1.0	0.25	-1.0	--	--	[1, 2, 0]	[0, 1, 2]	--	--	--	--	--	--	0.0	0.600824	client-B	0.0500656	0.483667	0.0666132	0.984107	0.066603
0	2	False	9	2	1	2	1.0	0.135	0.0	--	--	[1, 2, 0]	[0, 1, 2]	--	--	--	--	--	--	1.0	0.734258	client-B	0.0333909	0.483685	0.0665768	0.984104	0.0666214
0	2	False	10	2	0	4	1.0	0.25	-1.0	--	--	[1, 2, 0]	[0, 1, 2]	--	--	--	--	--	--	0.0	1.16794	client-B	0.0333905	0.500378	0.0937132	0.98411	0.0666196
0	2	False	11	5	1	1	1.0	0.115	1.0	--	--	[1, 2, 0]	[0, 1, 2]	--	--	--	--	--	--	1.0	0.917763	client-B	0.0334054	0.483628	0.0666118	0.98409	0.0666062
0	2	False	12	3	1	3	1.0	0.17	2.0	0.0	4.80475	[1, 2, 0]	[0, 1, 2]	--	--	--	--	--	--	0.0	2.21882	client-B	0.0333887	0.483643	0.0665948	0.984134	0.0666012
0	2	False	13	4	0	3	1.0	0.17	0.0	--	--	[1, 2, 0]	[0, 1, 2]	--	--	--	--	--	--	0.0	0.500736	client-B	0.0500684	0.48368	0.0665892	0.9841	0.0666253
0	2	False	14	0	0	2	1.0	0.135	1.0	--	--	[1, 2, 0]	[0, 1, 2]	--	--	--	--	--	--	0.0	0.750975	client-B	0.0333997	0.48367	0.0666182	0.984095	0.0666221
0	2	False	15	2	1	2	1.0	0.135	2.0	0.0	2.90302	[1, 2, 0]	[0, 1, 2]	--	--	--	--	--	--	0.0	0.66724	client-B	0.0333898	0.500381	0.0999326	1.0008	0.110795
0	2	False	16	3	1	3	1.0	0.17	0.0	--	--	[1, 2, 0]	[0, 1, 2]	--	--	--	--	--	--	1.0	1.20131	client-B	0.0500964	0.483645	0.0666164	0.984092	0.0666263
0	2	False	17	4	1	4	1.0	0.25	-1.0	--	--	[1, 2, 0]	[0, 1, 2]	--	--	--	--	--	--	1.0	1.26807	client-B	0.0333799	0.483668	0.0666214	0.984098	0.0666055
0	2	False	18	4	0	3	1.0	0.17	1.0	--	--	[1, 2, 0]	[0, 1, 2]	--	--	--	--	--	--	1.0	0.901082	client-B	0.0334036	0.483637	0.0666448	0.98411	0.0666129
0	2	False	19	1	0	1	1.0	0.115	2.0	1.0	6.22338	[1, 2, 0]	[0, 1, 2]	--	--	--	--	--	--	0.0	0.584119	client-B	0.0500642	0.483642	0.0665977	0.984123	0.0666087
0	2	False	20	2	0	4	1.0	0.25	0.0	--	--	[1, 2, 0]	[0, 1, 2]	--	--	--	--	--	--	0.0	1.65147	client-B	0.0333452	0.50031	0.100003	1.00075	0.110817
0	2	False	21	4	0	3	1.0	0.17	1.0	--	--	[1, 2, 0]	[0, 1, 2]	--	--	--	--	--	--	0.0	0.71762	client-B	0.033417	0.483647	0.0666154	0.984107	0.0666179
0	2	False	22	5	1	1	1.0	0.115	2.0	1.0	4.15417	[1, 2, 0]	[0, 1, 2]	--	--	--	--	--	--	1.0	1.0512	client-B	0.033405	0.483671	0.066637	0.984093	0.0666242
0	2	False	23	2	1	2	1.0	0.135	0.0	--	--	[1, 2, 0]	[0, 1, 2]	--	--	--	--	--	--	0.0	0.684293	client-B	0.0333763	0.483667	0.0666345	0.984105	0.0666051
0	2	False	24	5	1	1	1.0	0.115	1.0	--	--	[1, 2, 0]	[0, 1, 2]	--	--	--	--	--	--	0.0	1.20136	client-B	0.0334032	0.483655	0.0666108	0.984104	0.0665934
0	2	False	25	3	1	3	1.0	0.17	2.0	1.0	4.80472	[1, 2, 0]	[0, 1, 2]	--	--	--	--	--	--	0.0	0.650839	client-B	0.0334326	0.500314	0.0943024	0.98362	0.0666232
0	2	False	26	5	1	1	1.0	0.115	0.0	--	--	[1, 2, 0]	[0, 1, 2]	--	--	--	--	--	--	0.0	0.867733	client-B	0.0500865	0.483672	0.0665917	0.984145	0.0665885
0	2	False	27	0	0	2	1.0	0.135	-1.0	--	--	[1, 2, 0]	[0, 1, 2]	--	--	--	--	--	--	0.0	1.11793	client-B	0.0334029	0.483637	0.0666313	0.984099	0.0666019
0	2	False	28	3	1	3	1.0	0.17	-1.0	--	--	[1, 2, 0]	[0, 1, 2]	--	--	--	--	--	--	1.0	1.01786	client-B	0.0334128	0.500337	0.0666164	0.984091	0.0666182
0	2	False	29	2	0	4	1.0	0.25	-1.0	--	--	[1, 2, 0]	[0, 1, 2]	--	--	--	--	--	--	0.0	0.517438	client-B	0.0334131	0.483668	0.0666016	0.984107	0.0666377
0	2	False	30	0	0	2	1.0	0.135	1.0	--	--	[1, 2, 0]	[0, 1, 2]	--	--	--	--	--	--	0.0	0.851031	client-B	0.0334032	0.483663	0.0666168	0.984097	0.0666171
0	2	False	31	1	0	1	1.0	0.115	-1.0	--	--	[1, 2, 0]	[0, 1, 2]	--	--	--	--	--	--	0.0	0.734325	client-B	0.0334082	0.483642	0.0666023	0.984106	0.0666274
0	2	False	32	1	0	1	1.0	0.115	2.0	0.0	5.00492	[1, 2, 0]	[0, 1, 2]	--	--	--	--	--	--	1.0	0.51738	client-B	0.0333686	0.500382	0.0771344	0.984094	0.0666069
1	2	False	1	5	1	4	1.0	0.25	-1.0	--	--	[1, 2, 0]	[0, 1, 2]	--	--	--	--	--	--	1.0	2.1522	client-B	0.0333689	0.483608	0.0665814	0.984076	0.0665796
1	2	False	2	4	1	2	1.0	0.135	0.0	--	--	[1, 2, 0]	[0, 1, 2]	--	--	--	--	--	--	1.0	0.717592	client-B	0.0334015	0.483645	0.0666048	0.984118	0.0666058
1	2	False	3	0	0	3	1.0	0.17	1.0	--	--	[1, 2, 0]	[0, 1, 2]	--	--	--	--	--	--	0.0	0.717574	client-B	0.0333894	0.483651	0.0665984	0.984127	0.0666225
1	2	False	4	4	1	2	1.0	0.135	2.0	0.0	3.11989	[1, 2, 0]	[0, 1, 2]	--	--	--	--	--	--	0.0	0.43405	client-B	0.0333983	0.483652	0.066603	0.984107	0.0665729
1	2	False	5	4	1	1	1.0	0.115	0.0	--	--	[1, 2, 0]	[0, 1, 2]	--	--	--	--	--	--	1.0	1.30207	client-B	0.033411	0.483647	0.0666348	0.984103	0.0666132
1	2	False	6	5	1	4	1.0	0.25	-1.0	--	--	[1, 2, 0]	[0, 1, 2]	--	--	--	--	--	--	1.0	1.11794	client-B	0.0334174	0.500329	0.0999765	0.99463	0.0666079
1	2	False	7	4	1	2	1.0	0.135	1.0	--	--	[1, 2, 0]	[0, 1, 2]	--	--	--	--	--	--	0.0	0.984482	client-B	0.0334206	0.483656	0.0666154	0.984095	0.0666087
1	2	False	8	4	1	3	1.0	0.17	-1.0	--	--	[1, 2, 0]	[0, 1, 2]	--	--	--	--	--	--	1.0	0.951136	client-B	0.0333926	0.483678	0.0665948	0.984127	0.0666235
1	2	False	9	2	0	2	1.0	0.135	2.0	0.0	5.65548	[1, 2, 0]	[0, 1, 2]	--	--	--	--	--	--	0.0	0.750931	client-B	0.0334029	0.48363	0.0666214	0.984118	0.0666186
1	2	False	10	5	1	4	1.0	0.25	0.0	--	--	[1, 2, 0]	[0, 1, 2]	--	--	--	--	--	--	1.0	1.00118	client-B	0.0333689	0.483662	0.0666161	0.984111	0.066614
1	2	False	11	2	0	2	1.0	0.135	1.0	--	--	[1, 2, 0]	[0, 1, 2]	--	--	--	--	--	--	0.0	1.23475	client-B	0.0334231	0.500383	0.0770484	0.984074	0.0666366
1	2	False	12	4	1	1	1.0	0.115	-1.0	--	--	[1, 2, 0]	[0, 1, 2]	--	--	--	--	--	--	0.0	1.13461	client-B	0.0334043	0.483652	0.0666143	0.984079	0.0666196
1	2	False	13	0	0	3	1.0	0.17	2.0	0.0	5.15503	[1, 2, 0]	[0, 1, 2]	--	--	--	--	--	--	0.0	0.200576	client-B	0.0334082	0.483644	0.0666217	0.984105	0.0666104
1	2	False	14	4	1	3	1.0	0.17	-1.0	--	--	[1, 2, 0]	[0, 1, 2]	--	--	--	--	--	--	1.0	0.984486	client-B	0.033417	0.483625	0.0666221	0.984122	0.0666217
1	2	False	15	0	0	4	1.0	0.25	0.0	--	--	[1, 2, 0]	[0, 1, 2]	--	--	--	--	--	--	0.0	0.817716	client-B	0.0500776	0.483657	0.0666203	0.984102	0.0666044
1	2	False	16	0	0	1	1.0	0.115	1.0	--	--	[1, 2, 0]	[0, 1, 2]	--	--	--	--	--	--	0.0	1.31875	client-B	0.0334043	0.483651	0.0666168	0.98411	0.0666062
1	2	False	17	4	1	3	1.0	0.17	2.0	0.0	3.13658	[1, 2, 0]	[0, 1, 2]	--	--	--	--	--	--	0.0	0.566962	client-B	0.0334096	0.500307	0.0999977	1.00084	0.0942334
1	2	False	18	4	1	3	1.0	0.17	0.0	--	--	[1, 2, 0]	[0, 1, 2]	--	--	--	--	--	--	0.0	0.600795	client-B	0.0334029	0.483654	0.0665977	0.984101	0.0666012
1	2	False	19	0	0	4	1.0	0.25	1.0	--	--	[1, 2, 0]	[0, 1, 2]	--	--	--	--	--	--	0.0	0.901123	client-B	0.0334089	0.483648	0.0666154	0.984116	0.0666055
1	2	False	20	0	0	3	1.0	0.17	2.0	0.0	6.34005	[1, 2, 0]	[0, 1, 2]	--	--	--	--	--	--	1.0	1.0679	client-B	0.0334075	0.48365	0.0665895	0.984146	0.0665871
1	2	False	21	2	0	2	1.0	0.135	0.0	--	--	[1, 2, 0]	[0, 1, 2]	--	--	--	--	--	--	0.0	0.91775	client-B	0.0333272	0.50031	0.0943152	0.983584	0.066649
1	2	False	22	0	0	1	1.0	0.115	-1.0	--	--	[1, 2, 0]	[0, 1, 2]	--	--	--	--	--	--	0.0	0.700891	client-B	0.0667697	0.483667	0.0666051	0.984104	0.0665945
1	2	False	23	4	1	1	1.0	0.115	1.0	--	--	[1, 2, 0]	[0, 1, 2]	--	--	--	--	--	--	0.0	0.734252	client-B	0.0334153	0.483654	0.0666182	0.984106	0.0666026
1	2	False	24	0	0	1	1.0	0.115	-1.0	--	--	[1, 2, 0]	[0, 1, 2]	--	--	--	--	--	--	1.0	1.41824	client-B	0.0334004	0.483652	0.0665973	0.984118	0.0665977
1	2	False	25	4	1	2	1.0	0.135	-1.0	--	--	[1, 2, 0]	[0, 1, 2]	--	--	--	--	--	--	1.0	1.16801	client-B	0.033376	0.48366	0.0666186	0.98409	0.0666302
1	2	False	26	4	1	1	1.0	0.115	2.0	0.0	3.64321	[1, 2, 0]	[0, 1, 2]	--	--	--	--	--	--	0.0	1.05125	client-B	0.0500688	0.483659	0.0666072	0.984111	0.0666168
1	2	False	27	0	0	1	1.0	0.115	0.0	--	--	[1, 2, 0]	[0, 1, 2]	--	--	--	--	--	--	0.0	1.01784	client-B	0.0500928	0.500326	0.0999701	0.994636	0.0666221
1	2	False	28	5	1	4	1.0	0.25	-1.0	--	--	[1, 2, 0]	[0, 1, 2]	--	--	--	--	--	--	1.0	1.21805	client-B	0.0667598	0.483656	0.0666256	0.984085	0.0666189
1	2	False	29	0	0	3	1.0	0.17	1.0	--	--	[1, 2, 0]	[0, 1, 2]	--	--	--	--	--	--	0.0	0.834346	client-B	0.033394	0.483632	0.0666097	0.984099	0.066637
1	2	False	30	0	0	4	1.0	0.25	-1.0	--	--	[1, 2, 0]	[0, 1, 2]	--	--	--	--	--	--	0.0	0.751003	client-B	0.0333997	0.483637	0.0666242	0.984105	0.066626
1	2	False	31	2	0	2	1.0	0.135	-1.0	--	--	[1, 2, 0]	[0, 1, 2]	--	--	--	--	--	--	0.0	0.884388	client-B	0.0333894	0.483652	0.0666186	0.984107	0.0666111
1	2	False	32	0	0	4	1.0	0.25	-1.0	--	--	[1, 2, 0]	[0, 1, 2]	--	--	--	--	--	--	0.0	0.684236	client-B	0.0333997	0.483646	0.0666125	0.984097	0.0666164
2	2	False	1	1	0	2	1.0	0.135	-1.0	--	--	[1, 2, 0]	[0, 1, 2]	--	--	--	--	--	--	0.0	0.500698	client-B	0.0500627	0.483608	0.0665733	0.984076	0.0665587
2	2	False	2	1	0	1	1.0	0.115	-1.0	--	--	[1, 2, 0]	[0, 1, 2]	--	--	--	--	--	--	0.0	0.834964	client-B	0.0333955	0.483662	0.0666058	0.984119	0.0666157
2	2	False	3	5	1	4	1.0	0.25	-1.0	--	--	[1, 2, 0]	[0, 1, 2]	--	--	--	--	--	--	1.0	0.717586	client-B	0.0334156	0.483641	0.0666221	0.984128	0.0666058
2	2	False	4	0	1	3	1.0	0.17	2.0	1.0	5.97242	[1, 2, 0]	[0, 1, 2]	--	--	--	--	--	--	1.0	0.733802	client-B	0.0500723	0.505894	0.09998	1.00079	0.0942709
2	2	False	5	0	1	3	1.0	0.17	0.0	--	--	[1, 2, 0]	[0, 1, 2]	--	--	--	--	--	--	0.0	1.05122	client-B	0.0834465	0.483671	0.0666214	0.984098	0.0666242
2	2	False	6	1	0	1	1.0	0.115	1.0	--	--	[1, 2, 0]	[0, 1, 2]	--	--	--	--	--	--	0.0	0.667536	client-B	0.0334206	0.483655	0.066621	0.984091	0.0666288
2	2	False	7	5	1	1	1.0	0.115	2.0	1.0	2.88637	[1, 2, 0]	[0, 1, 2]	--	--	--	--	--	--	1.0	0.817704	client-B	0.0334142	0.483638	0.0666324	0.98411	0.0666143
2	2	False	8	5	1	2	1.0	0.135	0.0	--	--	[1, 2, 0]	[0, 1, 2]	--	--	--	--	--	--	0.0	1.16799	client-B	0.0334064	0.483628	0.0666196	0.984121	0.0666334
2	2	False	9	1	0	2	1.0	0.135	1.0	--	--	[1, 2, 0]	[0, 1, 2]	--	--	--	--	--	--	0.0	0.68422	client-B	0.0500886	0.483658	0.0666143	0.984108	0.0666115
2	2	False	10	5	1	2	1.0	0.135	2.0	0.0	2.90304	[1, 2, 0]	[0, 1, 2]	--	--	--	--	--	--	0.0	0.834347	client-B	0.0333222	0.500338	0.100001	0.994604	0.0666097
2	2	False	11	0	0	4	1.0	0.25	0.0	--	--	[1, 2, 0]	[0, 1, 2]	--	--	--	--	--	--	1.0	1.41825	client-B	0.0334181	0.483658	0.0666125	0.984078	0.0666345
2	2	False	12	1	0	2	1.0	0.135	1.0	--	--	[1, 2, 0]	[0, 1, 2]	--	--	--	--	--	--	0.0	0.934456	client-B	0.0334068	0.483657	0.0666097	0.984097	0.0666217
2	2	False	13	0	0	4	1.0	0.25	-1.0	--	--	[1, 2, 0]	[0, 1, 2]	--	--	--	--	--	--	0.0	0.63419	client-B	0.0333909	0.483657	0.0666225	0.984116	0.0665991
2	2	False	14	1	0	1	1.0	0.115	-1.0	--	--	[1, 2, 0]	[0, 1, 2]	--	--	--	--	--	--	0.0	0.85108	client-B	0.0334114	0.48363	0.0666196	0.984111	0.0666083
2	2	False	15	4	0	3	1.0	0.17	2.0	0.0	4.2932	[1, 2, 0]	[0, 1, 2]	--	--	--	--	--	--	1.0	0.567462	client-B	0.033416	0.483663	0.0666111	0.984724	0.0666189
2	2	False	16	4	0	3	1.0	0.17	-1.0	--	--	[1, 2, 0]	[0, 1, 2]	--	--	--	--	--	--	0.0	0.700946	client-B	0.0333572	0.500272	0.110819	0.983797	0.0665956
2	2	False	17	5	1	2	1.0	0.135	0.0	--	--	[1, 2, 0]	[0, 1, 2]	--	--	--	--	--	--	0.0	0.834493	client-B	0.0334181	0.483632	0.0666263	0.984091	0.0666217
2	2	False	18	4	0	3	1.0	0.17	1.0	--	--	[1, 2, 0]	[0, 1, 2]	--	--	--	--	--	--	0.0	1.11798	client-B	0.0333693	0.483667	0.0666299	0.984114	0.0666062
2	2	False	19	1	0	1	1.0	0.115	2.0	0.0	2.43596	[1, 2, 0]	[0, 1, 2]	--	--	--	--	--	--	0.0	0.734254	client-B	0.0333785	0.483668	0.0666161	0.984085	0.0666511
2	2	False	20	5	1	1	1.0	0.115	-1.0	--	--	[1, 2, 0]	[0, 1, 2]	--	--	--	--	--	--	0.0	0.817682	client-B	0.0500787	0.483661	0.0666186	0.984111	0.0666044
2	2	False	21	0	0	4	1.0	0.25	-1.0	--	--	[1, 2, 0]	[0, 1, 2]	--	--	--	--	--	--	0.0	0.734264	client-B	0.0333873	0.483655	0.0666129	0.984102	0.0666164
2	2	False	22	5	1	4	1.0	0.25	0.0	--	--	[1, 2, 0]	[0, 1, 2]	--	--	--	--	--	--	1.0	0.667584	client-B	0.033422	0.483681	0.0665924	0.984737	0.0665853
2	2	False	23	5	1	2	1.0	0.135	1.0	--	--	[1, 2, 0]	[0, 1, 2]	--	--	--	--	--	--	0.0	0.46827	client-B	0.0334174	0.500343	0.100013	1.00077	0.109595
2	2	False	24	5	1	1	1.0	0.115	2.0	0.0	4.3043	[1, 2, 0]	[0, 1, 2]	--	--	--	--	--	--	0.0	0.500777	client-B	0.0333717	0.483657	0.0666271	0.984112	0.0666037
2	2	False	25	0	0	4	1.0	0.25	0.0	--	--	[1, 2, 0]	[0, 1, 2]	--	--	--	--	--	--	1.0	0.817697	client-B	0.0500904	0.483649	0.0666239	0.984101	0.0666214
2	2	False	26	5	1	1	1.0	0.115	1.0	--	--	[1, 2, 0]	[0, 1, 2]	--	--	--	--	--	--	0.0	0.50078	client-B	0.0333742	0.483685	0.0665708	0.984109	0.0666019
2	2	False	27	5	1	4	1.0	0.25	-1.0	--	--	[1, 2, 0]	[0, 1, 2]	--	--	--	--	--	--	1.0	0.98449	client-B	0.0501084	0.483645	0.0666409	0.984102	0.0666048
2	2	False	28	5	1	4	1.0	0.25	-1.0	--	--	[1, 2, 0]	[0, 1, 2]	--	--	--	--	--	--	1.0	0.867704	client-B	0.0333933	0.500515	0.0998056	0.994621	0.0666281
2	2	False	29	4	0	3	1.0	0.17	2.0	1.0	5.3719	[1, 2, 0]	[0, 1, 2]	--	--	--	--	--	--	0.0	0.851042	client-B	0.0334156	0.483653	0.0666228	0.984104	0.0665779
2	2	False	30	0	1	3	1.0	0.17	0.0	--	--	[1, 2, 0]	[0, 1, 2]	--	--	--	--	--	--	0.0	1.71847	client-B	0.0500918	0.48365	0.0666136	0.9841	0.0833067
2	2	False	31	0	1	3	1.0	0.17	1.0	--	--	[1, 2, 0]	[0, 1, 2]	--	--	--	--	--	--	0.0	0.53408	client-B	0.0334096	0.483663	0.0666207	0.984099	0.0666161
2	2	False	32	1	0	2	1.0	0.135	2.0	0.0	4.03737	[1, 2, 0]	[0, 1, 2]	--	--	--	--	--	--	0.0	0.634184	client-B	0.0333958	0.483643	0.0666094	0.984118	0.0666143
