subblock_no	block_no	practice	TrialNumber	target_pos	target_screen_nr	contrast_idx	ran	contrast	group_dec_maker	group_dec	group_dec_rt	participants	feedback_texts_order	0_indiv_dec	0_indiv_dec_rt	0_client	1_indiv_dec	1_indiv_dec_rt	1_client	2_indiv_dec	2_indiv_dec_rt	2_client	trial_wait.duration	fixation.duration	stim1.duration	blank_between.duration	stim2.duration
0	0	True	1	4	1	2	1.0	0.135	-1.0	--	--	[0, 1, 2]	[0, 1, 2]	--	--	--	1.0	23.8274	client-B	--	--	--	0.0334579	0.520897	0.0959556	0.994504	0.0665703
0	0	True	2	0	1	4	1.0	0.25	0.0	--	--	[0, 1, 2]	[0, 1, 2]	--	--	--	1.0	5.75535	client-B	--	--	--	0.0500681	0.500305	0.100002	0.994601	0.0666174
0	0	True	3	1	0	2	1.0	0.135	1.0	1.0	39.8022	[0, 1, 2]	[0, 1, 2]	--	--	--	0.0	25.3122	client-B	--	--	--	0.0332434	0.50031	0.0942728	0.983608	0.0666025
0	0	True	4	2	0	3	1.0	0.17	2.0	--	--	[0, 1, 2]	[0, 1, 2]	--	--	--	1.0	9.44815	client-B	--	--	--	0.0500536	0.500386	0.0937451	0.984097	0.066593
0	0	True	5	4	1	3	1.0	0.17	-1.0	--	--	[0, 1, 2]	[0, 1, 2]	--	--	--	1.0	2.43525	client-B	--	--	--	0.0333489	0.500341	0.0999857	1.00078	0.0943248
0	0	True	6	3	0	1	1.0	0.115	0.0	--	--	[0, 1, 2]	[0, 1, 2]	--	--	--	1.0	4.72117	client-B	--	--	--	0.0499906	0.500376	0.0998916	0.9946	0.0665955
0	0	True	7	3	0	4	1.0	0.25	1.0	1.0	22.343	[0, 1, 2]	[0, 1, 2]	--	--	--	1.0	10.8599	client-B	--	--	--	0.0332813	0.500355	0.0998888	0.994608	0.0666001
0	0	True	8	1	1	1	1.0	0.115	2.0	--	--	[0, 1, 2]	[0, 1, 2]	--	--	--	1.0	4.15366	client-B	--	--	--	0.05005	0.500329	0.099996	1.00078	0.110793
0	0	False	1	5	0	2	1.0	0.135	0.0	--	--	[0, 1, 2]	[0, 1, 2]	--	--	--	1.0	3.52001	client-B	--	--	--	0.0334119	0.500347	0.0941531	0.983587	0.0665813
0	0	False	2	0	1	4	1.0	0.25	1.0	0.0	50.5178	[0, 1, 2]	[0, 1, 2]	--	--	--	1.0	22.9372	client-B	--	--	--	0.0332551	0.500362	0.0942958	0.983612	0.0666181
0	0	False	3	3	1	1	1.0	0.115	2.0	--	--	[0, 1, 2]	[0, 1, 2]	--	--	--	1.0	4.58771	client-B	--	--	--	0.0501222	0.500265	0.0999496	0.994635	0.0665795
0	0	False	4	3	1	1	1.0	0.115	-1.0	--	--	[0, 1, 2]	[0, 1, 2]	--	--	--	0.0	14.0794	client-B	--	--	--	0.0500897	0.500209	0.0938463	0.98411	0.0666142
0	0	False	5	3	1	1	1.0	0.115	0.0	--	--	[0, 1, 2]	[0, 1, 2]	--	--	--	1.0	16.9714	client-B	--	--	--	0.0333705	0.483652	0.0666093	0.984116	0.0666036
0	0	False	6	4	1	2	1.0	0.135	1.0	0.0	19.1902	[0, 1, 2]	[0, 1, 2]	--	--	--	0.0	2.18558	client-B	--	--	--	0.0333669	0.500306	0.0999981	0.994613	0.0666064
0	0	False	7	2	0	4	1.0	0.25	2.0	--	--	[0, 1, 2]	[0, 1, 2]	--	--	--	0.0	2.09583	client-B	--	--	--	0.0499959	0.500302	0.0999939	1.00075	0.100149
0	0	False	8	1	1	3	1.0	0.17	-1.0	--	--	[0, 1, 2]	[0, 1, 2]	--	--	--	0.0	1.46825	client-B	--	--	--	0.0333864	0.48364	0.0666301	0.984087	0.0666323
0	0	False	9	5	0	3	1.0	0.17	0.0	--	--	[0, 1, 2]	[0, 1, 2]	--	--	--	0.0	2.08548	client-B	--	--	--	0.0333857	0.483651	0.0666365	0.98409	0.0666103
0	0	False	10	5	0	2	1.0	0.135	1.0	1.0	56.9401	[0, 1, 2]	[0, 1, 2]	--	--	--	1.0	4.0039	client-B	--	--	--	0.0333715	0.500334	0.0938095	0.9841	0.0665965
0	0	False	11	4	1	2	1.0	0.135	-1.0	--	--	[0, 1, 2]	[0, 1, 2]	--	--	--	1.0	15.5201	client-B	--	--	--	0.0500819	0.500249	0.0999857	0.994608	0.0665948
0	0	False	12	2	0	4	1.0	0.25	2.0	--	--	[0, 1, 2]	[0, 1, 2]	--	--	--	1.0	5.47184	client-B	--	--	--	0.0333712	0.500471	0.110691	0.98379	0.0666036
0	0	False	13	0	0	1	1.0	0.115	0.0	--	--	[0, 1, 2]	[0, 1, 2]	--	--	--	0.0	3.82033	client-B	--	--	--	0.033369	0.483661	0.0666156	0.984102	0.066588
0	0	False	14	1	1	3	1.0	0.17	1.0	1.0	46.7979	[0, 1, 2]	[0, 1, 2]	--	--	--	0.0	3.36942	client-B	--	--	--	0.0333832	0.500325	0.100094	1.00066	0.0943315
0	0	False	15	5	0	2	1.0	0.135	-1.0	--	--	[0, 1, 2]	[0, 1, 2]	--	--	--	0.0	1.65178	client-B	--	--	--	0.0500613	0.500354	0.0937869	0.984087	0.0666008
0	0	False	16	4	1	2	1.0	0.135	2.0	--	--	[0, 1, 2]	[0, 1, 2]	--	--	--	1.0	1.78525	client-B	--	--	--	0.0333644	0.483669	0.066605	0.984068	0.0665753
0	0	False	17	4	1	2	1.0	0.135	-1.0	--	--	[0, 1, 2]	[0, 1, 2]	--	--	--	0.0	2.93623	client-B	--	--	--	0.0334388	0.50024	0.0999857	0.994613	0.0666033
0	0	False	18	0	1	4	1.0	0.25	0.0	--	--	[0, 1, 2]	[0, 1, 2]	--	--	--	1.0	2.1689	client-B	--	--	--	0.0333828	0.483632	0.0666192	0.984083	0.066634
0	0	False	19	0	1	4	1.0	0.25	1.0	1.0	8.9083	[0, 1, 2]	[0, 1, 2]	--	--	--	1.0	1.75185	client-B	--	--	--	0.0333588	0.500308	0.0938237	0.984075	0.0666078
0	0	False	20	3	1	1	1.0	0.115	2.0	--	--	[0, 1, 2]	[0, 1, 2]	--	--	--	1.0	2.75269	client-B	--	--	--	0.0500525	0.483661	0.0666057	0.984098	0.0666209
0	0	False	21	5	0	3	1.0	0.17	0.0	--	--	[0, 1, 2]	[0, 1, 2]	--	--	--	0.0	1.31877	client-B	--	--	--	0.0667275	0.483662	0.0666287	0.984092	0.0665972
0	0	False	22	0	0	1	1.0	0.115	1.0	0.0	13.1017	[0, 1, 2]	[0, 1, 2]	--	--	--	1.0	18.3998	client-B	--	--	--	0.0335095	0.50025	0.0999415	0.9946	0.06661
0	0	False	23	5	0	3	1.0	0.17	-1.0	--	--	[0, 1, 2]	[0, 1, 2]	--	--	--	0.0	2.53583	client-B	--	--	--	0.0501371	0.500224	0.0942876	0.983639	0.0666181
0	0	False	24	1	1	3	1.0	0.17	2.0	--	--	[0, 1, 2]	[0, 1, 2]	--	--	--	1.0	1.91864	client-B	--	--	--	0.0334034	0.483637	0.0666326	0.984089	0.0666057
0	0	False	25	0	0	1	1.0	0.115	0.0	--	--	[0, 1, 2]	[0, 1, 2]	--	--	--	0.0	1.68512	client-B	--	--	--	0.0333903	0.483636	0.066581	0.984107	0.0666132
0	0	False	26	2	0	4	1.0	0.25	-1.0	--	--	[0, 1, 2]	[0, 1, 2]	--	--	--	0.0	1.03422	client-B	--	--	--	0.0333549	0.50031	0.100038	1.00079	0.110753
0	0	False	27	2	0	4	1.0	0.25	-1.0	--	--	[0, 1, 2]	[0, 1, 2]	--	--	--	0.0	1.38481	client-B	--	--	--	0.0333825	0.483656	0.0665958	0.984107	0.0666103
0	0	False	28	5	0	2	1.0	0.135	1.0	0.0	9.3087	[0, 1, 2]	[0, 1, 2]	--	--	--	0.0	2.80275	client-B	--	--	--	0.0333655	0.483641	0.0666252	0.984097	0.0665983
0	0	False	29	5	0	3	1.0	0.17	2.0	--	--	[0, 1, 2]	[0, 1, 2]	--	--	--	0.0	1.35148	client-B	--	--	--	0.0500652	0.483643	0.0666259	0.98408	0.0666135
0	0	False	30	1	1	3	1.0	0.17	0.0	--	--	[0, 1, 2]	[0, 1, 2]	--	--	--	0.0	2.98627	client-B	--	--	--	0.0500928	0.500312	0.11081	0.983783	0.0666132
0	0	False	31	0	0	1	1.0	0.115	-1.0	--	--	[0, 1, 2]	[0, 1, 2]	--	--	--	0.0	1.8853	client-B	--	--	--	0.0500635	0.484256	0.0666291	0.984104	0.0666054
0	0	False	32	0	1	4	1.0	0.25	1.0	1.0	10.9768	[0, 1, 2]	[0, 1, 2]	--	--	--	1.0	1.76855	client-B	--	--	--	0.0334734	0.500324	0.0942268	0.983631	0.0666022
1	0	False	1	4	0	2	1.0	0.135	-1.0	--	--	[0, 1, 2]	[0, 1, 2]	--	--	--	0.0	2.16897	client-B	--	--	--	0.0333882	0.483581	0.0665944	0.98405	0.066581
1	0	False	2	5	0	4	1.0	0.25	-1.0	--	--	[0, 1, 2]	[0, 1, 2]	--	--	--	0.0	0.901085	client-B	--	--	--	0.0333839	0.483641	0.0833129	0.9841	0.0666266
1	0	False	3	3	0	1	1.0	0.115	2.0	--	--	[0, 1, 2]	[0, 1, 2]	--	--	--	1.0	2.2356	client-B	--	--	--	0.0333956	0.483651	0.0665976	0.984119	0.0666139
1	0	False	4	4	1	4	1.0	0.25	0.0	--	--	[0, 1, 2]	[0, 1, 2]	--	--	--	1.0	1.71852	client-B	--	--	--	0.0332986	0.500314	0.0938116	0.984094	0.06661
1	0	False	5	4	1	2	1.0	0.135	1.0	1.0	23.1437	[0, 1, 2]	[0, 1, 2]	--	--	--	1.0	15.8309	client-B	--	--	--	0.0332692	0.500408	0.0999312	0.9946	0.0666107
1	0	False	6	4	1	4	1.0	0.25	-1.0	--	--	[0, 1, 2]	[0, 1, 2]	--	--	--	1.0	1.7852	client-B	--	--	--	0.0500567	0.500308	0.100007	0.994598	0.0666217
1	0	False	7	5	0	4	1.0	0.25	-1.0	--	--	[0, 1, 2]	[0, 1, 2]	--	--	--	0.0	1.15132	client-B	--	--	--	0.0333528	0.483702	0.0666071	0.984086	0.0666224
1	0	False	8	5	1	3	1.0	0.17	2.0	--	--	[0, 1, 2]	[0, 1, 2]	--	--	--	1.0	1.90195	client-B	--	--	--	0.0333761	0.483652	0.0665955	0.984126	0.0665958
1	0	False	9	4	1	2	1.0	0.135	-1.0	--	--	[0, 1, 2]	[0, 1, 2]	--	--	--	0.0	3.91003	client-B	--	--	--	0.0500741	0.483652	0.066628	0.984084	0.0666107
1	0	False	10	2	0	3	1.0	0.17	-1.0	--	--	[0, 1, 2]	[0, 1, 2]	--	--	--	0.0	1.46778	client-B	--	--	--	0.0333609	0.50034	0.0999748	1.00078	0.094294
1	0	False	11	3	0	1	1.0	0.115	0.0	--	--	[0, 1, 2]	[0, 1, 2]	--	--	--	1.0	3.03628	client-B	--	--	--	0.0333616	0.483662	0.0666163	0.984103	0.0666089
1	0	False	12	5	0	4	1.0	0.25	-1.0	--	--	[0, 1, 2]	[0, 1, 2]	--	--	--	0.0	0.901143	client-B	--	--	--	0.0333871	0.483661	0.0666011	0.984092	0.0665951
1	0	False	13	4	1	4	1.0	0.25	1.0	1.0	9.21414	[0, 1, 2]	[0, 1, 2]	--	--	--	1.0	1.46826	client-B	--	--	--	0.0333641	0.483668	0.0666025	0.984106	0.066616
1	0	False	14	3	1	1	1.0	0.115	-1.0	--	--	[0, 1, 2]	[0, 1, 2]	--	--	--	0.0	1.81823	client-B	--	--	--	0.0501201	0.500249	0.0999475	1.0008	0.110818
1	0	False	15	3	0	1	1.0	0.115	2.0	--	--	[0, 1, 2]	[0, 1, 2]	--	--	--	1.0	11.1435	client-B	--	--	--	0.033386	0.483681	0.0665916	0.984105	0.0665912
1	0	False	16	4	1	4	1.0	0.25	0.0	--	--	[0, 1, 2]	[0, 1, 2]	--	--	--	1.0	1.8019	client-B	--	--	--	0.0500978	0.483657	0.0666156	0.984087	0.0666093
1	0	False	17	3	1	1	1.0	0.115	1.0	1.0	32.6021	[0, 1, 2]	[0, 1, 2]	--	--	--	1.0	6.48935	client-B	--	--	--	0.0333903	0.500323	0.110799	0.983787	0.0666167
1	0	False	18	3	0	1	1.0	0.115	-1.0	--	--	[0, 1, 2]	[0, 1, 2]	--	--	--	0.0	2.91953	client-B	--	--	--	0.0501219	0.500206	0.100004	0.994578	0.0666107
1	0	False	19	2	0	3	1.0	0.17	2.0	--	--	[0, 1, 2]	[0, 1, 2]	--	--	--	0.0	4.23733	client-B	--	--	--	0.0501028	0.483654	0.0666008	0.984094	0.0666291
1	0	False	20	5	1	3	1.0	0.17	0.0	--	--	[0, 1, 2]	[0, 1, 2]	--	--	--	1.0	1.95203	client-B	--	--	--	0.0335064	0.500205	0.0771416	0.984083	0.0666132
1	0	False	21	5	1	3	1.0	0.17	1.0	1.0	18.717	[0, 1, 2]	[0, 1, 2]	--	--	--	1.0	1.75186	client-B	--	--	--	0.0334756	0.500224	0.0999755	0.994625	0.0666008
1	0	False	22	3	1	1	1.0	0.115	-1.0	--	--	[0, 1, 2]	[0, 1, 2]	--	--	--	0.0	2.58591	client-B	--	--	--	0.0667427	0.483652	0.0665912	0.9841	0.0666178
1	0	False	23	5	0	4	1.0	0.25	-1.0	--	--	[0, 1, 2]	[0, 1, 2]	--	--	--	0.0	1.38487	client-B	--	--	--	0.0667363	0.484272	0.0666075	0.984113	0.0666071
1	0	False	24	4	0	2	1.0	0.135	2.0	--	--	[0, 1, 2]	[0, 1, 2]	--	--	--	0.0	1.70181	client-B	--	--	--	0.0334207	0.500238	0.0999942	0.994627	0.066581
1	0	False	25	4	0	2	1.0	0.135	-1.0	--	--	[0, 1, 2]	[0, 1, 2]	--	--	--	0.0	1.569	client-B	--	--	--	0.0667696	0.483642	0.0666337	0.984093	0.0665827
1	0	False	26	2	0	3	1.0	0.17	-1.0	--	--	[0, 1, 2]	[0, 1, 2]	--	--	--	0.0	1.60169	client-B	--	--	--	0.0333521	0.50036	0.100001	0.994582	0.0665937
1	0	False	27	3	1	1	1.0	0.115	0.0	--	--	[0, 1, 2]	[0, 1, 2]	--	--	--	0.0	2.21893	client-B	--	--	--	0.0500829	0.48366	0.0666015	0.984099	0.0665919
1	0	False	28	4	0	2	1.0	0.135	1.0	1.0	39.8084	[0, 1, 2]	[0, 1, 2]	--	--	--	1.0	3.62016	client-B	--	--	--	0.0333825	0.483649	0.0666213	0.984107	0.0666125
1	0	False	29	4	1	2	1.0	0.135	-1.0	--	--	[0, 1, 2]	[0, 1, 2]	--	--	--	0.0	2.06876	client-B	--	--	--	0.0500203	0.500294	0.100138	0.994466	0.0666107
1	0	False	30	4	1	2	1.0	0.135	2.0	--	--	[0, 1, 2]	[0, 1, 2]	--	--	--	0.0	2.93627	client-B	--	--	--	0.0333733	0.483625	0.0666443	0.984079	0.0666132
1	0	False	31	5	1	3	1.0	0.17	0.0	--	--	[0, 1, 2]	[0, 1, 2]	--	--	--	1.0	5.38836	client-B	--	--	--	0.0334972	0.500234	0.11079	0.983782	0.0666199
1	0	False	32	2	0	3	1.0	0.17	-1.0	--	--	[0, 1, 2]	[0, 1, 2]	--	--	--	0.0	1.41824	client-B	--	--	--	0.033322	0.500254	0.0999748	0.994586	0.0666033
2	0	False	1	0	0	2	1.0	0.135	1.0	0.0	16.1981	[0, 1, 2]	[0, 1, 2]	--	--	--	0.0	2.06876	client-B	--	--	--	0.0333899	0.483601	0.0665643	0.984053	0.066587
2	0	False	2	0	0	4	1.0	0.25	-1.0	--	--	[0, 1, 2]	[0, 1, 2]	--	--	--	0.0	2.5359	client-B	--	--	--	0.0834371	0.483643	0.0666217	0.984716	0.0666054
2	0	False	3	1	0	3	1.0	0.17	-1.0	--	--	[0, 1, 2]	[0, 1, 2]	--	--	--	0.0	1.78518	client-B	--	--	--	0.0333294	0.494189	0.0665622	0.984122	0.0666156
2	0	False	4	0	0	2	1.0	0.135	2.0	--	--	[0, 1, 2]	[0, 1, 2]	--	--	--	0.0	2.00203	client-B	--	--	--	0.0500656	0.483648	0.0666061	0.984092	0.0666163
2	0	False	5	0	1	4	1.0	0.25	0.0	--	--	[0, 1, 2]	[0, 1, 2]	--	--	--	1.0	1.45157	client-B	--	--	--	0.0333701	0.483647	0.0666078	0.98412	0.066605
2	0	False	6	0	0	1	1.0	0.115	-1.0	--	--	[0, 1, 2]	[0, 1, 2]	--	--	--	0.0	1.68479	client-B	--	--	--	0.0333103	0.50036	0.0999903	1.00073	0.110828
2	0	False	7	2	1	2	1.0	0.135	1.0	1.0	29.9108	[0, 1, 2]	[0, 1, 2]	--	--	--	0.0	5.40505	client-B	--	--	--	0.0500946	0.483638	0.0666107	0.984122	0.0665972
2	0	False	8	3	1	3	1.0	0.17	-1.0	--	--	[0, 1, 2]	[0, 1, 2]	--	--	--	0.0	1.78519	client-B	--	--	--	0.066743	0.500358	0.099899	0.994634	0.0665887
2	0	False	9	0	0	1	1.0	0.115	-1.0	--	--	[0, 1, 2]	[0, 1, 2]	--	--	--	0.0	1.5183	client-B	--	--	--	0.0500596	0.483644	0.0666284	0.984102	0.0666025
2	0	False	10	1	0	3	1.0	0.17	2.0	--	--	[0, 1, 2]	[0, 1, 2]	--	--	--	0.0	1.3348	client-B	--	--	--	0.050055	0.483634	0.0666503	0.984095	0.066604
2	0	False	11	1	0	3	1.0	0.17	0.0	--	--	[0, 1, 2]	[0, 1, 2]	--	--	--	0.0	0.934441	client-B	--	--	--	0.0333301	0.500348	0.100023	0.994543	0.0666082
2	0	False	12	2	1	2	1.0	0.135	1.0	1.0	30.2333	[0, 1, 2]	[0, 1, 2]	--	--	--	0.0	1.86857	client-B	--	--	--	0.0501049	0.483626	0.0665909	0.984135	0.0666008
2	0	False	13	0	0	4	1.0	0.25	-1.0	--	--	[0, 1, 2]	[0, 1, 2]	--	--	--	0.0	0.750617	client-B	--	--	--	0.0501116	0.500333	0.0999762	1.00079	0.110788
2	0	False	14	0	0	1	1.0	0.115	-1.0	--	--	[0, 1, 2]	[0, 1, 2]	--	--	--	0.0	1.73514	client-B	--	--	--	0.0500652	0.48364	0.0666064	0.984133	0.0665764
2	0	False	15	3	1	3	1.0	0.17	2.0	--	--	[0, 1, 2]	[0, 1, 2]	--	--	--	0.0	6.43928	client-B	--	--	--	0.0500776	0.483673	0.0665785	0.984115	0.066617
2	0	False	16	1	0	3	1.0	0.17	-1.0	--	--	[0, 1, 2]	[0, 1, 2]	--	--	--	0.0	1.75152	client-B	--	--	--	0.0332876	0.500323	0.0999875	1.00078	0.110805
2	0	False	17	1	1	1	1.0	0.115	-1.0	--	--	[0, 1, 2]	[0, 1, 2]	--	--	--	1.0	7.25668	client-B	--	--	--	0.0500822	0.483647	0.0666107	0.984093	0.0666117
2	0	False	18	0	0	1	1.0	0.115	-1.0	--	--	[0, 1, 2]	[0, 1, 2]	--	--	--	0.0	1.68512	client-B	--	--	--	0.0334147	0.483652	0.066599	0.984104	0.0666163
2	0	False	19	0	1	4	1.0	0.25	0.0	--	--	[0, 1, 2]	[0, 1, 2]	--	--	--	1.0	1.46827	client-B	--	--	--	0.0500868	0.483655	0.0666365	0.984077	0.0666011
2	0	False	20	2	1	2	1.0	0.135	-1.0	--	--	[0, 1, 2]	[0, 1, 2]	--	--	--	0.0	2.4691	client-B	--	--	--	0.0333641	0.500347	0.0999627	0.994616	0.066604
2	0	False	21	1	1	1	1.0	0.115	-1.0	--	--	[0, 1, 2]	[0, 1, 2]	--	--	--	0.0	3.83699	client-B	--	--	--	0.0333804	0.483664	0.0666227	0.984091	0.0666061
2	0	False	22	3	1	3	1.0	0.17	1.0	1.0	26.7969	[0, 1, 2]	[0, 1, 2]	--	--	--	1.0	1.66843	client-B	--	--	--	0.0500497	0.48366	0.0665965	0.98409	0.0665944
2	0	False	23	2	1	2	1.0	0.135	-1.0	--	--	[0, 1, 2]	[0, 1, 2]	--	--	--	0.0	2.81912	client-B	--	--	--	0.0333736	0.516998	0.100018	1.00074	0.110826
2	0	False	24	0	0	2	1.0	0.135	2.0	--	--	[0, 1, 2]	[0, 1, 2]	--	--	--	0.0	1.15127	client-B	--	--	--	0.0333867	0.483654	0.0666174	0.984061	0.0666549
2	0	False	25	0	0	2	1.0	0.135	-1.0	--	--	[0, 1, 2]	[0, 1, 2]	--	--	--	0.0	3.83706	client-B	--	--	--	0.0333782	0.500352	0.0771232	0.984087	0.0665799
2	0	False	26	0	1	4	1.0	0.25	0.0	--	--	[0, 1, 2]	[0, 1, 2]	--	--	--	1.0	1.31812	client-B	--	--	--	0.0500536	0.483644	0.0666008	0.984121	0.0666217
2	0	False	27	3	1	3	1.0	0.17	1.0	1.0	11.8443	[0, 1, 2]	[0, 1, 2]	--	--	--	1.0	2.31854	client-B	--	--	--	0.0334221	0.500309	0.099991	1.00077	0.0942894
2	0	False	28	1	1	1	1.0	0.115	2.0	--	--	[0, 1, 2]	[0, 1, 2]	--	--	--	1.0	1.8686	client-B	--	--	--	0.0500419	0.483654	0.0666029	0.984109	0.0666011
2	0	False	29	1	1	1	1.0	0.115	0.0	--	--	[0, 1, 2]	[0, 1, 2]	--	--	--	1.0	4.65441	client-B	--	--	--	0.0334642	0.500366	0.0999164	0.994599	0.0666001
2	0	False	30	0	0	4	1.0	0.25	-1.0	--	--	[0, 1, 2]	[0, 1, 2]	--	--	--	0.0	0.834378	client-B	--	--	--	0.0334526	0.500284	0.11082	0.983765	0.0666167
2	0	False	31	0	0	4	1.0	0.25	-1.0	--	--	[0, 1, 2]	[0, 1, 2]	--	--	--	0.0	0.717589	client-B	--	--	--	0.0333779	0.483638	0.0666245	0.984085	0.0666188
2	0	False	32	0	1	4	1.0	0.25	-1.0	--	--	[0, 1, 2]	[0, 1, 2]	--	--	--	1.0	1.38484	client-B	--	--	--	0.0333779	0.483635	0.0666128	0.984103	0.0665898
0	1	False	1	4	0	2	1.0	0.135	-1.0	--	--	[2, 0, 1]	[0, 1, 2]	0.0	1.2847	client-B	--	--	--	--	--	--	0.0500458	0.48361	0.0665852	0.984068	0.0665845
0	1	False	2	2	0	1	1.0	0.115	2.0	--	--	[2, 0, 1]	[0, 1, 2]	1.0	2.86959	client-B	--	--	--	--	--	--	0.0333966	0.483656	0.0665887	0.984105	0.0666071
0	1	False	3	2	0	1	1.0	0.115	0.0	1.0	6.65634	[2, 0, 1]	[0, 1, 2]	1.0	1.96871	client-B	--	--	--	--	--	--	0.0333666	0.500375	0.110791	0.983789	0.0666064
0	1	False	4	2	1	3	1.0	0.17	1.0	--	--	[2, 0, 1]	[0, 1, 2]	1.0	2.68598	client-B	--	--	--	--	--	--	0.050089	0.483634	0.0666362	0.984086	0.0666043
0	1	False	5	2	1	4	1.0	0.25	-1.0	--	--	[2, 0, 1]	[0, 1, 2]	1.0	1.36876	client-B	--	--	--	--	--	--	0.0667806	0.483652	0.0666263	0.984097	0.0666029
0	1	False	6	5	1	1	1.0	0.115	2.0	--	--	[2, 0, 1]	[0, 1, 2]	1.0	1.26807	client-B	--	--	--	--	--	--	0.0334154	0.483651	0.0666093	0.984078	0.0666393
0	1	False	7	5	0	3	1.0	0.17	0.0	0.0	5.77223	[2, 0, 1]	[0, 1, 2]	1.0	1.26772	client-B	--	--	--	--	--	--	0.0334635	0.50021	0.100004	1.0008	0.110797
0	1	False	8	0	0	4	1.0	0.25	-1.0	--	--	[2, 0, 1]	[0, 1, 2]	0.0	7.18998	client-B	--	--	--	--	--	--	0.0333623	0.48365	0.0666135	0.984095	0.0666273
0	1	False	9	4	0	2	1.0	0.135	1.0	--	--	[2, 0, 1]	[0, 1, 2]	0.0	1.63505	client-B	--	--	--	--	--	--	0.0667335	0.483649	0.0666047	0.984105	0.0666093
0	1	False	10	5	1	1	1.0	0.115	-1.0	--	--	[2, 0, 1]	[0, 1, 2]	0.0	2.5025	client-B	--	--	--	--	--	--	0.0333708	0.500315	0.0999935	0.994599	0.0666047
0	1	False	11	5	0	3	1.0	0.17	2.0	--	--	[2, 0, 1]	[0, 1, 2]	1.0	2.82503	client-B	--	--	--	--	--	--	0.0334069	0.483661	0.0666309	0.984098	0.0666135
0	1	False	12	2	1	3	1.0	0.17	-1.0	--	--	[2, 0, 1]	[0, 1, 2]	0.0	4.73779	client-B	--	--	--	--	--	--	0.0333765	0.500313	0.0938318	0.984079	0.0666309
0	1	False	13	4	1	2	1.0	0.135	0.0	0.0	26.7302	[2, 0, 1]	[0, 1, 2]	0.0	1.51833	client-B	--	--	--	--	--	--	0.0333889	0.48365	0.0666125	0.984077	0.0666121
0	1	False	14	2	0	1	1.0	0.115	1.0	--	--	[2, 0, 1]	[0, 1, 2]	1.0	1.81858	client-B	--	--	--	--	--	--	0.0333885	0.50034	0.0938283	0.984089	0.066599
0	1	False	15	2	0	1	1.0	0.115	-1.0	--	--	[2, 0, 1]	[0, 1, 2]	0.0	4.72116	client-B	--	--	--	--	--	--	0.0667788	0.483648	0.0666061	0.984117	0.0666125
0	1	False	16	4	1	2	1.0	0.135	2.0	--	--	[2, 0, 1]	[0, 1, 2]	0.0	1.50162	client-B	--	--	--	--	--	--	0.0333782	0.483647	0.0666227	0.984113	0.0666004
0	1	False	17	2	1	4	1.0	0.25	0.0	1.0	5.75615	[2, 0, 1]	[0, 1, 2]	0.0	2.6693	client-B	--	--	--	--	--	--	0.033449	0.500329	0.0999061	0.994635	0.0666064
0	1	False	18	5	1	1	1.0	0.115	1.0	--	--	[2, 0, 1]	[0, 1, 2]	0.0	1.535	client-B	--	--	--	--	--	--	0.0333754	0.500332	0.0942667	0.983658	0.066593
0	1	False	19	4	0	2	1.0	0.135	-1.0	--	--	[2, 0, 1]	[0, 1, 2]	0.0	1.51829	client-B	--	--	--	--	--	--	0.0333885	0.483661	0.0666033	0.984083	0.0666323
0	1	False	20	2	1	3	1.0	0.17	-1.0	--	--	[2, 0, 1]	[0, 1, 2]	1.0	1.25138	client-B	--	--	--	--	--	--	0.0334009	0.483651	0.0666263	0.984078	0.0666337
0	1	False	21	0	0	4	1.0	0.25	-1.0	--	--	[2, 0, 1]	[0, 1, 2]	0.0	1.21803	client-B	--	--	--	--	--	--	0.0500518	0.483653	0.066633	0.98408	0.0666386
0	1	False	22	2	1	4	1.0	0.25	2.0	--	--	[2, 0, 1]	[0, 1, 2]	1.0	2.43575	client-B	--	--	--	--	--	--	0.033415	0.483639	0.0666333	0.984096	0.0666231
0	1	False	23	2	1	4	1.0	0.25	0.0	1.0	10.7101	[2, 0, 1]	[0, 1, 2]	1.0	1.08458	client-B	--	--	--	--	--	--	0.0334016	0.500319	0.100009	1.01744	0.100009
0	1	False	24	5	0	3	1.0	0.17	-1.0	--	--	[2, 0, 1]	[0, 1, 2]	0.0	1.28473	client-B	--	--	--	--	--	--	0.0333871	0.500319	0.0938276	0.984085	0.066611
0	1	False	25	4	0	2	1.0	0.135	-1.0	--	--	[2, 0, 1]	[0, 1, 2]	0.0	1.5016	client-B	--	--	--	--	--	--	0.0334154	0.483637	0.0665916	0.984112	0.0666213
0	1	False	26	5	1	1	1.0	0.115	1.0	--	--	[2, 0, 1]	[0, 1, 2]	0.0	1.41819	client-B	--	--	--	--	--	--	0.0500882	0.483648	0.0666142	0.984097	0.0666075
0	1	False	27	4	1	2	1.0	0.135	2.0	--	--	[2, 0, 1]	[0, 1, 2]	1.0	4.38715	client-B	--	--	--	--	--	--	0.0334108	0.500328	0.0999666	1.00083	0.110784
0	1	False	28	0	0	4	1.0	0.25	-1.0	--	--	[2, 0, 1]	[0, 1, 2]	0.0	1.40148	client-B	--	--	--	--	--	--	0.0500875	0.483641	0.066634	0.984722	0.0665976
0	1	False	29	0	0	4	1.0	0.25	-1.0	--	--	[2, 0, 1]	[0, 1, 2]	0.0	1.36817	client-B	--	--	--	--	--	--	0.0333882	0.500332	0.0999705	0.994613	0.0666323
0	1	False	30	4	1	2	1.0	0.135	-1.0	--	--	[2, 0, 1]	[0, 1, 2]	0.0	1.40153	client-B	--	--	--	--	--	--	0.0334115	0.483648	0.0666188	0.984076	0.0666284
0	1	False	31	5	0	3	1.0	0.17	-1.0	--	--	[2, 0, 1]	[0, 1, 2]	0.0	1.21804	client-B	--	--	--	--	--	--	0.0334168	0.483641	0.0666011	0.984108	0.066605
0	1	False	32	2	1	3	1.0	0.17	0.0	1.0	17.2657	[2, 0, 1]	[0, 1, 2]	0.0	1.46824	client-B	--	--	--	--	--	--	0.033397	0.483662	0.0666167	0.984087	0.0665937
1	1	False	1	5	1	2	1.0	0.135	-1.0	--	--	[2, 0, 1]	[0, 1, 2]	0.0	1.98533	client-B	--	--	--	--	--	--	0.0500904	0.483573	0.0665923	0.984683	0.0665863
1	1	False	2	5	1	1	1.0	0.115	1.0	--	--	[2, 0, 1]	[0, 1, 2]	0.0	1.56832	client-B	--	--	--	--	--	--	0.0334221	0.500324	0.0771186	0.984104	0.0666277
1	1	False	3	5	1	2	1.0	0.135	2.0	--	--	[2, 0, 1]	[0, 1, 2]	0.0	1.76851	client-B	--	--	--	--	--	--	0.0334087	0.483638	0.066611	0.984111	0.0666117
1	1	False	4	1	1	4	1.0	0.25	0.0	1.0	15.8311	[2, 0, 1]	[0, 1, 2]	1.0	1.8686	client-B	--	--	--	--	--	--	0.0334327	0.500307	0.110813	0.983756	0.0665962
1	1	False	5	1	0	3	1.0	0.17	1.0	--	--	[2, 0, 1]	[0, 1, 2]	0.0	1.20135	client-B	--	--	--	--	--	--	0.0500805	0.483648	0.0666217	0.984093	0.0666054
1	1	False	6	3	1	3	1.0	0.17	-1.0	--	--	[2, 0, 1]	[0, 1, 2]	0.0	3.72641	client-B	--	--	--	--	--	--	0.0667798	0.483656	0.0666064	0.984089	0.066587
1	1	False	7	3	1	3	1.0	0.17	2.0	--	--	[2, 0, 1]	[0, 1, 2]	0.0	1.26808	client-B	--	--	--	--	--	--	0.0334253	0.500348	0.0942781	0.983633	0.0666043
1	1	False	8	4	0	2	1.0	0.135	0.0	0.0	11.8485	[2, 0, 1]	[0, 1, 2]	0.0	1.53499	client-B	--	--	--	--	--	--	0.0500829	0.483647	0.066622	0.984093	0.0666057
1	1	False	9	3	1	3	1.0	0.17	1.0	--	--	[2, 0, 1]	[0, 1, 2]	0.0	1.30111	client-B	--	--	--	--	--	--	0.0334069	0.50038	0.0998845	1.00089	0.110722
1	1	False	10	5	1	2	1.0	0.135	-1.0	--	--	[2, 0, 1]	[0, 1, 2]	1.0	6.07234	client-B	--	--	--	--	--	--	0.050089	0.483643	0.0666294	0.984093	0.0666001
1	1	False	11	3	0	1	1.0	0.115	2.0	--	--	[2, 0, 1]	[0, 1, 2]	0.0	1.8186	client-B	--	--	--	--	--	--	0.0667625	0.483649	0.0666057	0.984112	0.0665919
1	1	False	12	5	1	1	1.0	0.115	0.0	0.0	12.5282	[2, 0, 1]	[0, 1, 2]	0.0	3.053	client-B	--	--	--	--	--	--	0.033379	0.500327	0.110804	0.983789	0.0665887
1	1	False	13	4	0	2	1.0	0.135	-1.0	--	--	[2, 0, 1]	[0, 1, 2]	0.0	1.58502	client-B	--	--	--	--	--	--	0.0667749	0.483645	0.0666114	0.984123	0.0665965
1	1	False	14	5	1	1	1.0	0.115	1.0	--	--	[2, 0, 1]	[0, 1, 2]	1.0	1.40152	client-B	--	--	--	--	--	--	0.0334278	0.500423	0.0998396	0.99463	0.0665863
1	1	False	15	1	0	3	1.0	0.17	-1.0	--	--	[2, 0, 1]	[0, 1, 2]	0.0	1.15129	client-B	--	--	--	--	--	--	0.033409	0.48364	0.0666192	0.984093	0.06661
1	1	False	16	3	0	1	1.0	0.115	2.0	--	--	[2, 0, 1]	[0, 1, 2]	0.0	2.26894	client-B	--	--	--	--	--	--	0.0334094	0.483649	0.0666263	0.984095	0.0666167
1	1	False	17	5	1	1	1.0	0.115	-1.0	--	--	[2, 0, 1]	[0, 1, 2]	0.0	4.2374	client-B	--	--	--	--	--	--	0.0502645	0.500149	0.110809	0.983778	0.0666139
1	1	False	18	0	0	4	1.0	0.25	0.0	1.0	10.6766	[2, 0, 1]	[0, 1, 2]	1.0	2.28562	client-B	--	--	--	--	--	--	0.0334027	0.483657	0.0665976	0.984093	0.0666316
1	1	False	19	4	0	2	1.0	0.135	1.0	--	--	[2, 0, 1]	[0, 1, 2]	1.0	5.32164	client-B	--	--	--	--	--	--	0.0667636	0.483636	0.0666319	0.984083	0.0666213
1	1	False	20	1	1	4	1.0	0.25	2.0	--	--	[2, 0, 1]	[0, 1, 2]	0.0	1.4015	client-B	--	--	--	--	--	--	0.0334579	0.500286	0.0999634	0.994626	0.0666107
1	1	False	21	1	0	3	1.0	0.17	0.0	0.0	7.49038	[2, 0, 1]	[0, 1, 2]	1.0	1.56835	client-B	--	--	--	--	--	--	0.0500776	0.483653	0.0666209	0.984716	0.0665923
1	1	False	22	0	0	4	1.0	0.25	-1.0	--	--	[2, 0, 1]	[0, 1, 2]	0.0	1.36815	client-B	--	--	--	--	--	--	0.0333407	0.500329	0.100043	0.994562	0.0666093
1	1	False	23	1	0	3	1.0	0.17	-1.0	--	--	[2, 0, 1]	[0, 1, 2]	0.0	1.23474	client-B	--	--	--	--	--	--	0.0500886	0.483648	0.066604	0.984099	0.066599
1	1	False	24	0	0	4	1.0	0.25	-1.0	--	--	[2, 0, 1]	[0, 1, 2]	0.0	1.13461	client-B	--	--	--	--	--	--	0.0500946	0.483648	0.066616	0.984095	0.0666071
1	1	False	25	3	0	1	1.0	0.115	-1.0	--	--	[2, 0, 1]	[0, 1, 2]	0.0	1.85192	client-B	--	--	--	--	--	--	0.050096	0.48365	0.0665969	0.984111	0.0666089
1	1	False	26	1	1	4	1.0	0.25	-1.0	--	--	[2, 0, 1]	[0, 1, 2]	1.0	1.15133	client-B	--	--	--	--	--	--	0.0500928	0.483648	0.0666195	0.984101	0.0666178
1	1	False	27	3	0	1	1.0	0.115	1.0	--	--	[2, 0, 1]	[0, 1, 2]	0.0	1.41823	client-B	--	--	--	--	--	--	0.0334136	0.48364	0.0666309	0.984098	0.0666015
1	1	False	28	4	0	2	1.0	0.135	-1.0	--	--	[2, 0, 1]	[0, 1, 2]	0.0	2.08496	client-B	--	--	--	--	--	--	0.0333772	0.500308	0.100071	1.00071	0.0943138
1	1	False	29	0	0	4	1.0	0.25	2.0	--	--	[2, 0, 1]	[0, 1, 2]	0.0	1.06789	client-B	--	--	--	--	--	--	0.0500805	0.483643	0.0665792	0.984127	0.0666025
1	1	False	30	5	1	2	1.0	0.135	-1.0	--	--	[2, 0, 1]	[0, 1, 2]	0.0	1.86859	client-B	--	--	--	--	--	--	0.0500762	0.483654	0.0666185	0.984717	0.0666181
1	1	False	31	1	1	4	1.0	0.25	0.0	1.0	26.0401	[2, 0, 1]	[0, 1, 2]	0.0	5.73867	client-B	--	--	--	--	--	--	0.0333425	0.500306	0.110789	0.983804	0.0666015
1	1	False	32	3	1	3	1.0	0.17	-1.0	--	--	[2, 0, 1]	[0, 1, 2]	0.0	1.68512	client-B	--	--	--	--	--	--	0.0501006	0.483629	0.0666383	0.984095	0.0666309
2	1	False	1	3	0	3	1.0	0.17	-1.0	--	--	[2, 0, 1]	[0, 1, 2]	0.0	1.21802	client-B	--	--	--	--	--	--	0.0500497	0.505823	0.100011	0.994519	0.066582
2	1	False	2	5	1	2	1.0	0.135	-1.0	--	--	[2, 0, 1]	[0, 1, 2]	0.0	1.2681	client-B	--	--	--	--	--	--	0.0500897	0.483667	0.0665912	0.98412	0.0666086
2	1	False	3	4	1	1	1.0	0.115	1.0	--	--	[2, 0, 1]	[0, 1, 2]	0.0	1.7018	client-B	--	--	--	--	--	--	0.0500974	0.483653	0.0666107	0.984087	0.0666376
2	1	False	4	0	1	4	1.0	0.25	-1.0	--	--	[2, 0, 1]	[0, 1, 2]	1.0	1.93534	client-B	--	--	--	--	--	--	0.0333379	0.483664	0.0666022	0.98412	0.0666047
2	1	False	5	2	0	4	1.0	0.25	2.0	--	--	[2, 0, 1]	[0, 1, 2]	0.0	1.15128	client-B	--	--	--	--	--	--	0.0334027	0.483647	0.0666192	0.984107	0.0666107
2	1	False	6	0	0	1	1.0	0.115	-1.0	--	--	[2, 0, 1]	[0, 1, 2]	0.0	1.36821	client-B	--	--	--	--	--	--	0.0334391	0.500246	0.0771445	0.984089	0.0666217
2	1	False	7	4	1	1	1.0	0.115	0.0	0.0	17.4659	[2, 0, 1]	[0, 1, 2]	0.0	1.20136	client-B	--	--	--	--	--	--	0.050084	0.483622	0.0666393	0.984112	0.0665944
2	1	False	8	0	0	2	1.0	0.135	1.0	--	--	[2, 0, 1]	[0, 1, 2]	0.0	1.96871	client-B	--	--	--	--	--	--	0.0500787	0.483654	0.0665933	0.984114	0.06661
2	1	False	9	4	1	1	1.0	0.115	2.0	--	--	[2, 0, 1]	[0, 1, 2]	0.0	0.984472	client-B	--	--	--	--	--	--	0.0333358	0.500369	0.099938	1.00083	0.110469
2	1	False	10	0	0	2	1.0	0.135	-1.0	--	--	[2, 0, 1]	[0, 1, 2]	0.0	2.59289	client-B	--	--	--	--	--	--	0.0333899	0.48429	0.0665983	0.984128	0.0666018
2	1	False	11	2	0	4	1.0	0.25	-1.0	--	--	[2, 0, 1]	[0, 1, 2]	0.0	1.10126	client-B	--	--	--	--	--	--	0.0333457	0.500317	0.099967	0.994627	0.0666078
2	1	False	12	5	1	3	1.0	0.17	0.0	0.0	5.43859	[2, 0, 1]	[0, 1, 2]	1.0	3.60344	client-B	--	--	--	--	--	--	0.0334225	0.483638	0.0666089	0.984116	0.0666075
2	1	False	13	4	1	1	1.0	0.115	1.0	--	--	[2, 0, 1]	[0, 1, 2]	0.0	6.18915	client-B	--	--	--	--	--	--	0.0500557	0.483663	0.0666089	0.984101	0.0666135
2	1	False	14	0	0	2	1.0	0.135	2.0	--	--	[2, 0, 1]	[0, 1, 2]	0.0	1.45158	client-B	--	--	--	--	--	--	0.0335251	0.500288	0.0999096	0.994601	0.0666181
2	1	False	15	5	1	2	1.0	0.135	-1.0	--	--	[2, 0, 1]	[0, 1, 2]	0.0	8.4744	client-B	--	--	--	--	--	--	0.0333889	0.483657	0.066604	0.984098	0.0666156
2	1	False	16	0	0	1	1.0	0.115	0.0	0.0	5.97237	[2, 0, 1]	[0, 1, 2]	0.0	1.45161	client-B	--	--	--	--	--	--	0.0333559	0.483671	0.0665948	0.984112	0.0665824
2	1	False	17	5	1	2	1.0	0.135	1.0	--	--	[2, 0, 1]	[0, 1, 2]	0.0	1.80187	client-B	--	--	--	--	--	--	0.0500776	0.483646	0.0666432	0.984088	0.0666146
2	1	False	18	0	1	4	1.0	0.25	2.0	--	--	[2, 0, 1]	[0, 1, 2]	0.0	2.15221	client-B	--	--	--	--	--	--	0.050135	0.500313	0.0999397	0.994616	0.0666146
2	1	False	19	3	0	3	1.0	0.17	0.0	0.0	7.09622	[2, 0, 1]	[0, 1, 2]	1.0	3.92044	client-B	--	--	--	--	--	--	0.0334143	0.483655	0.0665887	0.984114	0.066588
2	1	False	20	0	1	4	1.0	0.25	1.0	--	--	[2, 0, 1]	[0, 1, 2]	0.0	2.43584	client-B	--	--	--	--	--	--	0.0333906	0.500343	0.0999939	0.994609	0.0665647
2	1	False	21	0	0	1	1.0	0.115	2.0	--	--	[2, 0, 1]	[0, 1, 2]	0.0	7.85722	client-B	--	--	--	--	--	--	0.0500815	0.483619	0.0666135	0.984098	0.0666202
2	1	False	22	2	0	4	1.0	0.25	-1.0	--	--	[2, 0, 1]	[0, 1, 2]	0.0	2.48582	client-B	--	--	--	--	--	--	0.0335389	0.500196	0.0942742	0.983608	0.0666167
2	1	False	23	5	1	2	1.0	0.135	0.0	1.0	6.52289	[2, 0, 1]	[0, 1, 2]	0.0	2.00206	client-B	--	--	--	--	--	--	0.0334112	0.483659	0.0666142	0.984104	0.0666068
2	1	False	24	3	0	3	1.0	0.17	-1.0	--	--	[2, 0, 1]	[0, 1, 2]	0.0	1.41826	client-B	--	--	--	--	--	--	0.0500886	0.483624	0.0666181	0.984103	0.0666213
2	1	False	25	2	0	4	1.0	0.25	-1.0	--	--	[2, 0, 1]	[0, 1, 2]	0.0	3.16973	client-B	--	--	--	--	--	--	0.0333811	0.483666	0.0665887	0.984106	0.0666125
2	1	False	26	3	0	3	1.0	0.17	1.0	--	--	[2, 0, 1]	[0, 1, 2]	0.0	1.50162	client-B	--	--	--	--	--	--	0.0500907	0.483635	0.0666344	0.984075	0.066622
2	1	False	27	5	1	3	1.0	0.17	2.0	--	--	[2, 0, 1]	[0, 1, 2]	0.0	1.45155	client-B	--	--	--	--	--	--	0.0500256	0.500307	0.100074	0.994535	0.0666259
2	1	False	28	5	1	3	1.0	0.17	0.0	1.0	8.47457	[2, 0, 1]	[0, 1, 2]	0.0	1.48489	client-B	--	--	--	--	--	--	0.0333811	0.48367	0.0666093	0.984083	0.066656
2	1	False	29	0	1	4	1.0	0.25	1.0	--	--	[2, 0, 1]	[0, 1, 2]	0.0	2.38572	client-B	--	--	--	--	--	--	0.0500918	0.483659	0.06661	0.984127	0.0665848
2	1	False	30	0	0	1	1.0	0.115	-1.0	--	--	[2, 0, 1]	[0, 1, 2]	0.0	1.9014	client-B	--	--	--	--	--	--	0.0501318	0.500326	0.0999705	1.00077	0.094352
2	1	False	31	0	0	2	1.0	0.135	-1.0	--	--	[2, 0, 1]	[0, 1, 2]	0.0	1.38483	client-B	--	--	--	--	--	--	0.0333878	0.483658	0.0666192	0.984081	0.0666163
2	1	False	32	5	1	3	1.0	0.17	-1.0	--	--	[2, 0, 1]	[0, 1, 2]	1.0	3.08631	client-B	--	--	--	--	--	--	0.0500904	0.483658	0.0666011	0.9841	0.0666206
0	2	False	1	3	1	1	1.0	0.115	1.0	--	--	[1, 2, 0]	[0, 1, 2]	--	--	--	--	--	--	1.0	4.85455	client-B	0.0500415	0.483603	0.0665686	0.984072	0.0665675
0	2	False	2	4	0	1	1.0	0.115	2.0	1.0	7.47366	[1, 2, 0]	[0, 1, 2]	--	--	--	--	--	--	1.0	1.40157	client-B	0.033409	0.48366	0.0665887	0.984696	0.0666078
0	2	False	3	1	0	3	1.0	0.17	0.0	--	--	[1, 2, 0]	[0, 1, 2]	--	--	--	--	--	--	1.0	1.15126	client-B	0.0500362	0.500324	0.0999596	0.994621	0.0666174
0	2	False	4	0	0	2	1.0	0.135	1.0	--	--	[1, 2, 0]	[0, 1, 2]	--	--	--	--	--	--	1.0	0.88441	client-B	0.0334197	0.483652	0.0665877	0.984112	0.0666163
0	2	False	5	4	0	1	1.0	0.115	-1.0	--	--	[1, 2, 0]	[0, 1, 2]	--	--	--	--	--	--	0.0	1.2347	client-B	0.0334101	0.500307	0.0999946	0.994608	0.0666061
0	2	False	6	3	1	1	1.0	0.115	2.0	0.0	40.3422	[1, 2, 0]	[0, 1, 2]	--	--	--	--	--	--	1.0	0.567442	client-B	0.0334048	0.483672	0.0665852	0.984105	0.0665831
0	2	False	7	4	1	4	1.0	0.25	0.0	--	--	[1, 2, 0]	[0, 1, 2]	--	--	--	--	--	--	1.0	1.26804	client-B	0.0501318	0.500299	0.100005	0.994574	0.0666259
0	2	False	8	3	1	1	1.0	0.115	1.0	--	--	[1, 2, 0]	[0, 1, 2]	--	--	--	--	--	--	1.0	0.934456	client-B	0.0334136	0.484271	0.0665714	0.984122	0.0666029
0	2	False	9	3	1	2	1.0	0.135	2.0	1.0	10.5264	[1, 2, 0]	[0, 1, 2]	--	--	--	--	--	--	1.0	2.70267	client-B	0.0332572	0.500364	0.0942491	0.983648	0.0665955
0	2	False	10	0	0	2	1.0	0.135	0.0	--	--	[1, 2, 0]	[0, 1, 2]	--	--	--	--	--	--	1.0	1.43488	client-B	0.0500748	0.483647	0.066622	0.984094	0.0665933
0	2	False	11	3	1	2	1.0	0.135	1.0	--	--	[1, 2, 0]	[0, 1, 2]	--	--	--	--	--	--	1.0	0.817656	client-B	0.0501144	0.500303	0.0999712	0.994589	0.0666578
0	2	False	12	4	0	1	1.0	0.115	2.0	1.0	21.6925	[1, 2, 0]	[0, 1, 2]	--	--	--	--	--	--	1.0	0.567428	client-B	0.0334023	0.483661	0.0665986	0.984107	0.0666146
0	2	False	13	4	1	4	1.0	0.25	0.0	--	--	[1, 2, 0]	[0, 1, 2]	--	--	--	--	--	--	1.0	1.98535	client-B	0.0335042	0.500211	0.0999571	0.994626	0.0666128
0	2	False	14	0	0	2	1.0	0.135	1.0	--	--	[1, 2, 0]	[0, 1, 2]	--	--	--	--	--	--	0.0	2.26895	client-B	0.0334147	0.483632	0.066627	0.984098	0.0666231
0	2	False	15	3	1	1	1.0	0.115	-1.0	--	--	[1, 2, 0]	[0, 1, 2]	--	--	--	--	--	--	0.0	0.884395	client-B	0.0333542	0.500421	0.0999022	0.994619	0.066622
0	2	False	16	4	0	1	1.0	0.115	2.0	0.0	9.0751	[1, 2, 0]	[0, 1, 2]	--	--	--	--	--	--	0.0	0.767601	client-B	0.0334207	0.500325	0.0666061	0.984105	0.0666195
0	2	False	17	4	1	4	1.0	0.25	0.0	--	--	[1, 2, 0]	[0, 1, 2]	--	--	--	--	--	--	0.0	3.93707	client-B	0.0500904	0.483644	0.0666213	0.984093	0.0666238
0	2	False	18	4	1	3	1.0	0.17	1.0	--	--	[1, 2, 0]	[0, 1, 2]	--	--	--	--	--	--	0.0	1.46823	client-B	0.0333319	0.500368	0.0999373	1.00082	0.110438
0	2	False	19	1	0	3	1.0	0.17	-1.0	--	--	[1, 2, 0]	[0, 1, 2]	--	--	--	--	--	--	0.0	1.95199	client-B	0.0334143	0.483648	0.0666029	0.984098	0.06661
0	2	False	20	4	1	3	1.0	0.17	2.0	0.0	16.2376	[1, 2, 0]	[0, 1, 2]	--	--	--	--	--	--	0.0	1.36818	client-B	0.0500904	0.483656	0.0666309	0.984092	0.0666025
0	2	False	21	4	1	3	1.0	0.17	0.0	--	--	[1, 2, 0]	[0, 1, 2]	--	--	--	--	--	--	0.0	2.33569	client-B	0.033409	0.500306	0.0999596	0.994621	0.0666202
0	2	False	22	1	0	3	1.0	0.17	-1.0	--	--	[1, 2, 0]	[0, 1, 2]	--	--	--	--	--	--	0.0	1.06795	client-B	0.0334087	0.483639	0.0666132	0.984115	0.0666054
0	2	False	23	3	0	4	1.0	0.25	1.0	--	--	[1, 2, 0]	[0, 1, 2]	--	--	--	--	--	--	1.0	3.00293	client-B	0.0334182	0.483633	0.0666153	0.984121	0.0666043
0	2	False	24	1	0	3	1.0	0.17	-1.0	--	--	[1, 2, 0]	[0, 1, 2]	--	--	--	--	--	--	0.0	0.817675	client-B	0.0334526	0.500314	0.0771395	0.984089	0.0665972
0	2	False	25	3	1	2	1.0	0.135	2.0	0.0	8.9917	[1, 2, 0]	[0, 1, 2]	--	--	--	--	--	--	0.0	1.76851	client-B	0.0333952	0.48363	0.0666362	0.984107	0.0666298
0	2	False	26	3	0	4	1.0	0.25	-1.0	--	--	[1, 2, 0]	[0, 1, 2]	--	--	--	--	--	--	0.0	1.31814	client-B	0.0500854	0.483636	0.0665958	0.984118	0.0665884
0	2	False	27	3	0	4	1.0	0.25	-1.0	--	--	[1, 2, 0]	[0, 1, 2]	--	--	--	--	--	--	0.0	0.784298	client-B	0.033409	0.483649	0.0666163	0.984098	0.0666209
0	2	False	28	3	0	4	1.0	0.25	-1.0	--	--	[1, 2, 0]	[0, 1, 2]	--	--	--	--	--	--	0.0	0.383966	client-B	0.0334087	0.483648	0.0666174	0.984103	0.0665976
0	2	False	29	4	1	4	1.0	0.25	0.0	--	--	[1, 2, 0]	[0, 1, 2]	--	--	--	--	--	--	0.0	0.767639	client-B	0.0500865	0.483651	0.0666075	0.984098	0.0666362
0	2	False	30	4	1	3	1.0	0.17	1.0	--	--	[1, 2, 0]	[0, 1, 2]	--	--	--	--	--	--	0.0	0.884392	client-B	0.0334703	0.50022	0.100044	0.994518	0.0666369
0	2	False	31	3	1	2	1.0	0.135	2.0	0.0	22.0866	[1, 2, 0]	[0, 1, 2]	--	--	--	--	--	--	1.0	1.16799	client-B	0.0334126	0.483625	0.0666347	0.984097	0.0666064
0	2	False	32	0	0	2	1.0	0.135	0.0	--	--	[1, 2, 0]	[0, 1, 2]	--	--	--	--	--	--	0.0	1.48493	client-B	0.0334058	0.500323	0.0999872	0.994621	0.0666011
1	2	False	1	0	1	4	1.0	0.25	1.0	--	--	[1, 2, 0]	[0, 1, 2]	--	--	--	--	--	--	0.0	1.01781	client-B	0.0500224	0.483616	0.0666008	0.984678	0.0665739
1	2	False	2	4	0	1	1.0	0.115	2.0	0.0	13.7125	[1, 2, 0]	[0, 1, 2]	--	--	--	--	--	--	0.0	0.817686	client-B	0.0333825	0.500389	0.0999351	0.99462	0.066599
1	2	False	3	4	0	1	1.0	0.115	0.0	--	--	[1, 2, 0]	[0, 1, 2]	--	--	--	--	--	--	0.0	1.13462	client-B	0.0333782	0.483657	0.0666089	0.98408	0.0666163
1	2	False	4	0	1	1	1.0	0.115	1.0	--	--	[1, 2, 0]	[0, 1, 2]	--	--	--	--	--	--	0.0	1.03455	client-B	0.0333595	0.483665	0.0666149	0.984716	0.0666057
1	2	False	5	1	0	3	1.0	0.17	-1.0	--	--	[1, 2, 0]	[0, 1, 2]	--	--	--	--	--	--	0.0	0.633714	client-B	0.0333832	0.500336	0.0999479	1.00079	0.0943127
1	2	False	6	1	0	3	1.0	0.17	-1.0	--	--	[1, 2, 0]	[0, 1, 2]	--	--	--	--	--	--	0.0	0.43409	client-B	0.033369	0.483647	0.066616	0.984115	0.0666008
1	2	False	7	0	0	4	1.0	0.25	-1.0	--	--	[1, 2, 0]	[0, 1, 2]	--	--	--	--	--	--	0.0	1.31813	client-B	0.0500596	0.483656	0.0666174	0.984071	0.066622
1	2	False	8	2	1	2	1.0	0.135	2.0	1.0	6.97952	[1, 2, 0]	[0, 1, 2]	--	--	--	--	--	--	1.0	0.851014	client-B	0.0333882	0.483653	0.0666107	0.984103	0.0666125
1	2	False	9	0	1	4	1.0	0.25	0.0	--	--	[1, 2, 0]	[0, 1, 2]	--	--	--	--	--	--	0.0	1.23413	client-B	0.033385	0.500295	0.100008	1.00077	0.0943524
1	2	False	10	0	1	1	1.0	0.115	-1.0	--	--	[1, 2, 0]	[0, 1, 2]	--	--	--	--	--	--	0.0	0.851097	client-B	0.0333871	0.483662	0.0666255	0.98407	0.0665944
1	2	False	11	5	0	2	1.0	0.135	1.0	--	--	[1, 2, 0]	[0, 1, 2]	--	--	--	--	--	--	0.0	2.35235	client-B	0.0333705	0.483662	0.0665919	0.984112	0.0666075
1	2	False	12	4	0	1	1.0	0.115	2.0	0.0	13.9962	[1, 2, 0]	[0, 1, 2]	--	--	--	--	--	--	1.0	0.750961	client-B	0.0332183	0.500355	0.0999549	0.994601	0.0666156
1	2	False	13	0	0	4	1.0	0.25	-1.0	--	--	[1, 2, 0]	[0, 1, 2]	--	--	--	--	--	--	0.0	0.750944	client-B	0.0500674	0.483639	0.0666011	0.984106	0.0666213
1	2	False	14	2	1	2	1.0	0.135	-1.0	--	--	[1, 2, 0]	[0, 1, 2]	--	--	--	--	--	--	0.0	1.23469	client-B	0.0500851	0.48365	0.0666054	0.984104	0.066611
1	2	False	15	5	1	3	1.0	0.17	0.0	--	--	[1, 2, 0]	[0, 1, 2]	--	--	--	--	--	--	0.0	2.00204	client-B	0.0500412	0.483659	0.0666117	0.9841	0.0666001
1	2	False	16	0	0	4	1.0	0.25	1.0	--	--	[1, 2, 0]	[0, 1, 2]	--	--	--	--	--	--	1.0	6.78959	client-B	0.0332922	0.500337	0.0999772	0.994613	0.0665983
1	2	False	17	2	1	2	1.0	0.135	2.0	1.0	13.4463	[1, 2, 0]	[0, 1, 2]	--	--	--	--	--	--	1.0	0.934435	client-B	0.0333843	0.483627	0.0666291	0.98408	0.0666337
1	2	False	18	0	1	4	1.0	0.25	-1.0	--	--	[1, 2, 0]	[0, 1, 2]	--	--	--	--	--	--	1.0	1.20132	client-B	0.0501374	0.500303	0.0771289	0.984078	0.0666167
1	2	False	19	1	0	3	1.0	0.17	0.0	--	--	[1, 2, 0]	[0, 1, 2]	--	--	--	--	--	--	1.0	0.68425	client-B	0.0333949	0.483645	0.0666206	0.984091	0.0666125
1	2	False	20	4	0	1	1.0	0.115	1.0	--	--	[1, 2, 0]	[0, 1, 2]	--	--	--	--	--	--	1.0	3.0363	client-B	0.0334133	0.483621	0.0666443	0.984088	0.0666107
1	2	False	21	0	1	4	1.0	0.25	2.0	0.0	16.8327	[1, 2, 0]	[0, 1, 2]	--	--	--	--	--	--	0.0	0.817702	client-B	0.0335117	0.500238	0.110816	0.983773	0.066587
1	2	False	22	5	0	2	1.0	0.135	-1.0	--	--	[1, 2, 0]	[0, 1, 2]	--	--	--	--	--	--	0.0	1.28476	client-B	0.0889976	0.500331	0.100111	0.994452	0.0666213
1	2	False	23	0	1	1	1.0	0.115	0.0	--	--	[1, 2, 0]	[0, 1, 2]	--	--	--	--	--	--	0.0	0.767643	client-B	0.0334168	0.483657	0.0665997	0.984107	0.0666227
1	2	False	24	5	1	3	1.0	0.17	1.0	--	--	[1, 2, 0]	[0, 1, 2]	--	--	--	--	--	--	1.0	3.06971	client-B	0.0334264	0.483637	0.0666167	0.984086	0.0665997
1	2	False	25	2	1	2	1.0	0.135	-1.0	--	--	[1, 2, 0]	[0, 1, 2]	--	--	--	--	--	--	0.0	1.20136	client-B	0.0333605	0.50047	0.0941224	0.983642	0.0666156
1	2	False	26	5	0	2	1.0	0.135	-1.0	--	--	[1, 2, 0]	[0, 1, 2]	--	--	--	--	--	--	0.0	0.784311	client-B	0.0333821	0.483636	0.0666146	0.984098	0.0666206
1	2	False	27	0	1	1	1.0	0.115	-1.0	--	--	[1, 2, 0]	[0, 1, 2]	--	--	--	--	--	--	1.0	2.1355	client-B	0.0333697	0.483622	0.0665976	0.984131	0.0666231
1	2	False	28	5	1	3	1.0	0.17	2.0	1.0	6.18924	[1, 2, 0]	[0, 1, 2]	--	--	--	--	--	--	1.0	2.41906	client-B	0.0334009	0.483659	0.0666075	0.984105	0.066594
1	2	False	29	1	0	3	1.0	0.17	-1.0	--	--	[1, 2, 0]	[0, 1, 2]	--	--	--	--	--	--	0.0	0.800996	client-B	0.0667271	0.48429	0.0666248	0.984066	0.0666372
1	2	False	30	5	1	3	1.0	0.17	-1.0	--	--	[1, 2, 0]	[0, 1, 2]	--	--	--	--	--	--	0.0	0.867695	client-B	0.0334703	0.500311	0.100096	0.994465	0.0666174
1	2	False	31	5	0	2	1.0	0.135	0.0	--	--	[1, 2, 0]	[0, 1, 2]	--	--	--	--	--	--	1.0	0.48404	client-B	0.0333613	0.483661	0.0666125	0.984104	0.066611
1	2	False	32	0	0	4	1.0	0.25	1.0	--	--	[1, 2, 0]	[0, 1, 2]	--	--	--	--	--	--	0.0	0.967814	client-B	0.0333878	0.483639	0.0666199	0.984111	0.0666185
2	2	False	1	0	1	1	1.0	0.115	-1.0	--	--	[1, 2, 0]	[0, 1, 2]	--	--	--	--	--	--	0.0	1.08454	client-B	0.0500628	0.483593	0.0665926	0.984066	0.0665781
2	2	False	2	0	1	1	1.0	0.115	2.0	0.0	10.7099	[1, 2, 0]	[0, 1, 2]	--	--	--	--	--	--	0.0	0.834364	client-B	0.0500759	0.483646	0.0666383	0.984089	0.066616
2	2	False	3	1	1	2	1.0	0.135	0.0	--	--	[1, 2, 0]	[0, 1, 2]	--	--	--	--	--	--	0.0	1.21809	client-B	0.0333439	0.500333	0.099985	0.994595	0.0665965
2	2	False	4	4	1	4	1.0	0.25	1.0	--	--	[1, 2, 0]	[0, 1, 2]	--	--	--	--	--	--	0.0	1.15129	client-B	0.0333683	0.483671	0.0666163	0.984097	0.0666075
2	2	False	5	5	0	3	1.0	0.17	2.0	0.0	17.7662	[1, 2, 0]	[0, 1, 2]	--	--	--	--	--	--	0.0	1.78518	client-B	0.0334055	0.500441	0.0998725	0.994636	0.0666093
2	2	False	6	1	1	2	1.0	0.135	0.0	--	--	[1, 2, 0]	[0, 1, 2]	--	--	--	--	--	--	0.0	0.96783	client-B	0.0500925	0.483654	0.0665937	0.984109	0.0666135
2	2	False	7	0	1	1	1.0	0.115	1.0	--	--	[1, 2, 0]	[0, 1, 2]	--	--	--	--	--	--	0.0	0.967833	client-B	0.0500936	0.483614	0.0666461	0.984103	0.0666125
2	2	False	8	4	1	4	1.0	0.25	-1.0	--	--	[1, 2, 0]	[0, 1, 2]	--	--	--	--	--	--	1.0	2.55254	client-B	0.0333524	0.500353	0.099973	0.994595	0.0666238
2	2	False	9	0	1	1	1.0	0.115	2.0	1.0	11.8338	[1, 2, 0]	[0, 1, 2]	--	--	--	--	--	--	1.0	1.60171	client-B	0.033391	0.483645	0.0666156	0.984106	0.0666036
2	2	False	10	1	1	2	1.0	0.135	0.0	--	--	[1, 2, 0]	[0, 1, 2]	--	--	--	--	--	--	0.0	1.55163	client-B	0.0500288	0.500503	0.111655	0.999476	0.0666107
2	2	False	11	5	0	4	1.0	0.25	-1.0	--	--	[1, 2, 0]	[0, 1, 2]	--	--	--	--	--	--	0.0	0.967799	client-B	0.0333726	0.483658	0.0665838	0.984103	0.0666355
2	2	False	12	1	1	2	1.0	0.135	1.0	--	--	[1, 2, 0]	[0, 1, 2]	--	--	--	--	--	--	0.0	0.584257	client-B	0.0333832	0.483638	0.066593	0.984137	0.0666117
2	2	False	13	5	0	3	1.0	0.17	2.0	0.0	10.493	[1, 2, 0]	[0, 1, 2]	--	--	--	--	--	--	1.0	4.92131	client-B	0.0334494	0.500314	0.110792	0.983777	0.0665958
2	2	False	14	4	1	4	1.0	0.25	-1.0	--	--	[1, 2, 0]	[0, 1, 2]	--	--	--	--	--	--	1.0	1.20137	client-B	0.0500858	0.483647	0.0666185	0.984071	0.0666033
2	2	False	15	1	1	3	1.0	0.17	0.0	--	--	[1, 2, 0]	[0, 1, 2]	--	--	--	--	--	--	0.0	2.58589	client-B	0.0333687	0.483647	0.066627	0.984093	0.0665873
2	2	False	16	5	0	4	1.0	0.25	1.0	--	--	[1, 2, 0]	[0, 1, 2]	--	--	--	--	--	--	0.0	0.700907	client-B	0.033414	0.483648	0.0666192	0.984106	0.0666114
2	2	False	17	5	0	1	1.0	0.115	2.0	1.0	17.299	[1, 2, 0]	[0, 1, 2]	--	--	--	--	--	--	1.0	1.90193	client-B	0.0333358	0.500411	0.0998739	0.994632	0.0666089
2	2	False	18	4	0	2	1.0	0.135	-1.0	--	--	[1, 2, 0]	[0, 1, 2]	--	--	--	--	--	--	0.0	0.884403	client-B	0.0500953	0.483648	0.0666001	0.984112	0.0665852
2	2	False	19	5	0	3	1.0	0.17	0.0	--	--	[1, 2, 0]	[0, 1, 2]	--	--	--	--	--	--	1.0	1.33483	client-B	0.0500546	0.483641	0.0666135	0.984107	0.0666057
2	2	False	20	5	0	1	1.0	0.115	-1.0	--	--	[1, 2, 0]	[0, 1, 2]	--	--	--	--	--	--	0.0	0.416992	client-B	0.033391	0.500309	0.0999925	1.00079	0.110764
2	2	False	21	1	1	3	1.0	0.17	1.0	--	--	[1, 2, 0]	[0, 1, 2]	--	--	--	--	--	--	0.0	2.86949	client-B	0.0333772	0.483653	0.0666125	0.984098	0.0666277
2	2	False	22	5	0	1	1.0	0.115	2.0	1.0	13.2795	[1, 2, 0]	[0, 1, 2]	--	--	--	--	--	--	0.0	0.884402	client-B	0.0334009	0.483647	0.0666287	0.984097	0.0665979
2	2	False	23	1	1	3	1.0	0.17	0.0	--	--	[1, 2, 0]	[0, 1, 2]	--	--	--	--	--	--	1.0	4.50427	client-B	0.0667261	0.505899	0.0942558	0.983651	0.0665951
2	2	False	24	5	0	4	1.0	0.25	1.0	--	--	[1, 2, 0]	[0, 1, 2]	--	--	--	--	--	--	0.0	1.41818	client-B	0.0500504	0.483653	0.0666153	0.984106	0.0666043
2	2	False	25	4	0	2	1.0	0.135	-1.0	--	--	[1, 2, 0]	[0, 1, 2]	--	--	--	--	--	--	0.0	0.417317	client-B	0.0334232	0.483648	0.0666093	0.984095	0.066611
2	2	False	26	5	0	4	1.0	0.25	-1.0	--	--	[1, 2, 0]	[0, 1, 2]	--	--	--	--	--	--	0.0	0.500696	client-B	0.050067	0.483657	0.0666043	0.984106	0.066616
2	2	False	27	5	0	3	1.0	0.17	2.0	1.0	7.60712	[1, 2, 0]	[0, 1, 2]	--	--	--	--	--	--	1.0	2.20221	client-B	0.0500815	0.483661	0.0666139	0.98409	0.066628
2	2	False	28	4	1	4	1.0	0.25	-1.0	--	--	[1, 2, 0]	[0, 1, 2]	--	--	--	--	--	--	1.0	1.45159	client-B	0.0333043	0.500313	0.100031	0.994566	0.0665912
2	2	False	29	5	0	1	1.0	0.115	0.0	--	--	[1, 2, 0]	[0, 1, 2]	--	--	--	--	--	--	1.0	3.00293	client-B	0.050079	0.483645	0.0666185	0.984098	0.0666178
2	2	False	30	1	1	3	1.0	0.17	1.0	--	--	[1, 2, 0]	[0, 1, 2]	--	--	--	--	--	--	1.0	1.33481	client-B	0.0500532	0.483641	0.0666206	0.984079	0.0666273
2	2	False	31	4	0	2	1.0	0.135	2.0	1.0	11.1269	[1, 2, 0]	[0, 1, 2]	--	--	--	--	--	--	1.0	3.85923	client-B	0.0500518	0.484265	0.0665806	0.984127	0.0665682
2	2	False	32	4	0	2	1.0	0.135	-1.0	--	--	[1, 2, 0]	[0, 1, 2]	--	--	--	--	--	--	0.0	2.38573	client-B	0.0334359	0.500311	0.110818	0.983766	0.0666093
