subblock_no	block_no	practice	TrialNumber	target_pos	target_screen_nr	contrast_idx	ran	contrast	group_dec_maker	group_dec	group_dec_rt	participants	feedback_texts_order	0_indiv_dec	0_indiv_dec_rt	0_client	1_indiv_dec	1_indiv_dec_rt	1_client	2_indiv_dec	2_indiv_dec_rt	2_client	trial_wait.duration	fixation.duration	stim1.duration	blank_between.duration	stim2.duration
0	0	True	1	1	1	2	1.0	0.135	-1.0	--	--	[0, 1, 2]	[0, 1, 2]	--	--	--	0.0	53.5868	client-B	--	--	--	0.0501742	0.520908	0.0730453	0.984059	0.0665813
0	0	True	2	4	0	3	1.0	0.17	0.0	--	--	[0, 1, 2]	[0, 1, 2]	--	--	--	0.0	18.9732	client-B	--	--	--	0.0500391	0.500345	0.100002	1.00073	0.110512
0	0	True	3	3	0	2	1.0	0.135	1.0	0.0	13.6792	[0, 1, 2]	[0, 1, 2]	--	--	--	0.0	39.8582	client-B	--	--	--	0.0333874	0.500469	0.0937019	0.984068	0.0666238
0	0	True	4	2	1	3	1.0	0.17	-1.0	--	--	[0, 1, 2]	[0, 1, 2]	--	--	--	0.0	63.3955	client-B	--	--	--	0.0500444	0.500332	0.0999691	0.994613	0.0666202
0	0	True	5	3	0	1	1.0	0.115	2.0	--	--	[0, 1, 2]	[0, 1, 2]	--	--	--	1.0	2.41975	client-B	--	--	--	0.0500713	0.500318	0.0999762	0.994627	0.0666195
0	0	True	6	5	0	4	1.0	0.25	-1.0	--	--	[0, 1, 2]	[0, 1, 2]	--	--	--	0.0	78.3754	client-B	--	--	--	0.0333899	0.50029	0.0999797	0.994623	0.0666174
0	0	True	7	0	1	4	1.0	0.25	-1.0	--	--	[0, 1, 2]	[0, 1, 2]	--	--	--	0.0	11.6334	client-B	--	--	--	0.0333963	0.50032	0.0771448	0.984081	0.0666227
0	0	True	8	5	1	1	1.0	0.115	-1.0	--	--	[0, 1, 2]	[0, 1, 2]	--	--	--	0.0	11.7273	client-B	--	--	--	0.0335127	0.500186	0.0944101	0.983501	0.0666227
0	0	False	1	1	1	4	1.0	0.25	-1.0	--	--	[0, 1, 2]	[0, 1, 2]	--	--	--	1.0	4.16014	client-B	--	--	--	0.0334076	0.50028	0.0943053	0.983532	0.0665866
0	0	False	2	2	1	1	1.0	0.115	0.0	--	--	[0, 1, 2]	[0, 1, 2]	--	--	--	1.0	4.17065	client-B	--	--	--	0.0333899	0.500476	0.0941535	0.983629	0.0665898
0	0	False	3	1	0	2	1.0	0.135	-1.0	--	--	[0, 1, 2]	[0, 1, 2]	--	--	--	0.0	5.32168	client-B	--	--	--	0.0333846	0.483631	0.0666217	0.984097	0.0666195
0	0	False	4	1	0	3	1.0	0.17	-1.0	--	--	[0, 1, 2]	[0, 1, 2]	--	--	--	0.0	5.22153	client-B	--	--	--	0.0500589	0.483653	0.0666231	0.984106	0.0666167
0	0	False	5	3	0	1	1.0	0.115	1.0	0.0	6.27282	[0, 1, 2]	[0, 1, 2]	--	--	--	1.0	6.32874	client-B	--	--	--	0.0333588	0.483653	0.0666192	0.9841	0.0666245
0	0	False	6	2	0	4	1.0	0.25	-1.0	--	--	[0, 1, 2]	[0, 1, 2]	--	--	--	0.0	3.1865	client-B	--	--	--	0.0501059	0.500311	0.0938222	0.984091	0.0666209
0	0	False	7	1	0	3	1.0	0.17	2.0	--	--	[0, 1, 2]	[0, 1, 2]	--	--	--	1.0	3.35327	client-B	--	--	--	0.0333644	0.483653	0.0666188	0.984102	0.066617
0	0	False	8	1	0	2	1.0	0.135	-1.0	--	--	[0, 1, 2]	[0, 1, 2]	--	--	--	1.0	2.03546	client-B	--	--	--	0.0334023	0.483646	0.0666252	0.984098	0.0666199
0	0	False	9	1	0	3	1.0	0.17	-1.0	--	--	[0, 1, 2]	[0, 1, 2]	--	--	--	0.0	1.86864	client-B	--	--	--	0.0500571	0.48365	0.0666255	0.984097	0.0666086
0	0	False	10	2	1	2	1.0	0.135	0.0	--	--	[0, 1, 2]	[0, 1, 2]	--	--	--	1.0	2.8868	client-B	--	--	--	0.0500224	0.483635	0.0666277	0.984097	0.0666185
0	0	False	11	3	0	1	1.0	0.115	1.0	1.0	6.63965	[0, 1, 2]	[0, 1, 2]	--	--	--	0.0	3.053	client-B	--	--	--	0.0334197	0.500323	0.0999833	1.00079	0.110505
0	0	False	12	2	1	2	1.0	0.135	-1.0	--	--	[0, 1, 2]	[0, 1, 2]	--	--	--	1.0	2.30234	client-B	--	--	--	0.0500472	0.483643	0.0666206	0.984118	0.0666132
0	0	False	13	2	0	4	1.0	0.25	-1.0	--	--	[0, 1, 2]	[0, 1, 2]	--	--	--	1.0	1.85191	client-B	--	--	--	0.0333538	0.483655	0.0666234	0.984127	0.0666089
0	0	False	14	1	1	4	1.0	0.25	-1.0	--	--	[0, 1, 2]	[0, 1, 2]	--	--	--	1.0	3.37001	client-B	--	--	--	0.0500437	0.483653	0.0666241	0.984094	0.0666167
0	0	False	15	2	1	1	1.0	0.115	-1.0	--	--	[0, 1, 2]	[0, 1, 2]	--	--	--	1.0	1.46828	client-B	--	--	--	0.0500451	0.483655	0.0666259	0.9841	0.0666103
0	0	False	16	1	0	2	1.0	0.135	-1.0	--	--	[0, 1, 2]	[0, 1, 2]	--	--	--	1.0	2.28568	client-B	--	--	--	0.0333846	0.483655	0.0665997	0.984725	0.0666202
0	0	False	17	3	1	3	1.0	0.17	-1.0	--	--	[0, 1, 2]	[0, 1, 2]	--	--	--	1.0	3.43664	client-B	--	--	--	0.0333386	0.500315	0.0999748	1.00079	0.110495
0	0	False	18	3	1	3	1.0	0.17	2.0	--	--	[0, 1, 2]	[0, 1, 2]	--	--	--	1.0	1.06794	client-B	--	--	--	0.050061	0.483653	0.0666234	0.984104	0.0666082
0	0	False	19	3	0	1	1.0	0.115	0.0	--	--	[0, 1, 2]	[0, 1, 2]	--	--	--	1.0	36.2051	client-B	--	--	--	0.0333666	0.483654	0.066604	0.9841	0.0666209
0	0	False	20	2	1	1	1.0	0.115	1.0	1.0	5.42194	[0, 1, 2]	[0, 1, 2]	--	--	--	1.0	3.21977	client-B	--	--	--	0.0333956	0.500355	0.0999705	0.994623	0.0666181
0	0	False	21	3	1	3	1.0	0.17	-1.0	--	--	[0, 1, 2]	[0, 1, 2]	--	--	--	1.0	1.56836	client-B	--	--	--	0.0500706	0.483655	0.0666139	0.984096	0.0832814
0	0	False	22	2	1	2	1.0	0.135	2.0	--	--	[0, 1, 2]	[0, 1, 2]	--	--	--	1.0	4.02054	client-B	--	--	--	0.0333613	0.483662	0.0666255	0.984098	0.0666128
0	0	False	23	1	0	3	1.0	0.17	-1.0	--	--	[0, 1, 2]	[0, 1, 2]	--	--	--	0.0	2.75277	client-B	--	--	--	0.0334012	0.500295	0.0999826	0.994609	0.0666234
0	0	False	24	2	1	2	1.0	0.135	0.0	--	--	[0, 1, 2]	[0, 1, 2]	--	--	--	0.0	2.65266	client-B	--	--	--	0.0500514	0.483656	0.0666199	0.9841	0.0666238
0	0	False	25	2	0	4	1.0	0.25	-1.0	--	--	[0, 1, 2]	[0, 1, 2]	--	--	--	1.0	1.8353	client-B	--	--	--	0.0333637	0.483654	0.0666199	0.984102	0.0666082
0	0	False	26	2	1	1	1.0	0.115	1.0	1.0	10.5827	[0, 1, 2]	[0, 1, 2]	--	--	--	1.0	4.60437	client-B	--	--	--	0.050033	0.483655	0.0666206	0.984101	0.0666217
0	0	False	27	1	1	4	1.0	0.25	-1.0	--	--	[0, 1, 2]	[0, 1, 2]	--	--	--	1.0	4.93801	client-B	--	--	--	0.0333966	0.500334	0.109659	0.984935	0.0666206
0	0	False	28	3	0	1	1.0	0.115	-1.0	--	--	[0, 1, 2]	[0, 1, 2]	--	--	--	1.0	18.1163	client-B	--	--	--	0.0333768	0.483651	0.0666082	0.984098	0.0666195
0	0	False	29	1	0	2	1.0	0.135	2.0	--	--	[0, 1, 2]	[0, 1, 2]	--	--	--	0.0	2.15221	client-B	--	--	--	0.0333634	0.483659	0.0666139	0.9841	0.0666217
0	0	False	30	1	1	4	1.0	0.25	0.0	--	--	[0, 1, 2]	[0, 1, 2]	--	--	--	1.0	3.65979	client-B	--	--	--	0.033386	0.483656	0.0666217	0.984101	0.0666132
0	0	False	31	3	1	3	1.0	0.17	-1.0	--	--	[0, 1, 2]	[0, 1, 2]	--	--	--	1.0	3.31992	client-B	--	--	--	0.0334239	0.500312	0.100026	0.994566	0.0666217
0	0	False	32	2	0	4	1.0	0.25	-1.0	--	--	[0, 1, 2]	[0, 1, 2]	--	--	--	0.0	2.33572	client-B	--	--	--	0.0333644	0.483657	0.0666153	0.984098	0.0666117
1	0	False	1	5	0	3	1.0	0.17	1.0	1.0	8.22441	[0, 1, 2]	[0, 1, 2]	--	--	--	1.0	2.01867	client-B	--	--	--	0.0500253	0.483613	0.0665887	0.984091	0.0665703
1	0	False	2	1	1	2	1.0	0.135	2.0	--	--	[0, 1, 2]	[0, 1, 2]	--	--	--	0.0	7.52425	client-B	--	--	--	0.0500663	0.483656	0.0666181	0.984102	0.0666213
1	0	False	3	1	1	2	1.0	0.135	-1.0	--	--	[0, 1, 2]	[0, 1, 2]	--	--	--	1.0	3.36996	client-B	--	--	--	0.0334197	0.500328	0.099991	0.994603	0.0666224
1	0	False	4	4	0	1	1.0	0.115	-1.0	--	--	[0, 1, 2]	[0, 1, 2]	--	--	--	0.0	1.80192	client-B	--	--	--	0.033363	0.483662	0.0666135	0.984101	0.0666103
1	0	False	5	2	0	4	1.0	0.25	-1.0	--	--	[0, 1, 2]	[0, 1, 2]	--	--	--	0.0	1.2514	client-B	--	--	--	0.0333938	0.483639	0.0666227	0.984098	0.0666181
1	0	False	6	1	1	2	1.0	0.135	0.0	--	--	[0, 1, 2]	[0, 1, 2]	--	--	--	1.0	3.73696	client-B	--	--	--	0.0333959	0.483654	0.0666086	0.984098	0.066605
1	0	False	7	5	1	1	1.0	0.115	1.0	1.0	6.74041	[0, 1, 2]	[0, 1, 2]	--	--	--	1.0	3.36997	client-B	--	--	--	0.0333641	0.483642	0.06661	0.984125	0.0665739
1	0	False	8	4	0	1	1.0	0.115	-1.0	--	--	[0, 1, 2]	[0, 1, 2]	--	--	--	1.0	2.28568	client-B	--	--	--	0.0500429	0.483658	0.0666089	0.984099	0.0666213
1	0	False	9	5	1	3	1.0	0.17	2.0	--	--	[0, 1, 2]	[0, 1, 2]	--	--	--	1.0	4.27076	client-B	--	--	--	0.0333291	0.500301	0.0938548	0.984074	0.066622
1	0	False	10	5	0	3	1.0	0.17	0.0	--	--	[0, 1, 2]	[0, 1, 2]	--	--	--	0.0	2.86951	client-B	--	--	--	0.0333729	0.483654	0.0666245	0.984108	0.0666008
1	0	False	11	2	0	4	1.0	0.25	1.0	1.0	5.2885	[0, 1, 2]	[0, 1, 2]	--	--	--	1.0	3.63682	client-B	--	--	--	0.033369	0.483655	0.066617	0.984128	0.0665976
1	0	False	12	2	1	4	1.0	0.25	2.0	--	--	[0, 1, 2]	[0, 1, 2]	--	--	--	0.0	2.70271	client-B	--	--	--	0.0500458	0.483655	0.0666252	0.984104	0.0666054
1	0	False	13	2	1	4	1.0	0.25	0.0	--	--	[0, 1, 2]	[0, 1, 2]	--	--	--	0.0	21.8696	client-B	--	--	--	0.033403	0.500317	0.0999574	0.994614	0.0666241
1	0	False	14	5	1	1	1.0	0.115	1.0	1.0	4.62125	[0, 1, 2]	[0, 1, 2]	--	--	--	1.0	2.56926	client-B	--	--	--	0.0333648	0.483666	0.0666248	0.984101	0.0666096
1	0	False	15	2	0	4	1.0	0.25	2.0	--	--	[0, 1, 2]	[0, 1, 2]	--	--	--	0.0	4.99423	client-B	--	--	--	0.0500592	0.483658	0.0666227	0.984101	0.0666213
1	0	False	16	2	1	4	1.0	0.25	0.0	--	--	[0, 1, 2]	[0, 1, 2]	--	--	--	1.0	11.2102	client-B	--	--	--	0.0333896	0.500332	0.0938198	0.984089	0.0665916
1	0	False	17	5	1	1	1.0	0.115	1.0	1.0	6.20597	[0, 1, 2]	[0, 1, 2]	--	--	--	1.0	2.11889	client-B	--	--	--	0.0333754	0.483657	0.0666227	0.984103	0.0665979
1	0	False	18	5	1	3	1.0	0.17	-1.0	--	--	[0, 1, 2]	[0, 1, 2]	--	--	--	1.0	2.65329	client-B	--	--	--	0.0333779	0.483659	0.0666245	0.984105	0.0666075
1	0	False	19	3	0	2	1.0	0.135	-1.0	--	--	[0, 1, 2]	[0, 1, 2]	--	--	--	1.0	1.23477	client-B	--	--	--	0.0333202	0.50037	0.099921	0.994636	0.0666178
1	0	False	20	5	1	3	1.0	0.17	-1.0	--	--	[0, 1, 2]	[0, 1, 2]	--	--	--	1.0	2.41913	client-B	--	--	--	0.0500695	0.483656	0.0666213	0.984102	0.0666174
1	0	False	21	4	0	1	1.0	0.115	2.0	--	--	[0, 1, 2]	[0, 1, 2]	--	--	--	1.0	1.16804	client-B	--	--	--	0.0500426	0.483659	0.0666231	0.984101	0.0666227
1	0	False	22	3	0	2	1.0	0.135	-1.0	--	--	[0, 1, 2]	[0, 1, 2]	--	--	--	1.0	1.83528	client-B	--	--	--	0.0333644	0.483656	0.0666117	0.984103	0.0666128
1	0	False	23	4	0	1	1.0	0.115	-1.0	--	--	[0, 1, 2]	[0, 1, 2]	--	--	--	1.0	1.51835	client-B	--	--	--	0.0333928	0.483653	0.0666241	0.984099	0.0666231
1	0	False	24	5	0	3	1.0	0.17	0.0	--	--	[0, 1, 2]	[0, 1, 2]	--	--	--	1.0	1.53558	client-B	--	--	--	0.0333651	0.483657	0.0666192	0.984106	0.0666231
1	0	False	25	5	0	3	1.0	0.17	1.0	0.0	8.52467	[0, 1, 2]	[0, 1, 2]	--	--	--	0.0	2.73608	client-B	--	--	--	0.0333567	0.500428	0.0999054	0.994595	0.0666213
1	0	False	26	3	0	2	1.0	0.135	-1.0	--	--	[0, 1, 2]	[0, 1, 2]	--	--	--	1.0	1.85197	client-B	--	--	--	0.0667349	0.483633	0.0666206	0.984101	0.0666135
1	0	False	27	2	0	4	1.0	0.25	-1.0	--	--	[0, 1, 2]	[0, 1, 2]	--	--	--	1.0	1.43492	client-B	--	--	--	0.0500621	0.483658	0.0666195	0.984105	0.0666227
1	0	False	28	2	1	4	1.0	0.25	2.0	--	--	[0, 1, 2]	[0, 1, 2]	--	--	--	1.0	0.951106	client-B	--	--	--	0.033379	0.483656	0.0666227	0.984113	0.0666312
1	0	False	29	5	1	3	1.0	0.17	-1.0	--	--	[0, 1, 2]	[0, 1, 2]	--	--	--	1.0	2.55258	client-B	--	--	--	0.0333634	0.483658	0.0666326	0.984721	0.0666213
1	0	False	30	1	1	2	1.0	0.135	-1.0	--	--	[0, 1, 2]	[0, 1, 2]	--	--	--	1.0	1.81856	client-B	--	--	--	0.0333563	0.500322	0.0771646	0.984093	0.0665905
1	0	False	31	3	0	2	1.0	0.135	0.0	--	--	[0, 1, 2]	[0, 1, 2]	--	--	--	1.0	0.667584	client-B	--	--	--	0.0500483	0.483642	0.0666209	0.984105	0.0666078
1	0	False	32	5	1	1	1.0	0.115	-1.0	--	--	[0, 1, 2]	[0, 1, 2]	--	--	--	1.0	4.23739	client-B	--	--	--	0.0334175	0.483632	0.0666209	0.984089	0.0666195
2	0	False	1	0	1	1	1.0	0.115	-1.0	--	--	[0, 1, 2]	[0, 1, 2]	--	--	--	1.0	1.01794	client-B	--	--	--	0.0333521	0.483606	0.0665902	0.984076	0.0665686
2	0	False	2	2	0	3	1.0	0.17	-1.0	--	--	[0, 1, 2]	[0, 1, 2]	--	--	--	0.0	2.06884	client-B	--	--	--	0.0500575	0.483657	0.0666195	0.984065	0.0666132
2	0	False	3	0	1	3	1.0	0.17	-1.0	--	--	[0, 1, 2]	[0, 1, 2]	--	--	--	0.0	1.61837	client-B	--	--	--	0.0333613	0.483636	0.066617	0.984111	0.0666153
2	0	False	4	1	1	2	1.0	0.135	-1.0	--	--	[0, 1, 2]	[0, 1, 2]	--	--	--	1.0	2.46981	client-B	--	--	--	0.0500419	0.483656	0.0666224	0.984102	0.0666202
2	0	False	5	1	1	4	1.0	0.25	1.0	0.0	11.2771	[0, 1, 2]	[0, 1, 2]	--	--	--	0.0	1.31814	client-B	--	--	--	0.0333736	0.500332	0.0771413	0.984089	0.0666135
2	0	False	6	1	1	4	1.0	0.25	-1.0	--	--	[0, 1, 2]	[0, 1, 2]	--	--	--	1.0	1.51833	client-B	--	--	--	0.0500567	0.483657	0.0666178	0.984103	0.0666213
2	0	False	7	0	0	2	1.0	0.135	-1.0	--	--	[0, 1, 2]	[0, 1, 2]	--	--	--	0.0	1.86866	client-B	--	--	--	0.0334023	0.483641	0.0666238	0.984105	0.0666213
2	0	False	8	0	1	3	1.0	0.17	2.0	--	--	[0, 1, 2]	[0, 1, 2]	--	--	--	1.0	1.46827	client-B	--	--	--	0.0333786	0.483657	0.0666199	0.984103	0.0666425
2	0	False	9	0	1	3	1.0	0.17	-1.0	--	--	[0, 1, 2]	[0, 1, 2]	--	--	--	1.0	3.10864	client-B	--	--	--	0.0333687	0.483656	0.066611	0.984104	0.0666181
2	0	False	10	5	0	1	1.0	0.115	-1.0	--	--	[0, 1, 2]	[0, 1, 2]	--	--	--	0.0	3.003	client-B	--	--	--	0.0334112	0.500404	0.0999971	0.994472	0.0666316
2	0	False	11	1	1	4	1.0	0.25	0.0	--	--	[0, 1, 2]	[0, 1, 2]	--	--	--	0.0	1.26803	client-B	--	--	--	0.0333864	0.483658	0.0666379	0.984093	0.0666266
2	0	False	12	4	0	4	1.0	0.25	1.0	1.0	8.04093	[0, 1, 2]	[0, 1, 2]	--	--	--	1.0	2.15226	client-B	--	--	--	0.0333719	0.48364	0.0666248	0.984122	0.0665887
2	0	False	13	0	1	1	1.0	0.115	2.0	--	--	[0, 1, 2]	[0, 1, 2]	--	--	--	0.0	2.83617	client-B	--	--	--	0.0500833	0.483632	0.0666054	0.984101	0.066622
2	0	False	14	0	1	1	1.0	0.115	0.0	--	--	[0, 1, 2]	[0, 1, 2]	--	--	--	1.0	3.93713	client-B	--	--	--	0.0334122	0.500303	0.0999907	0.994626	0.0666125
2	0	False	15	5	0	1	1.0	0.115	-1.0	--	--	[0, 1, 2]	[0, 1, 2]	--	--	--	1.0	1.63509	client-B	--	--	--	0.0333662	0.483658	0.0666075	0.984101	0.066627
2	0	False	16	1	1	2	1.0	0.135	-1.0	--	--	[0, 1, 2]	[0, 1, 2]	--	--	--	0.0	1.43489	client-B	--	--	--	0.0333843	0.483672	0.0665969	0.984103	0.0666206
2	0	False	17	0	0	2	1.0	0.135	-1.0	--	--	[0, 1, 2]	[0, 1, 2]	--	--	--	1.0	2.01878	client-B	--	--	--	0.0333627	0.483655	0.0666217	0.984103	0.0666202
2	0	False	18	1	1	2	1.0	0.135	-1.0	--	--	[0, 1, 2]	[0, 1, 2]	--	--	--	1.0	1.16802	client-B	--	--	--	0.0333485	0.483656	0.0666224	0.984102	0.0666213
2	0	False	19	4	0	4	1.0	0.25	-1.0	--	--	[0, 1, 2]	[0, 1, 2]	--	--	--	0.0	0.867755	client-B	--	--	--	0.0333761	0.483659	0.0666146	0.984104	0.0666231
2	0	False	20	2	0	3	1.0	0.17	1.0	0.0	11.3439	[0, 1, 2]	[0, 1, 2]	--	--	--	0.0	1.11798	client-B	--	--	--	0.0333821	0.483673	0.0665962	0.984102	0.0666217
2	0	False	21	5	0	1	1.0	0.115	-1.0	--	--	[0, 1, 2]	[0, 1, 2]	--	--	--	1.0	2.40245	client-B	--	--	--	0.0500613	0.500323	0.0999744	1.00081	0.110501
2	0	False	22	0	0	2	1.0	0.135	2.0	--	--	[0, 1, 2]	[0, 1, 2]	--	--	--	1.0	1.95205	client-B	--	--	--	0.0333747	0.483655	0.0666238	0.984105	0.0666192
2	0	False	23	4	0	4	1.0	0.25	0.0	--	--	[0, 1, 2]	[0, 1, 2]	--	--	--	1.0	2.70272	client-B	--	--	--	0.0333878	0.483656	0.0666241	0.984101	0.0666209
2	0	False	24	5	0	1	1.0	0.115	-1.0	--	--	[0, 1, 2]	[0, 1, 2]	--	--	--	0.0	17.6048	client-B	--	--	--	0.0333616	0.484303	0.0666025	0.984088	0.0666234
2	0	False	25	1	1	4	1.0	0.25	-1.0	--	--	[0, 1, 2]	[0, 1, 2]	--	--	--	1.0	1.90202	client-B	--	--	--	0.0333981	0.500319	0.0943708	0.983555	0.0666213
2	0	False	26	0	1	3	1.0	0.17	1.0	0.0	4.02071	[0, 1, 2]	[0, 1, 2]	--	--	--	1.0	1.63511	client-B	--	--	--	0.0333634	0.483668	0.0666174	0.9841	0.0666234
2	0	False	27	2	0	3	1.0	0.17	-1.0	--	--	[0, 1, 2]	[0, 1, 2]	--	--	--	1.0	32.2183	client-B	--	--	--	0.0500465	0.500335	0.0666234	0.984093	0.0666132
2	0	False	28	0	1	1	1.0	0.115	-1.0	--	--	[0, 1, 2]	[0, 1, 2]	--	--	--	1.0	3.21982	client-B	--	--	--	0.0333552	0.500335	0.109641	0.984957	0.0666231
2	0	False	29	4	0	4	1.0	0.25	2.0	--	--	[0, 1, 2]	[0, 1, 2]	--	--	--	1.0	2.45249	client-B	--	--	--	0.0333857	0.483654	0.0666082	0.984102	0.0666309
2	0	False	30	0	0	2	1.0	0.135	-1.0	--	--	[0, 1, 2]	[0, 1, 2]	--	--	--	1.0	2.46917	client-B	--	--	--	0.0333627	0.483639	0.0666234	0.9841	0.0666217
2	0	False	31	2	0	3	1.0	0.17	-1.0	--	--	[0, 1, 2]	[0, 1, 2]	--	--	--	1.0	1.26809	client-B	--	--	--	0.0500645	0.483655	0.0666213	0.984731	0.066616
2	0	False	32	1	1	2	1.0	0.135	-1.0	--	--	[0, 1, 2]	[0, 1, 2]	--	--	--	0.0	1.30148	client-B	--	--	--	0.0500589	0.500326	0.0943485	0.983571	0.0666121
0	1	False	1	2	1	3	1.0	0.17	2.0	--	--	[2, 0, 1]	[0, 1, 2]	1.0	2.26897	client-B	--	--	--	--	--	--	0.0500589	0.48361	0.0665873	0.984075	0.0665923
0	1	False	2	2	0	4	1.0	0.25	0.0	0.0	2.38593	[2, 0, 1]	[0, 1, 2]	0.0	1.61841	client-B	--	--	--	--	--	--	0.0334012	0.483658	0.0666259	0.984097	0.0666248
0	1	False	3	2	1	2	1.0	0.135	1.0	--	--	[2, 0, 1]	[0, 1, 2]	0.0	2.33574	client-B	--	--	--	--	--	--	0.0500582	0.483653	0.0666238	0.984105	0.0666224
0	1	False	4	2	1	3	1.0	0.17	-1.0	--	--	[2, 0, 1]	[0, 1, 2]	1.0	1.53502	client-B	--	--	--	--	--	--	0.0333878	0.483671	0.0666036	0.984106	0.0666033
0	1	False	5	2	0	4	1.0	0.25	2.0	--	--	[2, 0, 1]	[0, 1, 2]	1.0	1.08462	client-B	--	--	--	--	--	--	0.0333828	0.484283	0.0666224	0.984105	0.0666224
0	1	False	6	1	1	1	1.0	0.115	-1.0	--	--	[2, 0, 1]	[0, 1, 2]	1.0	1.76855	client-B	--	--	--	--	--	--	0.0333595	0.500317	0.0999811	0.994626	0.066611
0	1	False	7	2	1	3	1.0	0.17	-1.0	--	--	[2, 0, 1]	[0, 1, 2]	1.0	1.56838	client-B	--	--	--	--	--	--	0.0333712	0.48365	0.0666231	0.984106	0.0666093
0	1	False	8	4	1	4	1.0	0.25	-1.0	--	--	[2, 0, 1]	[0, 1, 2]	1.0	1.23475	client-B	--	--	--	--	--	--	0.0333559	0.483655	0.0666199	0.984103	0.0666086
0	1	False	9	2	0	4	1.0	0.25	-1.0	--	--	[2, 0, 1]	[0, 1, 2]	0.0	2.10218	client-B	--	--	--	--	--	--	0.0333648	0.483655	0.0666107	0.984101	0.0666241
0	1	False	10	4	1	4	1.0	0.25	0.0	0.0	1.61856	[2, 0, 1]	[0, 1, 2]	0.0	3.1865	client-B	--	--	--	--	--	--	0.0333828	0.483655	0.0666241	0.984116	0.0665986
0	1	False	11	1	1	1	1.0	0.115	1.0	--	--	[2, 0, 1]	[0, 1, 2]	1.0	1.86864	client-B	--	--	--	--	--	--	0.0500585	0.483656	0.0666238	0.984105	0.0666213
0	1	False	12	1	0	2	1.0	0.135	2.0	--	--	[2, 0, 1]	[0, 1, 2]	1.0	1.08459	client-B	--	--	--	--	--	--	0.0500854	0.500305	0.109651	0.984939	0.0666149
0	1	False	13	1	0	3	1.0	0.17	0.0	0.0	4.92153	[2, 0, 1]	[0, 1, 2]	1.0	1.4516	client-B	--	--	--	--	--	--	0.0333567	0.483657	0.0666192	0.984118	0.0666093
0	1	False	14	1	0	3	1.0	0.17	-1.0	--	--	[2, 0, 1]	[0, 1, 2]	1.0	1.10125	client-B	--	--	--	--	--	--	0.0500366	0.483673	0.0666075	0.984113	0.0666096
0	1	False	15	4	0	1	1.0	0.115	-1.0	--	--	[2, 0, 1]	[0, 1, 2]	0.0	3.83705	client-B	--	--	--	--	--	--	0.0333673	0.483655	0.0666252	0.984103	0.066622
0	1	False	16	2	0	4	1.0	0.25	-1.0	--	--	[2, 0, 1]	[0, 1, 2]	0.0	2.72498	client-B	--	--	--	--	--	--	0.0333786	0.483645	0.066622	0.984104	0.0666125
0	1	False	17	1	0	3	1.0	0.17	-1.0	--	--	[2, 0, 1]	[0, 1, 2]	0.0	3.30326	client-B	--	--	--	--	--	--	0.0333758	0.500324	0.0938428	0.984098	0.066604
0	1	False	18	2	1	2	1.0	0.135	-1.0	--	--	[2, 0, 1]	[0, 1, 2]	0.0	2.66934	client-B	--	--	--	--	--	--	0.0333857	0.483661	0.0666319	0.984089	0.0666238
0	1	False	19	4	0	1	1.0	0.115	-1.0	--	--	[2, 0, 1]	[0, 1, 2]	1.0	2.90289	client-B	--	--	--	--	--	--	0.0333779	0.483654	0.0666199	0.984106	0.0666252
0	1	False	20	1	0	2	1.0	0.135	-1.0	--	--	[2, 0, 1]	[0, 1, 2]	0.0	1.58506	client-B	--	--	--	--	--	--	0.0333751	0.483659	0.066628	0.984095	0.0666238
0	1	False	21	4	0	1	1.0	0.115	-1.0	--	--	[2, 0, 1]	[0, 1, 2]	0.0	1.01786	client-B	--	--	--	--	--	--	0.0333634	0.483656	0.0666245	0.98412	0.0665838
0	1	False	22	4	1	4	1.0	0.25	-1.0	--	--	[2, 0, 1]	[0, 1, 2]	1.0	1.26814	client-B	--	--	--	--	--	--	0.0500422	0.483653	0.0666093	0.984098	0.0666209
0	1	False	23	1	1	1	1.0	0.115	-1.0	--	--	[2, 0, 1]	[0, 1, 2]	1.0	1.10131	client-B	--	--	--	--	--	--	0.0333874	0.483646	0.066622	0.984105	0.0666185
0	1	False	24	1	1	1	1.0	0.115	-1.0	--	--	[2, 0, 1]	[0, 1, 2]	1.0	0.934473	client-B	--	--	--	--	--	--	0.0333821	0.483656	0.0666255	0.9841	0.0666425
0	1	False	25	2	1	3	1.0	0.17	1.0	--	--	[2, 0, 1]	[0, 1, 2]	1.0	1.06791	client-B	--	--	--	--	--	--	0.0500497	0.483648	0.0666305	0.984097	0.066622
0	1	False	26	2	1	2	1.0	0.135	2.0	--	--	[2, 0, 1]	[0, 1, 2]	1.0	5.52184	client-B	--	--	--	--	--	--	0.0333988	0.500365	0.0999263	0.994637	0.0666224
0	1	False	27	4	0	1	1.0	0.115	-1.0	--	--	[2, 0, 1]	[0, 1, 2]	1.0	0.984531	client-B	--	--	--	--	--	--	0.0500635	0.483656	0.0666234	0.984103	0.0666185
0	1	False	28	4	1	4	1.0	0.25	-1.0	--	--	[2, 0, 1]	[0, 1, 2]	1.0	0.917808	client-B	--	--	--	--	--	--	0.0333977	0.483666	0.0666068	0.984101	0.0666142
0	1	False	29	1	0	3	1.0	0.17	-1.0	--	--	[2, 0, 1]	[0, 1, 2]	1.0	1.06796	client-B	--	--	--	--	--	--	0.0333648	0.483658	0.0666227	0.984733	0.0666146
0	1	False	30	1	0	2	1.0	0.135	0.0	0.0	1.70199	[2, 0, 1]	[0, 1, 2]	1.0	4.12063	client-B	--	--	--	--	--	--	0.050135	0.500276	0.0999712	0.994635	0.0666153
0	1	False	31	1	0	2	1.0	0.135	-1.0	--	--	[2, 0, 1]	[0, 1, 2]	1.0	2.8028	client-B	--	--	--	--	--	--	0.0500539	0.483658	0.0666163	0.984115	0.0666202
0	1	False	32	2	1	2	1.0	0.135	1.0	--	--	[2, 0, 1]	[0, 1, 2]	0.0	1.66845	client-B	--	--	--	--	--	--	0.0500592	0.483654	0.0666252	0.984099	0.0666227
1	1	False	1	2	1	2	1.0	0.135	2.0	--	--	[2, 0, 1]	[0, 1, 2]	0.0	1.80189	client-B	--	--	--	--	--	--	0.0333659	0.483611	0.0666011	0.984065	0.0665919
1	1	False	2	0	1	1	1.0	0.115	0.0	0.0	1.84116	[2, 0, 1]	[0, 1, 2]	0.0	1.28482	client-B	--	--	--	--	--	--	0.0333655	0.483658	0.0666071	0.984101	0.066622
1	1	False	3	5	1	4	1.0	0.25	-1.0	--	--	[2, 0, 1]	[0, 1, 2]	1.0	1.06794	client-B	--	--	--	--	--	--	0.0499187	0.500475	0.0998311	0.994609	0.0666188
1	1	False	4	3	0	3	1.0	0.17	1.0	--	--	[2, 0, 1]	[0, 1, 2]	0.0	2.95293	client-B	--	--	--	--	--	--	0.0333782	0.483655	0.0666245	0.984102	0.0666213
1	1	False	5	5	0	4	1.0	0.25	-1.0	--	--	[2, 0, 1]	[0, 1, 2]	1.0	1.18471	client-B	--	--	--	--	--	--	0.0500521	0.483654	0.0666266	0.9841	0.0666135
1	1	False	6	5	0	2	1.0	0.135	-1.0	--	--	[2, 0, 1]	[0, 1, 2]	1.0	1.30148	client-B	--	--	--	--	--	--	0.050056	0.483655	0.0666103	0.984104	0.0666234
1	1	False	7	5	0	4	1.0	0.25	-1.0	--	--	[2, 0, 1]	[0, 1, 2]	0.0	1.43493	client-B	--	--	--	--	--	--	0.0500472	0.483659	0.066611	0.984103	0.0666206
1	1	False	8	5	1	4	1.0	0.25	2.0	--	--	[2, 0, 1]	[0, 1, 2]	0.0	3.42003	client-B	--	--	--	--	--	--	0.0500429	0.483657	0.0666326	0.984072	0.0666231
1	1	False	9	5	0	4	1.0	0.25	-1.0	--	--	[2, 0, 1]	[0, 1, 2]	1.0	1.08457	client-B	--	--	--	--	--	--	0.0333712	0.500328	0.0999677	1.00078	0.110539
1	1	False	10	0	1	1	1.0	0.115	0.0	0.0	1.71868	[2, 0, 1]	[0, 1, 2]	0.0	0.834407	client-B	--	--	--	--	--	--	0.0500546	0.483655	0.0666195	0.984092	0.066622
1	1	False	11	5	0	1	1.0	0.115	-1.0	--	--	[2, 0, 1]	[0, 1, 2]	1.0	9.02496	client-B	--	--	--	--	--	--	0.0500571	0.483655	0.0666263	0.984101	0.0666195
1	1	False	12	0	1	1	1.0	0.115	1.0	--	--	[2, 0, 1]	[0, 1, 2]	1.0	1.15135	client-B	--	--	--	--	--	--	0.050044	0.483659	0.0666132	0.984102	0.06661
1	1	False	13	2	1	3	1.0	0.17	-1.0	--	--	[2, 0, 1]	[0, 1, 2]	1.0	1.20139	client-B	--	--	--	--	--	--	0.0333966	0.483659	0.0666117	0.9841	0.0666192
1	1	False	14	5	0	1	1.0	0.115	-1.0	--	--	[2, 0, 1]	[0, 1, 2]	1.0	0.884445	client-B	--	--	--	--	--	--	0.0333945	0.483641	0.0666114	0.984116	0.0666209
1	1	False	15	3	0	3	1.0	0.17	2.0	--	--	[2, 0, 1]	[0, 1, 2]	0.0	1.60172	client-B	--	--	--	--	--	--	0.0333754	0.500354	0.0938	0.984089	0.0666365
1	1	False	16	2	1	2	1.0	0.135	-1.0	--	--	[2, 0, 1]	[0, 1, 2]	1.0	0.934484	client-B	--	--	--	--	--	--	0.0333853	0.483656	0.0666195	0.984106	0.0666217
1	1	False	17	2	1	2	1.0	0.135	-1.0	--	--	[2, 0, 1]	[0, 1, 2]	1.0	0.917806	client-B	--	--	--	--	--	--	0.0333623	0.483667	0.0666252	0.984091	0.0666132
1	1	False	18	3	0	3	1.0	0.17	0.0	1.0	5.2885	[2, 0, 1]	[0, 1, 2]	1.0	1.03458	client-B	--	--	--	--	--	--	0.0500564	0.483645	0.0666199	0.984102	0.066627
1	1	False	19	2	1	2	1.0	0.135	1.0	--	--	[2, 0, 1]	[0, 1, 2]	1.0	3.10306	client-B	--	--	--	--	--	--	0.0500575	0.483658	0.0666086	0.984106	0.0666192
1	1	False	20	2	1	3	1.0	0.17	2.0	--	--	[2, 0, 1]	[0, 1, 2]	0.0	2.03541	client-B	--	--	--	--	--	--	0.0501749	0.500205	0.110515	0.984096	0.066605
1	1	False	21	5	1	4	1.0	0.25	-1.0	--	--	[2, 0, 1]	[0, 1, 2]	1.0	2.35241	client-B	--	--	--	--	--	--	0.0333531	0.483661	0.0666185	0.984123	0.0666078
1	1	False	22	2	1	3	1.0	0.17	-1.0	--	--	[2, 0, 1]	[0, 1, 2]	1.0	0.901129	client-B	--	--	--	--	--	--	0.0500592	0.483654	0.0666248	0.984097	0.0666213
1	1	False	23	2	1	3	1.0	0.17	-1.0	--	--	[2, 0, 1]	[0, 1, 2]	1.0	2.88621	client-B	--	--	--	--	--	--	0.0333655	0.483676	0.0666068	0.984102	0.0666238
1	1	False	24	5	0	1	1.0	0.115	0.0	1.0	6.92325	[2, 0, 1]	[0, 1, 2]	1.0	0.968037	client-B	--	--	--	--	--	--	0.0500405	0.483666	0.0666192	0.984107	0.0665986
1	1	False	25	5	0	4	1.0	0.25	1.0	--	--	[2, 0, 1]	[0, 1, 2]	0.0	4.04341	client-B	--	--	--	--	--	--	0.0500359	0.483655	0.0666252	0.984103	0.0666174
1	1	False	26	5	0	1	1.0	0.115	-1.0	--	--	[2, 0, 1]	[0, 1, 2]	0.0	2.03546	client-B	--	--	--	--	--	--	0.0334165	0.500317	0.0943842	0.983542	0.0666089
1	1	False	27	5	1	4	1.0	0.25	-1.0	--	--	[2, 0, 1]	[0, 1, 2]	0.0	2.20226	client-B	--	--	--	--	--	--	0.0500582	0.483657	0.0666167	0.984115	0.066628
1	1	False	28	5	0	2	1.0	0.135	2.0	--	--	[2, 0, 1]	[0, 1, 2]	1.0	2.61926	client-B	--	--	--	--	--	--	0.0500783	0.483656	0.0666185	0.984101	0.0666241
1	1	False	29	5	0	2	1.0	0.135	0.0	1.0	3.15324	[2, 0, 1]	[0, 1, 2]	1.0	2.85285	client-B	--	--	--	--	--	--	0.0333637	0.483658	0.0666181	0.984101	0.0666252
1	1	False	30	5	0	2	1.0	0.135	1.0	--	--	[2, 0, 1]	[0, 1, 2]	0.0	2.38575	client-B	--	--	--	--	--	--	0.0500447	0.483632	0.066617	0.984125	0.0666273
1	1	False	31	3	0	3	1.0	0.17	2.0	--	--	[2, 0, 1]	[0, 1, 2]	1.0	2.10217	client-B	--	--	--	--	--	--	0.0333467	0.500431	0.116677	1.00068	0.0771423
1	1	False	32	0	1	1	1.0	0.115	-1.0	--	--	[2, 0, 1]	[0, 1, 2]	1.0	1.35152	client-B	--	--	--	--	--	--	0.0333775	0.483653	0.0666217	0.984104	0.0666202
2	1	False	1	2	1	4	1.0	0.25	0.0	1.0	1.10147	[2, 0, 1]	[0, 1, 2]	1.0	2.78603	client-B	--	--	--	--	--	--	0.0333648	0.483609	0.0665905	0.984098	0.066571
2	1	False	2	0	1	1	1.0	0.115	-1.0	--	--	[2, 0, 1]	[0, 1, 2]	1.0	5.68869	client-B	--	--	--	--	--	--	0.0667409	0.483656	0.0666277	0.984096	0.0666294
2	1	False	3	2	0	2	1.0	0.135	1.0	--	--	[2, 0, 1]	[0, 1, 2]	1.0	0.935118	client-B	--	--	--	--	--	--	0.0500681	0.483631	0.0666167	0.984107	0.0666217
2	1	False	4	2	1	4	1.0	0.25	-1.0	--	--	[2, 0, 1]	[0, 1, 2]	1.0	2.21895	client-B	--	--	--	--	--	--	0.0333974	0.500314	0.109654	0.984946	0.0666248
2	1	False	5	5	1	3	1.0	0.17	-1.0	--	--	[2, 0, 1]	[0, 1, 2]	1.0	0.71763	client-B	--	--	--	--	--	--	0.0500592	0.483656	0.0666213	0.9841	0.0666266
2	1	False	6	3	0	1	1.0	0.115	2.0	--	--	[2, 0, 1]	[0, 1, 2]	0.0	2.61928	client-B	--	--	--	--	--	--	0.0500468	0.483654	0.0666209	0.984103	0.0666199
2	1	False	7	4	0	3	1.0	0.17	0.0	1.0	2.56944	[2, 0, 1]	[0, 1, 2]	1.0	3.82039	client-B	--	--	--	--	--	--	0.0333521	0.483655	0.0666241	0.984109	0.0666093
2	1	False	8	5	1	3	1.0	0.17	1.0	--	--	[2, 0, 1]	[0, 1, 2]	0.0	8.6142	client-B	--	--	--	--	--	--	0.0500401	0.483653	0.0666252	0.9841	0.0666174
2	1	False	9	2	1	4	1.0	0.25	-1.0	--	--	[2, 0, 1]	[0, 1, 2]	1.0	1.81946	client-B	--	--	--	--	--	--	0.0333676	0.500332	0.0999751	1.00078	0.109638
2	1	False	10	4	0	3	1.0	0.17	2.0	--	--	[2, 0, 1]	[0, 1, 2]	1.0	5.67202	client-B	--	--	--	--	--	--	0.0500444	0.483656	0.0666202	0.984103	0.0666128
2	1	False	11	0	1	2	1.0	0.135	-1.0	--	--	[2, 0, 1]	[0, 1, 2]	1.0	0.901123	client-B	--	--	--	--	--	--	0.0333768	0.483658	0.0666082	0.984103	0.0666248
2	1	False	12	0	1	2	1.0	0.135	-1.0	--	--	[2, 0, 1]	[0, 1, 2]	1.0	1.35152	client-B	--	--	--	--	--	--	0.0333832	0.483655	0.0665955	0.984105	0.0666213
2	1	False	13	3	0	4	1.0	0.25	-1.0	--	--	[2, 0, 1]	[0, 1, 2]	1.0	1.71914	client-B	--	--	--	--	--	--	0.0333747	0.48366	0.0665994	1.00079	0.0666149
2	1	False	14	2	0	2	1.0	0.135	0.0	0.0	7.4904	[2, 0, 1]	[0, 1, 2]	0.0	3.75446	client-B	--	--	--	--	--	--	0.0333804	0.500324	0.100095	1.00067	0.109662
2	1	False	15	2	1	4	1.0	0.25	1.0	--	--	[2, 0, 1]	[0, 1, 2]	0.0	1.95207	client-B	--	--	--	--	--	--	0.0500249	0.483654	0.0666241	0.984101	0.0666231
2	1	False	16	0	1	2	1.0	0.135	2.0	--	--	[2, 0, 1]	[0, 1, 2]	1.0	2.73607	client-B	--	--	--	--	--	--	0.0500539	0.483662	0.0666213	0.984104	0.0666213
2	1	False	17	3	0	4	1.0	0.25	-1.0	--	--	[2, 0, 1]	[0, 1, 2]	1.0	1.18471	client-B	--	--	--	--	--	--	0.0333995	0.483658	0.0666096	0.984104	0.0666206
2	1	False	18	2	0	2	1.0	0.135	-1.0	--	--	[2, 0, 1]	[0, 1, 2]	0.0	2.20227	client-B	--	--	--	--	--	--	0.0500603	0.483658	0.0666209	0.984105	0.0666217
2	1	False	19	4	0	3	1.0	0.17	-1.0	--	--	[2, 0, 1]	[0, 1, 2]	0.0	1.90202	client-B	--	--	--	--	--	--	0.0334108	0.500326	0.0999734	0.994633	0.0666202
2	1	False	20	5	1	3	1.0	0.17	-1.0	--	--	[2, 0, 1]	[0, 1, 2]	1.0	1.11798	client-B	--	--	--	--	--	--	0.0500295	0.483654	0.0666231	0.984102	0.0666248
2	1	False	21	3	0	1	1.0	0.115	-1.0	--	--	[2, 0, 1]	[0, 1, 2]	1.0	1.31815	client-B	--	--	--	--	--	--	0.0500727	0.483643	0.0666199	0.984104	0.0666199
2	1	False	22	0	1	1	1.0	0.115	-1.0	--	--	[2, 0, 1]	[0, 1, 2]	0.0	1.48493	client-B	--	--	--	--	--	--	0.0500419	0.483656	0.0666234	0.984094	0.0666298
2	1	False	23	0	1	1	1.0	0.115	0.0	0.0	8.67483	[2, 0, 1]	[0, 1, 2]	1.0	1.83526	client-B	--	--	--	--	--	--	0.0500713	0.483675	0.0666117	0.984092	0.0665894
2	1	False	24	3	0	1	1.0	0.115	-1.0	--	--	[2, 0, 1]	[0, 1, 2]	1.0	2.58655	client-B	--	--	--	--	--	--	0.0500468	0.483656	0.0666231	0.984107	0.066616
2	1	False	25	2	0	2	1.0	0.135	-1.0	--	--	[2, 0, 1]	[0, 1, 2]	1.0	0.9178	client-B	--	--	--	--	--	--	0.0500525	0.505873	0.0938251	0.984088	0.0666227
2	1	False	26	0	1	1	1.0	0.115	1.0	--	--	[2, 0, 1]	[0, 1, 2]	0.0	3.67022	client-B	--	--	--	--	--	--	0.0333874	0.483655	0.066627	0.984103	0.066622
2	1	False	27	4	0	3	1.0	0.17	-1.0	--	--	[2, 0, 1]	[0, 1, 2]	1.0	1.53495	client-B	--	--	--	--	--	--	0.0500613	0.483631	0.0666086	0.984132	0.0666195
2	1	False	28	3	0	4	1.0	0.25	2.0	--	--	[2, 0, 1]	[0, 1, 2]	0.0	2.41913	client-B	--	--	--	--	--	--	0.0333765	0.483656	0.0666206	0.984104	0.0666114
2	1	False	29	0	1	2	1.0	0.135	0.0	1.0	19.7075	[2, 0, 1]	[0, 1, 2]	1.0	1.83522	client-B	--	--	--	--	--	--	0.0333655	0.483657	0.0666185	0.984105	0.0666238
2	1	False	30	5	1	3	1.0	0.17	1.0	--	--	[2, 0, 1]	[0, 1, 2]	1.0	4.60435	client-B	--	--	--	--	--	--	0.05009	0.500346	0.0937423	0.984111	0.0666209
2	1	False	31	3	0	1	1.0	0.115	2.0	--	--	[2, 0, 1]	[0, 1, 2]	0.0	1.63513	client-B	--	--	--	--	--	--	0.0500249	0.483653	0.0666273	0.984109	0.066611
2	1	False	32	3	0	4	1.0	0.25	0.0	0.0	7.54674	[2, 0, 1]	[0, 1, 2]	0.0	2.56927	client-B	--	--	--	--	--	--	0.0500412	0.483657	0.0666231	0.984104	0.0666238
0	2	False	1	4	0	4	1.0	0.25	-1.0	--	--	[1, 2, 0]	[0, 1, 2]	--	--	--	--	--	--	0.0	1.88526	client-B	0.0334005	0.500268	0.099962	1.0008	0.110418
0	2	False	2	5	1	2	1.0	0.135	-1.0	--	--	[1, 2, 0]	[0, 1, 2]	--	--	--	--	--	--	0.0	1.20139	client-B	0.066725	0.505865	0.109626	0.984984	0.0666188
0	2	False	3	1	1	4	1.0	0.25	-1.0	--	--	[1, 2, 0]	[0, 1, 2]	--	--	--	--	--	--	1.0	1.28479	client-B	0.0500663	0.483655	0.0666273	0.984103	0.066622
0	2	False	4	5	0	3	1.0	0.17	-1.0	--	--	[1, 2, 0]	[0, 1, 2]	--	--	--	--	--	--	1.0	1.31817	client-B	0.0333981	0.483656	0.0666163	0.984099	0.0666199
0	2	False	5	5	1	2	1.0	0.135	-1.0	--	--	[1, 2, 0]	[0, 1, 2]	--	--	--	--	--	--	1.0	1.56837	client-B	0.0333637	0.483658	0.0666071	0.984104	0.0666217
0	2	False	6	5	1	2	1.0	0.135	1.0	--	--	[1, 2, 0]	[0, 1, 2]	--	--	--	--	--	--	0.0	0.851061	client-B	0.033385	0.483657	0.066622	0.984103	0.0832814
0	2	False	7	4	0	2	1.0	0.135	-1.0	--	--	[1, 2, 0]	[0, 1, 2]	--	--	--	--	--	--	1.0	1.46829	client-B	0.0333828	0.483656	0.0666386	0.984067	0.0666202
0	2	False	8	1	1	4	1.0	0.25	-1.0	--	--	[1, 2, 0]	[0, 1, 2]	--	--	--	--	--	--	1.0	2.53592	client-B	0.0333998	0.483658	0.0666206	0.984102	0.0666167
0	2	False	9	0	0	1	1.0	0.115	-1.0	--	--	[1, 2, 0]	[0, 1, 2]	--	--	--	--	--	--	1.0	2.78612	client-B	0.033368	0.494172	0.0666209	0.984106	0.0666121
0	2	False	10	1	1	3	1.0	0.17	2.0	0.0	3.4202	[1, 2, 0]	[0, 1, 2]	--	--	--	--	--	--	0.0	0.584184	client-B	0.0333634	0.483657	0.0666075	0.984104	0.0666206
0	2	False	11	0	0	1	1.0	0.115	0.0	--	--	[1, 2, 0]	[0, 1, 2]	--	--	--	--	--	--	1.0	1.68523	client-B	0.0500589	0.483658	0.066616	0.9841	0.0666259
0	2	False	12	1	1	4	1.0	0.25	1.0	--	--	[1, 2, 0]	[0, 1, 2]	--	--	--	--	--	--	1.0	1.70191	client-B	0.0333899	0.483655	0.0666047	0.984098	0.0666245
0	2	False	13	0	0	1	1.0	0.115	2.0	0.0	4.23759	[1, 2, 0]	[0, 1, 2]	--	--	--	--	--	--	0.0	2.87511	client-B	0.0333828	0.483658	0.0666163	0.984739	0.0665813
0	2	False	14	4	0	2	1.0	0.135	0.0	--	--	[1, 2, 0]	[0, 1, 2]	--	--	--	--	--	--	1.0	1.06876	client-B	0.049923	0.50028	0.0999659	1.00079	0.109668
0	2	False	15	0	0	1	1.0	0.115	-1.0	--	--	[1, 2, 0]	[0, 1, 2]	--	--	--	--	--	--	0.0	2.43581	client-B	0.0333733	0.483654	0.0666234	0.9841	0.0666266
0	2	False	16	0	1	1	1.0	0.115	-1.0	--	--	[1, 2, 0]	[0, 1, 2]	--	--	--	--	--	--	1.0	1.90201	client-B	0.033363	0.483656	0.0666238	0.984111	0.0666043
0	2	False	17	4	0	4	1.0	0.25	1.0	--	--	[1, 2, 0]	[0, 1, 2]	--	--	--	--	--	--	0.0	1.13529	client-B	0.0500171	0.483657	0.0666096	0.984103	0.0666227
0	2	False	18	4	0	4	1.0	0.25	-1.0	--	--	[1, 2, 0]	[0, 1, 2]	--	--	--	--	--	--	0.0	1.20138	client-B	0.033391	0.500332	0.0999631	0.994635	0.0666167
0	2	False	19	4	0	4	1.0	0.25	-1.0	--	--	[1, 2, 0]	[0, 1, 2]	--	--	--	--	--	--	0.0	1.25143	client-B	0.0333768	0.483656	0.066651	0.984068	0.0666202
0	2	False	20	1	1	4	1.0	0.25	-1.0	--	--	[1, 2, 0]	[0, 1, 2]	--	--	--	--	--	--	1.0	0.967843	client-B	0.0333754	0.483653	0.0666252	0.984105	0.0666213
0	2	False	21	1	1	3	1.0	0.17	-1.0	--	--	[1, 2, 0]	[0, 1, 2]	--	--	--	--	--	--	1.0	2.36905	client-B	0.0333747	0.483657	0.066622	0.98412	0.0666135
0	2	False	22	1	1	3	1.0	0.17	2.0	0.0	5.22172	[1, 2, 0]	[0, 1, 2]	--	--	--	--	--	--	0.0	0.951174	client-B	0.0333641	0.483655	0.066617	0.984103	0.06661
0	2	False	23	5	0	3	1.0	0.17	-1.0	--	--	[1, 2, 0]	[0, 1, 2]	--	--	--	--	--	--	1.0	2.36967	client-B	0.0333673	0.483654	0.0666238	0.984106	0.0666234
0	2	False	24	4	0	2	1.0	0.135	0.0	--	--	[1, 2, 0]	[0, 1, 2]	--	--	--	--	--	--	0.0	0.951167	client-B	0.0333913	0.505868	0.0999999	0.99461	0.0666202
0	2	False	25	5	1	2	1.0	0.135	1.0	--	--	[1, 2, 0]	[0, 1, 2]	--	--	--	--	--	--	0.0	1.20139	client-B	0.0667381	0.483649	0.0666252	0.984103	0.0666206
0	2	False	26	4	0	2	1.0	0.135	-1.0	--	--	[1, 2, 0]	[0, 1, 2]	--	--	--	--	--	--	1.0	2.73608	client-B	0.0333641	0.483654	0.0666195	0.984104	0.0666241
0	2	False	27	0	1	1	1.0	0.115	-1.0	--	--	[1, 2, 0]	[0, 1, 2]	--	--	--	--	--	--	0.0	1.7352	client-B	0.0333846	0.483655	0.0666213	0.984107	0.0666128
0	2	False	28	0	1	1	1.0	0.115	2.0	1.0	4.00954	[1, 2, 0]	[0, 1, 2]	--	--	--	--	--	--	1.0	2.03545	client-B	0.0333772	0.483666	0.0666078	0.984109	0.0666199
0	2	False	29	5	0	3	1.0	0.17	-1.0	--	--	[1, 2, 0]	[0, 1, 2]	--	--	--	--	--	--	0.0	2.43579	client-B	0.0333882	0.500349	0.0937819	0.98409	0.0666252
0	2	False	30	5	0	3	1.0	0.17	0.0	--	--	[1, 2, 0]	[0, 1, 2]	--	--	--	--	--	--	0.0	0.95117	client-B	0.0333655	0.483655	0.066622	0.984105	0.0666209
0	2	False	31	1	1	3	1.0	0.17	1.0	--	--	[1, 2, 0]	[0, 1, 2]	--	--	--	--	--	--	1.0	0.784346	client-B	0.0333655	0.483644	0.0666241	0.984103	0.0666217
0	2	False	32	0	1	1	1.0	0.115	-1.0	--	--	[1, 2, 0]	[0, 1, 2]	--	--	--	--	--	--	1.0	1.63508	client-B	0.0333761	0.483677	0.0666001	0.984116	0.0665856
1	2	False	1	0	0	3	1.0	0.17	-1.0	--	--	[1, 2, 0]	[0, 1, 2]	--	--	--	--	--	--	1.0	3.52014	client-B	0.0333818	0.500288	0.0937844	0.984046	0.0666029
1	2	False	2	3	0	1	1.0	0.115	-1.0	--	--	[1, 2, 0]	[0, 1, 2]	--	--	--	--	--	--	1.0	2.21893	client-B	0.0333623	0.483653	0.0666121	0.984109	0.0666086
1	2	False	3	2	1	4	1.0	0.25	-1.0	--	--	[1, 2, 0]	[0, 1, 2]	--	--	--	--	--	--	1.0	1.4516	client-B	0.0333662	0.483654	0.0666188	0.984104	0.0666393
1	2	False	4	2	1	4	1.0	0.25	-1.0	--	--	[1, 2, 0]	[0, 1, 2]	--	--	--	--	--	--	1.0	1.03458	client-B	0.0333651	0.483659	0.0666209	0.984084	0.0666255
1	2	False	5	0	0	4	1.0	0.25	2.0	0.0	3.98736	[1, 2, 0]	[0, 1, 2]	--	--	--	--	--	--	0.0	0.734309	client-B	0.0333768	0.483664	0.0665912	0.984095	0.0666277
1	2	False	6	1	1	1	1.0	0.115	-1.0	--	--	[1, 2, 0]	[0, 1, 2]	--	--	--	--	--	--	1.0	1.46831	client-B	0.0333864	0.483656	0.0666252	0.9841	0.0666139
1	2	False	7	3	0	1	1.0	0.115	-1.0	--	--	[1, 2, 0]	[0, 1, 2]	--	--	--	--	--	--	1.0	1.50165	client-B	0.0333722	0.483656	0.0666263	0.984102	0.0666238
1	2	False	8	3	1	3	1.0	0.17	0.0	--	--	[1, 2, 0]	[0, 1, 2]	--	--	--	--	--	--	1.0	1.68516	client-B	0.050061	0.483655	0.0666206	0.984102	0.0666209
1	2	False	9	2	1	2	1.0	0.135	-1.0	--	--	[1, 2, 0]	[0, 1, 2]	--	--	--	--	--	--	0.0	1.36821	client-B	0.0333885	0.494158	0.0666347	0.984088	0.0666163
1	2	False	10	2	1	4	1.0	0.25	-1.0	--	--	[1, 2, 0]	[0, 1, 2]	--	--	--	--	--	--	1.0	2.31903	client-B	0.033374	0.483678	0.0665891	0.984103	0.0666153
1	2	False	11	0	0	2	1.0	0.135	-1.0	--	--	[1, 2, 0]	[0, 1, 2]	--	--	--	--	--	--	1.0	1.71853	client-B	0.0333768	0.483653	0.0666078	0.984097	0.0666107
1	2	False	12	0	0	4	1.0	0.25	1.0	--	--	[1, 2, 0]	[0, 1, 2]	--	--	--	--	--	--	0.0	1.40156	client-B	0.0333651	0.483657	0.0666061	0.984106	0.0666319
1	2	False	13	3	0	1	1.0	0.115	2.0	0.0	5.88907	[1, 2, 0]	[0, 1, 2]	--	--	--	--	--	--	0.0	2.03608	client-B	0.0333673	0.483656	0.0666277	0.984088	0.0666132
1	2	False	14	2	1	2	1.0	0.135	-1.0	--	--	[1, 2, 0]	[0, 1, 2]	--	--	--	--	--	--	1.0	1.13464	client-B	0.050153	0.500234	0.0999737	0.994655	0.0666029
1	2	False	15	1	1	1	1.0	0.115	-1.0	--	--	[1, 2, 0]	[0, 1, 2]	--	--	--	--	--	--	1.0	3.11976	client-B	0.0333669	0.483656	0.0666217	0.984101	0.0666043
1	2	False	16	3	1	3	1.0	0.17	-1.0	--	--	[1, 2, 0]	[0, 1, 2]	--	--	--	--	--	--	1.0	2.43578	client-B	0.0333782	0.483653	0.0666209	0.984127	0.0665926
1	2	False	17	1	1	1	1.0	0.115	-1.0	--	--	[1, 2, 0]	[0, 1, 2]	--	--	--	--	--	--	0.0	2.21895	client-B	0.0333676	0.483658	0.06661	0.984101	0.0666245
1	2	False	18	2	1	2	1.0	0.135	0.0	--	--	[1, 2, 0]	[0, 1, 2]	--	--	--	--	--	--	0.0	1.23475	client-B	0.0333701	0.483657	0.0666209	0.984103	0.0666213
1	2	False	19	0	0	3	1.0	0.17	-1.0	--	--	[1, 2, 0]	[0, 1, 2]	--	--	--	--	--	--	1.0	3.54239	client-B	0.033379	0.483656	0.0666224	0.984103	0.0666188
1	2	False	20	0	0	3	1.0	0.17	-1.0	--	--	[1, 2, 0]	[0, 1, 2]	--	--	--	--	--	--	1.0	1.85197	client-B	0.0334002	0.500325	0.0999822	0.994625	0.0666178
1	2	False	21	1	1	1	1.0	0.115	1.0	--	--	[1, 2, 0]	[0, 1, 2]	--	--	--	--	--	--	0.0	3.13644	client-B	0.0333722	0.483659	0.066622	0.984116	0.0666089
1	2	False	22	0	0	4	1.0	0.25	2.0	0.0	5.87235	[1, 2, 0]	[0, 1, 2]	--	--	--	--	--	--	0.0	4.25409	client-B	0.0333814	0.483658	0.0666241	0.984095	0.0666259
1	2	False	23	2	1	4	1.0	0.25	-1.0	--	--	[1, 2, 0]	[0, 1, 2]	--	--	--	--	--	--	1.0	1.1013	client-B	0.0333882	0.484279	0.0666231	0.984102	0.0666209
1	2	False	24	3	1	3	1.0	0.17	-1.0	--	--	[1, 2, 0]	[0, 1, 2]	--	--	--	--	--	--	1.0	2.86954	client-B	0.0333906	0.500287	0.0999918	0.994635	0.0666227
1	2	False	25	0	0	2	1.0	0.135	0.0	--	--	[1, 2, 0]	[0, 1, 2]	--	--	--	--	--	--	0.0	1.50165	client-B	0.0500596	0.483657	0.0666234	0.984102	0.0666248
1	2	False	26	3	0	1	1.0	0.115	1.0	--	--	[1, 2, 0]	[0, 1, 2]	--	--	--	--	--	--	1.0	1.33484	client-B	0.033385	0.483656	0.0666298	0.984097	0.0666146
1	2	False	27	3	1	3	1.0	0.17	-1.0	--	--	[1, 2, 0]	[0, 1, 2]	--	--	--	--	--	--	1.0	2.31905	client-B	0.0333655	0.483641	0.0666086	0.984103	0.0666227
1	2	False	28	0	0	2	1.0	0.135	-1.0	--	--	[1, 2, 0]	[0, 1, 2]	--	--	--	--	--	--	1.0	2.2356	client-B	0.0333846	0.483636	0.0666209	0.984106	0.0666209
1	2	False	29	2	1	2	1.0	0.135	-1.0	--	--	[1, 2, 0]	[0, 1, 2]	--	--	--	--	--	--	1.0	1.93537	client-B	0.0500571	0.483655	0.0666231	0.984102	0.0666206
1	2	False	30	0	0	3	1.0	0.17	2.0	0.0	3.92062	[1, 2, 0]	[0, 1, 2]	--	--	--	--	--	--	0.0	2.10217	client-B	0.0334954	0.500195	0.0771537	0.984096	0.066628
1	2	False	31	0	0	4	1.0	0.25	-1.0	--	--	[1, 2, 0]	[0, 1, 2]	--	--	--	--	--	--	0.0	0.984528	client-B	0.0333828	0.483655	0.0666206	0.984106	0.0666217
1	2	False	32	0	0	2	1.0	0.135	-1.0	--	--	[1, 2, 0]	[0, 1, 2]	--	--	--	--	--	--	0.0	1.41824	client-B	0.0333676	0.483654	0.0666217	0.9841	0.0666277
2	2	False	1	4	0	1	1.0	0.115	0.0	--	--	[1, 2, 0]	[0, 1, 2]	--	--	--	--	--	--	0.0	1.01788	client-B	0.0500493	0.48361	0.0665894	0.984076	0.0665912
2	2	False	2	2	1	1	1.0	0.115	-1.0	--	--	[1, 2, 0]	[0, 1, 2]	--	--	--	--	--	--	0.0	1.41826	client-B	0.033391	0.483637	0.0666234	0.984105	0.0666096
2	2	False	3	4	0	1	1.0	0.115	-1.0	--	--	[1, 2, 0]	[0, 1, 2]	--	--	--	--	--	--	1.0	1.41828	client-B	0.0500536	0.483644	0.0666263	0.984732	0.0666199
2	2	False	4	1	0	4	1.0	0.25	-1.0	--	--	[1, 2, 0]	[0, 1, 2]	--	--	--	--	--	--	1.0	1.16804	client-B	0.0333591	0.500346	0.0999783	0.994627	0.0666227
2	2	False	5	2	1	4	1.0	0.25	1.0	--	--	[1, 2, 0]	[0, 1, 2]	--	--	--	--	--	--	1.0	1.33484	client-B	0.0333694	0.483652	0.066616	0.984107	0.066611
2	2	False	6	4	1	2	1.0	0.135	2.0	1.0	8.34119	[1, 2, 0]	[0, 1, 2]	--	--	--	--	--	--	0.0	1.45162	client-B	0.0333804	0.483661	0.0666195	0.984099	0.0666142
2	2	False	7	2	1	1	1.0	0.115	0.0	--	--	[1, 2, 0]	[0, 1, 2]	--	--	--	--	--	--	1.0	1.23475	client-B	0.0333659	0.483655	0.0666245	0.984117	0.0665972
2	2	False	8	4	1	3	1.0	0.17	-1.0	--	--	[1, 2, 0]	[0, 1, 2]	--	--	--	--	--	--	1.0	1.88533	client-B	0.0333634	0.483656	0.0666231	0.984732	0.0666117
2	2	False	9	2	0	2	1.0	0.135	-1.0	--	--	[1, 2, 0]	[0, 1, 2]	--	--	--	--	--	--	1.0	1.35153	client-B	0.0333627	0.50031	0.094358	0.983553	0.0666227
2	2	False	10	2	1	1	1.0	0.115	1.0	--	--	[1, 2, 0]	[0, 1, 2]	--	--	--	--	--	--	1.0	1.80192	client-B	0.0333853	0.483648	0.066611	0.984105	0.0665965
2	2	False	11	1	0	4	1.0	0.25	2.0	1.0	6.0058	[1, 2, 0]	[0, 1, 2]	--	--	--	--	--	--	0.0	0.817777	client-B	0.0333641	0.483668	0.0666117	0.984103	0.0666188
2	2	False	12	4	1	3	1.0	0.17	-1.0	--	--	[1, 2, 0]	[0, 1, 2]	--	--	--	--	--	--	1.0	2.10218	client-B	0.0333644	0.483659	0.0666199	0.984104	0.0666202
2	2	False	13	4	0	3	1.0	0.17	-1.0	--	--	[1, 2, 0]	[0, 1, 2]	--	--	--	--	--	--	1.0	2.21903	client-B	0.0333768	0.483657	0.0666206	0.984105	0.0666227
2	2	False	14	2	0	2	1.0	0.135	0.0	--	--	[1, 2, 0]	[0, 1, 2]	--	--	--	--	--	--	0.0	1.6518	client-B	0.0333793	0.483659	0.0666213	0.984105	0.0666231
2	2	False	15	2	1	4	1.0	0.25	1.0	--	--	[1, 2, 0]	[0, 1, 2]	--	--	--	--	--	--	1.0	3.67024	client-B	0.0334002	0.500318	0.0943556	0.983571	0.0666255
2	2	False	16	4	0	3	1.0	0.17	-1.0	--	--	[1, 2, 0]	[0, 1, 2]	--	--	--	--	--	--	1.0	1.08461	client-B	0.0333867	0.483677	0.0666213	0.984089	0.0666192
2	2	False	17	4	1	2	1.0	0.135	2.0	0.0	4.28828	[1, 2, 0]	[0, 1, 2]	--	--	--	--	--	--	1.0	2.18559	client-B	0.0333839	0.483655	0.0666252	0.984103	0.0666224
2	2	False	18	1	0	4	1.0	0.25	0.0	--	--	[1, 2, 0]	[0, 1, 2]	--	--	--	--	--	--	0.0	1.05126	client-B	0.0500684	0.505908	0.0999429	0.994625	0.0666132
2	2	False	19	4	0	3	1.0	0.17	-1.0	--	--	[1, 2, 0]	[0, 1, 2]	--	--	--	--	--	--	1.0	2.8028	client-B	0.0333747	0.483655	0.0666255	0.984102	0.0666192
2	2	False	20	4	1	3	1.0	0.17	-1.0	--	--	[1, 2, 0]	[0, 1, 2]	--	--	--	--	--	--	1.0	1.98542	client-B	0.033374	0.483656	0.0666089	0.984106	0.066622
2	2	False	21	2	0	2	1.0	0.135	-1.0	--	--	[1, 2, 0]	[0, 1, 2]	--	--	--	--	--	--	1.0	1.73523	client-B	0.0333754	0.483657	0.0666107	0.984099	0.0666252
2	2	False	22	4	0	1	1.0	0.115	-1.0	--	--	[1, 2, 0]	[0, 1, 2]	--	--	--	--	--	--	0.0	1.53501	client-B	0.0333729	0.483646	0.0666125	0.984108	0.0666188
2	2	False	23	2	1	4	1.0	0.25	1.0	--	--	[1, 2, 0]	[0, 1, 2]	--	--	--	--	--	--	1.0	1.36821	client-B	0.0333765	0.483655	0.0666224	0.9841	0.0666047
2	2	False	24	2	1	1	1.0	0.115	-1.0	--	--	[1, 2, 0]	[0, 1, 2]	--	--	--	--	--	--	0.0	1.15134	client-B	0.0334961	0.500209	0.10966	0.984934	0.0666337
2	2	False	25	2	1	4	1.0	0.25	-1.0	--	--	[1, 2, 0]	[0, 1, 2]	--	--	--	--	--	--	1.0	1.56838	client-B	0.033363	0.483655	0.0666273	0.984101	0.0666121
2	2	False	26	4	1	2	1.0	0.135	2.0	1.0	5.15505	[1, 2, 0]	[0, 1, 2]	--	--	--	--	--	--	1.0	1.06796	client-B	0.0333832	0.483654	0.0666227	0.984104	0.066611
2	2	False	27	4	1	2	1.0	0.135	0.0	--	--	[1, 2, 0]	[0, 1, 2]	--	--	--	--	--	--	0.0	1.98541	client-B	0.0500369	0.483656	0.0666139	0.984105	0.0666209
2	2	False	28	4	1	3	1.0	0.17	-1.0	--	--	[1, 2, 0]	[0, 1, 2]	--	--	--	--	--	--	1.0	1.28487	client-B	0.0333889	0.483657	0.0666209	0.984103	0.0666132
2	2	False	29	4	0	1	1.0	0.115	-1.0	--	--	[1, 2, 0]	[0, 1, 2]	--	--	--	--	--	--	1.0	1.58507	client-B	0.0333715	0.483644	0.0666234	0.9841	0.0666057
2	2	False	30	2	0	2	1.0	0.135	-1.0	--	--	[1, 2, 0]	[0, 1, 2]	--	--	--	--	--	--	1.0	2.0855	client-B	0.0333637	0.483656	0.0666241	0.984106	0.0666139
2	2	False	31	1	0	4	1.0	0.25	1.0	--	--	[1, 2, 0]	[0, 1, 2]	--	--	--	--	--	--	0.0	2.10219	client-B	0.0333807	0.483658	0.066622	0.9841	0.0666132
2	2	False	32	4	0	3	1.0	0.17	2.0	0.0	6.75646	[1, 2, 0]	[0, 1, 2]	--	--	--	--	--	--	0.0	2.16898	client-B	0.0335736	0.500148	0.0999978	0.994596	0.0666248
