subblock_no	block_no	practice	TrialNumber	target_pos	target_screen_nr	contrast_idx	ran	contrast	group_dec_maker	group_dec	group_dec_rt	participants	feedback_texts_order	0_indiv_dec	0_indiv_dec_rt	0_client	1_indiv_dec	1_indiv_dec_rt	1_client	2_indiv_dec	2_indiv_dec_rt	2_client
0	0	True	1	0	0	2	1.0	0.135	-1.0	0.0	-1.0	[0, 1, 2]	[0, 1, 2]	0.0	12.8511	client-A	0.0	20.5914	client-B	0.0	27.2297	client-C
0	0	True	2	1	1	3	1.0	0.17	0.0	0.0	22.5931	[0, 1, 2]	[0, 1, 2]	1.0	13.8458	client-A	0.0	11.0935	client-B	0.0	11.9106	client-C
0	0	True	3	2	0	3	1.0	0.17	1.0	1.0	14.2298	[0, 1, 2]	[0, 1, 2]	0.0	7.10655	client-A	0.0	58.9754	client-B	1.0	1.18466	client-C
0	0	True	4	2	1	1	1.0	0.115	2.0	1.0	23.0035	[0, 1, 2]	[0, 1, 2]	1.0	20.2237	client-A	0.0	39.5749	client-B	1.0	8.54717	client-C
0	0	True	5	0	0	4	1.0	0.25	0.0	1.0	14.4298	[0, 1, 2]	[0, 1, 2]	0.0	7.14608	client-A	1.0	8.33049	client-B	1.0	7.16257	client-C
0	0	True	6	1	0	1	1.0	0.115	1.0	1.0	9.09186	[0, 1, 2]	[0, 1, 2]	0.0	2.28562	client-A	1.0	1.51834	client-B	1.0	3.75352	client-C
0	0	True	7	5	1	4	1.0	0.25	2.0	0.0	24.0934	[0, 1, 2]	[0, 1, 2]	0.0	4.50499	client-A	1.0	2.5025	client-B	1.0	3.58671	client-C
0	0	True	8	2	1	2	1.0	0.135	0.0	1.0	14.0794	[0, 1, 2]	[0, 1, 2]	0.0	4.05385	client-A	1.0	4.78787	client-B	1.0	26.4121	client-C
0	0	False	1	1	0	3	1.0	0.17	0.0	1.0	9.97649	[0, 1, 2]	[0, 1, 2]	0.0	2.01874	client-A	1.0	1.56846	client-B	1.0	0.400282	client-C
0	0	False	2	4	0	2	1.0	0.135	1.0	1.0	9.47553	[0, 1, 2]	[0, 1, 2]	0.0	2.35237	client-A	1.0	3.10273	client-B	1.0	1.11792	client-C
0	0	False	3	5	1	3	1.0	0.17	-1.0	1.0	-1.0	[0, 1, 2]	[0, 1, 2]	1.0	1.41825	client-A	1.0	8.6246	client-B	1.0	2.786	client-C
0	0	False	4	4	1	2	1.0	0.135	2.0	0.0	17.555	[0, 1, 2]	[0, 1, 2]	1.0	1.13464	client-A	1.0	2.81947	client-B	0.0	3.83695	client-C
0	0	False	5	5	0	1	1.0	0.115	0.0	0.0	7.37362	[0, 1, 2]	[0, 1, 2]	1.0	1.40154	client-A	0.0	3.63687	client-B	0.0	2.71928	client-C
0	0	False	6	1	0	3	1.0	0.17	1.0	1.0	7.64057	[0, 1, 2]	[0, 1, 2]	1.0	4.47091	client-A	0.0	1.7185	client-B	1.0	2.06877	client-C
0	0	False	7	1	0	3	1.0	0.17	-1.0	0.0	-1.0	[0, 1, 2]	[0, 1, 2]	0.0	1.36822	client-A	0.0	1.25138	client-B	0.0	9.96497	client-C
0	0	False	8	1	0	3	1.0	0.17	2.0	1.0	8.97479	[0, 1, 2]	[0, 1, 2]	0.0	2.45248	client-A	1.0	1.50168	client-B	1.0	3.15299	client-C
0	0	False	9	4	0	2	1.0	0.135	-1.0	1.0	-1.0	[0, 1, 2]	[0, 1, 2]	1.0	3.87038	client-A	1.0	2.45248	client-B	1.0	2.68593	client-C
0	0	False	10	4	0	2	1.0	0.135	0.0	0.0	5.75545	[0, 1, 2]	[0, 1, 2]	1.0	1.40151	client-A	0.0	1.25141	client-B	0.0	3.58672	client-C
0	0	False	11	5	0	1	1.0	0.115	1.0	1.0	5.17175	[0, 1, 2]	[0, 1, 2]	1.0	2.95351	client-A	1.0	1.01788	client-B	0.0	1.30139	client-C
0	0	False	12	4	0	2	1.0	0.135	2.0	1.0	10.0758	[0, 1, 2]	[0, 1, 2]	1.0	1.08457	client-A	0.0	1.68461	client-B	1.0	2.78611	client-C
0	0	False	13	1	1	1	1.0	0.115	0.0	0.0	9.62558	[0, 1, 2]	[0, 1, 2]	0.0	3.65346	client-A	0.0	5.25495	client-B	1.0	2.35229	client-C
0	0	False	14	5	0	4	1.0	0.25	1.0	0.0	9.39228	[0, 1, 2]	[0, 1, 2]	1.0	2.41911	client-A	0.0	3.24205	client-B	0.0	7.9794	client-C
0	0	False	15	4	1	2	1.0	0.135	2.0	1.0	6.23914	[0, 1, 2]	[0, 1, 2]	1.0	1.70181	client-A	0.0	4.38753	client-B	1.0	2.40232	client-C
0	0	False	16	1	1	1	1.0	0.115	-1.0	1.0	-1.0	[0, 1, 2]	[0, 1, 2]	1.0	1.53495	client-A	1.0	0.951148	client-B	1.0	2.21887	client-C
0	0	False	17	5	0	1	1.0	0.115	0.0	0.0	8.44738	[0, 1, 2]	[0, 1, 2]	1.0	1.16802	client-A	0.0	3.21979	client-B	0.0	2.83605	client-C
0	0	False	18	1	1	4	1.0	0.25	-1.0	1.0	-1.0	[0, 1, 2]	[0, 1, 2]	1.0	1.168	client-A	1.0	0.867719	client-B	1.0	0.951134	client-C
0	0	False	19	1	1	1	1.0	0.115	-1.0	1.0	-1.0	[0, 1, 2]	[0, 1, 2]	1.0	0.867765	client-A	1.0	0.717592	client-B	1.0	0.584105	client-C
0	0	False	20	5	0	4	1.0	0.25	1.0	0.0	4.93818	[0, 1, 2]	[0, 1, 2]	0.0	1.40156	client-A	1.0	1.30146	client-B	0.0	1.71844	client-C
0	0	False	21	4	1	2	1.0	0.135	2.0	1.0	7.49025	[0, 1, 2]	[0, 1, 2]	1.0	1.6518	client-A	1.0	0.750974	client-B	0.0	3.03618	client-C
0	0	False	22	1	1	4	1.0	0.25	0.0	1.0	5.20504	[0, 1, 2]	[0, 1, 2]	0.0	2.48649	client-A	1.0	0.817676	client-B	1.0	0.901091	client-C
0	0	False	23	5	1	3	1.0	0.17	-1.0	1.0	-1.0	[0, 1, 2]	[0, 1, 2]	1.0	1.66844	client-A	1.0	0.917797	client-B	1.0	1.23466	client-C
0	0	False	24	5	0	1	1.0	0.115	-1.0	1.0	-1.0	[0, 1, 2]	[0, 1, 2]	1.0	1.40151	client-A	1.0	0.901059	client-B	1.0	1.08454	client-C
0	0	False	25	5	1	3	1.0	0.17	1.0	0.0	10.7266	[0, 1, 2]	[0, 1, 2]	0.0	1.85192	client-A	0.0	1.03454	client-B	1.0	1.61834	client-C
0	0	False	26	1	1	4	1.0	0.25	2.0	1.0	8.19148	[0, 1, 2]	[0, 1, 2]	0.0	3.55342	client-A	1.0	0.734296	client-B	1.0	1.06786	client-C
0	0	False	27	5	1	3	1.0	0.17	0.0	1.0	6.70632	[0, 1, 2]	[0, 1, 2]	1.0	1.45168	client-A	1.0	0.700918	client-B	0.0	2.01817	client-C
0	0	False	28	5	0	4	1.0	0.25	-1.0	1.0	-1.0	[0, 1, 2]	[0, 1, 2]	1.0	2.45249	client-A	1.0	0.700916	client-B	1.0	2.21888	client-C
0	0	False	29	5	0	4	1.0	0.25	-1.0	1.0	-1.0	[0, 1, 2]	[0, 1, 2]	1.0	1.65177	client-A	1.0	1.76854	client-B	1.0	5.62178	client-C
0	0	False	30	1	1	1	1.0	0.115	1.0	0.0	6.33941	[0, 1, 2]	[0, 1, 2]	0.0	0.984533	client-A	1.0	0.784327	client-B	0.0	1.60166	client-C
0	0	False	31	4	1	2	1.0	0.135	2.0	1.0	5.8722	[0, 1, 2]	[0, 1, 2]	1.0	1.55234	client-A	0.0	1.35149	client-B	1.0	5.86147	client-C
0	0	False	32	1	1	4	1.0	0.25	-1.0	1.0	-1.0	[0, 1, 2]	[0, 1, 2]	1.0	1.36817	client-A	1.0	0.784309	client-B	1.0	1.18464	client-C
1	0	False	1	0	1	2	1.0	0.135	0.0	1.0	6.70631	[0, 1, 2]	[0, 1, 2]	0.0	2.13542	client-A	1.0	1.10122	client-B	1.0	1.9019	client-C
1	0	False	2	2	0	1	1.0	0.115	-1.0	1.0	-1.0	[0, 1, 2]	[0, 1, 2]	1.0	2.73604	client-A	1.0	1.31814	client-B	1.0	1.78515	client-C
1	0	False	3	0	1	1	1.0	0.115	1.0	0.0	6.22327	[0, 1, 2]	[0, 1, 2]	0.0	1.28472	client-A	1.0	1.55166	client-B	0.0	2.1021	client-C
1	0	False	4	5	0	4	1.0	0.25	-1.0	1.0	-1.0	[0, 1, 2]	[0, 1, 2]	1.0	0.984462	client-A	1.0	0.700927	client-B	1.0	1.46788	client-C
1	0	False	5	0	0	2	1.0	0.135	-1.0	1.0	-1.0	[0, 1, 2]	[0, 1, 2]	1.0	1.43492	client-A	1.0	1.2848	client-B	1.0	1.11789	client-C
1	0	False	6	0	1	1	1.0	0.115	2.0	1.0	5.50518	[0, 1, 2]	[0, 1, 2]	0.0	1.13465	client-A	1.0	0.951126	client-B	1.0	1.41817	client-C
1	0	False	7	0	0	2	1.0	0.135	0.0	0.0	6.67295	[0, 1, 2]	[0, 1, 2]	0.0	2.06878	client-A	1.0	0.700898	client-B	0.0	2.41907	client-C
1	0	False	8	4	0	3	1.0	0.17	1.0	1.0	6.15651	[0, 1, 2]	[0, 1, 2]	1.0	3.0363	client-A	0.0	1.7185	client-B	1.0	1.41814	client-C
1	0	False	9	5	0	4	1.0	0.25	2.0	1.0	7.85718	[0, 1, 2]	[0, 1, 2]	0.0	1.71848	client-A	0.0	2.85279	client-B	1.0	0.994861	client-C
1	0	False	10	0	1	2	1.0	0.135	0.0	0.0	5.85556	[0, 1, 2]	[0, 1, 2]	0.0	2.76942	client-A	1.0	2.30233	client-B	0.0	2.4691	client-C
1	0	False	11	0	1	1	1.0	0.115	1.0	1.0	5.55542	[0, 1, 2]	[0, 1, 2]	0.0	3.08635	client-A	1.0	1.05122	client-B	1.0	1.00114	client-C
1	0	False	12	2	0	1	1.0	0.115	2.0	1.0	4.32088	[0, 1, 2]	[0, 1, 2]	1.0	1.50162	client-A	0.0	1.75247	client-B	1.0	1.66904	client-C
1	0	False	13	2	1	3	1.0	0.17	0.0	1.0	5.53869	[0, 1, 2]	[0, 1, 2]	0.0	2.05211	client-A	1.0	1.13459	client-B	1.0	2.8694	client-C
1	0	False	14	0	1	2	1.0	0.135	1.0	1.0	4.92156	[0, 1, 2]	[0, 1, 2]	0.0	3.55339	client-A	1.0	0.73429	client-B	1.0	1.25134	client-C
1	0	False	15	2	1	3	1.0	0.17	2.0	1.0	5.03873	[0, 1, 2]	[0, 1, 2]	0.0	3.55337	client-A	1.0	1.18467	client-B	1.0	1.15134	client-C
1	0	False	16	2	0	1	1.0	0.115	0.0	1.0	5.25515	[0, 1, 2]	[0, 1, 2]	1.0	1.70182	client-A	1.0	0.851071	client-B	0.0	1.63501	client-C
1	0	False	17	4	0	3	1.0	0.17	1.0	1.0	7.27357	[0, 1, 2]	[0, 1, 2]	1.0	3.11966	client-A	1.0	1.01787	client-B	0.0	1.61803	client-C
1	0	False	18	0	1	2	1.0	0.135	-1.0	1.0	-1.0	[0, 1, 2]	[0, 1, 2]	1.0	1.635	client-A	1.0	1.11796	client-B	1.0	1.73513	client-C
1	0	False	19	5	1	4	1.0	0.25	-1.0	1.0	-1.0	[0, 1, 2]	[0, 1, 2]	1.0	0.8677	client-A	1.0	0.517407	client-B	1.0	0.934404	client-C
1	0	False	20	5	1	4	1.0	0.25	-1.0	1.0	-1.0	[0, 1, 2]	[0, 1, 2]	1.0	0.867754	client-A	1.0	0.734282	client-B	1.0	1.00114	client-C
1	0	False	21	0	1	1	1.0	0.115	2.0	0.0	5.6557	[0, 1, 2]	[0, 1, 2]	1.0	0.717613	client-A	0.0	0.95113	client-B	0.0	1.65181	client-C
1	0	False	22	5	0	4	1.0	0.25	-1.0	1.0	-1.0	[0, 1, 2]	[0, 1, 2]	1.0	1.218	client-A	1.0	2.03548	client-B	1.0	2.40237	client-C
1	0	False	23	0	0	2	1.0	0.135	-1.0	1.0	-1.0	[0, 1, 2]	[0, 1, 2]	1.0	1.06791	client-A	1.0	1.88533	client-B	1.0	1.00115	client-C
1	0	False	24	0	0	2	1.0	0.135	-1.0	1.0	-1.0	[0, 1, 2]	[0, 1, 2]	1.0	0.567503	client-A	1.0	1.70179	client-B	1.0	1.03448	client-C
1	0	False	25	4	0	3	1.0	0.17	0.0	0.0	6.37271	[0, 1, 2]	[0, 1, 2]	0.0	0.901049	client-A	1.0	1.25148	client-B	0.0	1.18465	client-C
1	0	False	26	5	1	4	1.0	0.25	1.0	1.0	6.93994	[0, 1, 2]	[0, 1, 2]	1.0	1.05123	client-A	0.0	1.43489	client-B	1.0	0.834341	client-C
1	0	False	27	5	1	4	1.0	0.25	2.0	1.0	5.67814	[0, 1, 2]	[0, 1, 2]	0.0	1.81854	client-A	0.0	2.66933	client-B	1.0	0.884419	client-C
1	0	False	28	2	1	3	1.0	0.17	-1.0	1.0	-1.0	[0, 1, 2]	[0, 1, 2]	1.0	1.53494	client-A	1.0	3.53687	client-B	1.0	2.08542	client-C
1	0	False	29	4	0	3	1.0	0.17	-1.0	1.0	-1.0	[0, 1, 2]	[0, 1, 2]	1.0	1.30144	client-A	1.0	2.15226	client-B	1.0	0.784289	client-C
1	0	False	30	2	0	1	1.0	0.115	0.0	0.0	5.15498	[0, 1, 2]	[0, 1, 2]	1.0	4.93791	client-A	0.0	1.65173	client-B	0.0	1.15126	client-C
1	0	False	31	2	1	3	1.0	0.17	1.0	1.0	5.02158	[0, 1, 2]	[0, 1, 2]	1.0	1.48496	client-A	1.0	0.951168	client-B	0.0	1.23468	client-C
1	0	False	32	5	0	4	1.0	0.25	2.0	1.0	4.24359	[0, 1, 2]	[0, 1, 2]	0.0	1.1346	client-A	0.0	1.10131	client-B	1.0	1.4182	client-C
2	0	False	1	0	0	3	1.0	0.17	-1.0	1.0	-1.0	[0, 1, 2]	[0, 1, 2]	1.0	2.01867	client-A	1.0	1.20132	client-B	1.0	2.23549	client-C
2	0	False	2	1	0	4	1.0	0.25	0.0	0.0	5.28841	[0, 1, 2]	[0, 1, 2]	0.0	0.951116	client-A	0.0	0.717603	client-B	1.0	0.667556	client-C
2	0	False	3	2	1	4	1.0	0.25	1.0	1.0	3.43681	[0, 1, 2]	[0, 1, 2]	1.0	1.66843	client-A	1.0	0.817664	client-B	0.0	1.40151	client-C
2	0	False	4	0	1	3	1.0	0.17	-1.0	1.0	-1.0	[0, 1, 2]	[0, 1, 2]	1.0	1.08461	client-A	1.0	0.684217	client-B	1.0	0.917739	client-C
2	0	False	5	5	1	2	1.0	0.135	2.0	1.0	3.97053	[0, 1, 2]	[0, 1, 2]	1.0	1.15135	client-A	0.0	0.967799	client-B	1.0	0.584096	client-C
2	0	False	6	5	1	2	1.0	0.135	-1.0	1.0	-1.0	[0, 1, 2]	[0, 1, 2]	1.0	1.5183	client-A	1.0	0.984489	client-B	1.0	1.63502	client-C
2	0	False	7	1	0	4	1.0	0.25	0.0	1.0	5.57201	[0, 1, 2]	[0, 1, 2]	0.0	1.0012	client-A	1.0	1.06791	client-B	1.0	0.533747	client-C
2	0	False	8	2	0	2	1.0	0.135	1.0	1.0	4.93818	[0, 1, 2]	[0, 1, 2]	0.0	1.45153	client-A	1.0	4.28746	client-B	1.0	1.35145	client-C
2	0	False	9	5	0	1	1.0	0.115	2.0	0.0	4.48768	[0, 1, 2]	[0, 1, 2]	1.0	1.13466	client-A	0.0	1.45158	client-B	0.0	0.984638	client-C
2	0	False	10	0	1	3	1.0	0.17	0.0	1.0	4.32707	[0, 1, 2]	[0, 1, 2]	0.0	1.45161	client-A	1.0	1.11798	client-B	1.0	1.26803	client-C
2	0	False	11	0	1	3	1.0	0.17	-1.0	1.0	-1.0	[0, 1, 2]	[0, 1, 2]	1.0	2.66928	client-A	1.0	0.917238	client-B	1.0	0.600854	client-C
2	0	False	12	2	1	4	1.0	0.25	1.0	0.0	3.80383	[0, 1, 2]	[0, 1, 2]	0.0	1.40153	client-A	1.0	0.800965	client-B	0.0	1.38482	client-C
2	0	False	13	2	0	2	1.0	0.135	2.0	1.0	5.52184	[0, 1, 2]	[0, 1, 2]	0.0	2.38576	client-A	1.0	1.35149	client-B	1.0	2.26889	client-C
2	0	False	14	0	1	1	1.0	0.115	0.0	1.0	4.62118	[0, 1, 2]	[0, 1, 2]	0.0	1.00116	client-A	1.0	1.45176	client-B	1.0	1.18461	client-C
2	0	False	15	1	0	4	1.0	0.25	1.0	1.0	5.34407	[0, 1, 2]	[0, 1, 2]	0.0	1.00119	client-A	1.0	1.23533	client-B	1.0	0.217094	client-C
2	0	False	16	0	1	1	1.0	0.115	-1.0	0.0	-1.0	[0, 1, 2]	[0, 1, 2]	0.0	1.05125	client-A	0.0	1.01753	client-B	0.0	1.51828	client-C
2	0	False	17	5	0	1	1.0	0.115	-1.0	1.0	-1.0	[0, 1, 2]	[0, 1, 2]	1.0	1.68507	client-A	1.0	2.3691	client-B	1.0	2.00202	client-C
2	0	False	18	5	1	2	1.0	0.135	2.0	0.0	5.00476	[0, 1, 2]	[0, 1, 2]	1.0	1.16798	client-A	0.0	1.08456	client-B	0.0	0.901335	client-C
2	0	False	19	0	0	3	1.0	0.17	0.0	1.0	5.57202	[0, 1, 2]	[0, 1, 2]	0.0	1.83526	client-A	1.0	1.31814	client-B	1.0	1.31806	client-C
2	0	False	20	0	0	3	1.0	0.17	1.0	1.0	6.46239	[0, 1, 2]	[0, 1, 2]	1.0	1.56837	client-A	0.0	2.15226	client-B	1.0	2.45238	client-C
2	0	False	21	5	1	2	1.0	0.135	2.0	1.0	10.4428	[0, 1, 2]	[0, 1, 2]	0.0	1.85193	client-A	1.0	1.21807	client-B	0.0	2.23556	client-C
2	0	False	22	5	0	1	1.0	0.115	-1.0	1.0	-1.0	[0, 1, 2]	[0, 1, 2]	1.0	1.13464	client-A	1.0	0.817693	client-B	1.0	2.80274	client-C
2	0	False	23	2	1	4	1.0	0.25	-1.0	0.0	-1.0	[0, 1, 2]	[0, 1, 2]	0.0	1.88525	client-A	0.0	0.73427	client-B	0.0	1.13461	client-C
2	0	False	24	0	1	1	1.0	0.115	0.0	1.0	4.87144	[0, 1, 2]	[0, 1, 2]	1.0	1.23474	client-A	1.0	0.851077	client-B	0.0	1.20133	client-C
2	0	False	25	0	1	3	1.0	0.17	1.0	1.0	5.97243	[0, 1, 2]	[0, 1, 2]	0.0	5.0436	client-A	1.0	1.46822	client-B	1.0	1.18461	client-C
2	0	False	26	1	0	4	1.0	0.25	2.0	0.0	6.05564	[0, 1, 2]	[0, 1, 2]	0.0	1.41786	client-A	0.0	1.08458	client-B	1.0	0.784305	client-C
2	0	False	27	2	0	2	1.0	0.135	0.0	0.0	4.77131	[0, 1, 2]	[0, 1, 2]	0.0	1.93532	client-A	1.0	0.967817	client-B	0.0	2.60255	client-C
2	0	False	28	0	0	3	1.0	0.17	1.0	0.0	3.95459	[0, 1, 2]	[0, 1, 2]	0.0	2.28566	client-A	1.0	0.834345	client-B	0.0	0.967796	client-C
2	0	False	29	2	0	2	1.0	0.135	2.0	1.0	5.82211	[0, 1, 2]	[0, 1, 2]	0.0	1.36811	client-A	0.0	1.46694	client-B	1.0	1.45157	client-C
2	0	False	30	5	0	1	1.0	0.115	0.0	0.0	5.70547	[0, 1, 2]	[0, 1, 2]	1.0	1.80186	client-A	0.0	1.95201	client-B	0.0	1.61833	client-C
2	0	False	31	0	1	1	1.0	0.115	1.0	1.0	3.65369	[0, 1, 2]	[0, 1, 2]	0.0	2.90282	client-A	1.0	0.884422	client-B	1.0	1.43484	client-C
2	0	False	32	2	1	4	1.0	0.25	-1.0	1.0	-1.0	[0, 1, 2]	[0, 1, 2]	1.0	1.28475	client-A	1.0	0.71764	client-B	1.0	0.917758	client-C
0	1	False	1	3	0	2	1.0	0.135	2.0	1.0	4.57671	[2, 0, 1]	[0, 1, 2]	1.0	2.26843	client-B	0.0	1.68563	client-C	0.0	1.36816	client-A
0	1	False	2	3	0	2	1.0	0.135	-1.0	1.0	-1.0	[2, 0, 1]	[0, 1, 2]	1.0	1.68512	client-B	1.0	1.00118	client-C	1.0	1.41822	client-A
0	1	False	3	0	1	4	1.0	0.25	0.0	1.0	4.55449	[2, 0, 1]	[0, 1, 2]	1.0	2.10214	client-B	0.0	1.11785	client-C	1.0	0.700918	client-A
0	1	False	4	3	0	4	1.0	0.25	1.0	0.0	5.42179	[2, 0, 1]	[0, 1, 2]	0.0	0.934423	client-B	1.0	1.08455	client-C	0.0	1.28475	client-A
0	1	False	5	3	0	4	1.0	0.25	-1.0	0.0	-1.0	[2, 0, 1]	[0, 1, 2]	0.0	0.851091	client-B	0.0	1.20131	client-C	0.0	1.25137	client-A
0	1	False	6	0	1	4	1.0	0.25	2.0	1.0	3.6036	[2, 0, 1]	[0, 1, 2]	1.0	1.11798	client-B	0.0	1.05118	client-C	1.0	0.800971	client-A
0	1	False	7	5	0	3	1.0	0.17	0.0	1.0	4.23747	[2, 0, 1]	[0, 1, 2]	1.0	1.16799	client-B	1.0	0.817644	client-C	0.0	0.700893	client-A
0	1	False	8	0	0	1	1.0	0.115	1.0	1.0	4.20409	[2, 0, 1]	[0, 1, 2]	0.0	2.55257	client-B	1.0	0.800989	client-C	1.0	1.05094	client-A
0	1	False	9	2	1	2	1.0	0.135	-1.0	1.0	-1.0	[2, 0, 1]	[0, 1, 2]	1.0	1.4182	client-B	1.0	0.817633	client-C	1.0	1.56835	client-A
0	1	False	10	0	1	4	1.0	0.25	2.0	0.0	3.53693	[2, 0, 1]	[0, 1, 2]	0.0	1.06792	client-B	1.0	1.01786	client-C	0.0	0.617508	client-A
0	1	False	11	3	0	4	1.0	0.25	0.0	1.0	5.65548	[2, 0, 1]	[0, 1, 2]	0.0	0.884423	client-B	1.0	1.28473	client-C	1.0	0.85106	client-A
0	1	False	12	5	0	3	1.0	0.17	-1.0	1.0	-1.0	[2, 0, 1]	[0, 1, 2]	1.0	3.02026	client-B	1.0	1.00113	client-C	1.0	1.75244	client-A
0	1	False	13	0	1	3	1.0	0.17	1.0	1.0	3.65359	[2, 0, 1]	[0, 1, 2]	1.0	1.30144	client-B	0.0	1.16797	client-C	1.0	0.951144	client-A
0	1	False	14	4	1	1	1.0	0.115	-1.0	0.0	-1.0	[2, 0, 1]	[0, 1, 2]	0.0	1.41823	client-B	0.0	2.33563	client-C	0.0	0.9511	client-A
0	1	False	15	4	1	1	1.0	0.115	-1.0	1.0	-1.0	[2, 0, 1]	[0, 1, 2]	1.0	1.30143	client-B	1.0	0.851018	client-C	1.0	0.884451	client-A
0	1	False	16	3	0	4	1.0	0.25	-1.0	0.0	-1.0	[2, 0, 1]	[0, 1, 2]	0.0	0.884442	client-B	0.0	0.901088	client-C	0.0	0.684279	client-A
0	1	False	17	2	1	2	1.0	0.135	-1.0	1.0	-1.0	[2, 0, 1]	[0, 1, 2]	1.0	0.901081	client-B	1.0	0.867763	client-C	1.0	0.81771	client-A
0	1	False	18	0	1	3	1.0	0.17	2.0	0.0	4.67124	[2, 0, 1]	[0, 1, 2]	0.0	1.03455	client-B	1.0	0.901048	client-C	0.0	0.534104	client-A
0	1	False	19	3	0	2	1.0	0.135	0.0	1.0	4.58848	[2, 0, 1]	[0, 1, 2]	1.0	1.23475	client-B	0.0	1.70179	client-C	1.0	1.01784	client-A
0	1	False	20	0	0	1	1.0	0.115	1.0	1.0	5.7554	[2, 0, 1]	[0, 1, 2]	0.0	1.25142	client-B	1.0	0.767629	client-C	1.0	1.26774	client-A
0	1	False	21	5	0	3	1.0	0.17	2.0	0.0	7.89069	[2, 0, 1]	[0, 1, 2]	1.0	1.168	client-B	1.0	1.31809	client-C	0.0	1.53501	client-A
0	1	False	22	4	1	1	1.0	0.115	0.0	1.0	4.80473	[2, 0, 1]	[0, 1, 2]	0.0	1.88527	client-B	1.0	0.78432	client-C	1.0	1.03459	client-A
0	1	False	23	0	1	4	1.0	0.25	-1.0	1.0	-1.0	[2, 0, 1]	[0, 1, 2]	1.0	1.05119	client-B	1.0	1.05121	client-C	1.0	0.984528	client-A
0	1	False	24	0	1	3	1.0	0.17	1.0	1.0	2.99195	[2, 0, 1]	[0, 1, 2]	1.0	0.884403	client-B	0.0	0.817681	client-C	1.0	0.750938	client-A
0	1	False	25	0	0	1	1.0	0.115	-1.0	1.0	-1.0	[2, 0, 1]	[0, 1, 2]	1.0	3.10304	client-B	1.0	1.08423	client-C	1.0	0.534089	client-A
0	1	False	26	0	1	3	1.0	0.17	-1.0	1.0	-1.0	[2, 0, 1]	[0, 1, 2]	1.0	2.21897	client-B	1.0	1.10121	client-C	1.0	0.917767	client-A
0	1	False	27	0	0	1	1.0	0.115	2.0	1.0	5.80551	[2, 0, 1]	[0, 1, 2]	1.0	1.00115	client-B	0.0	1.05118	client-C	1.0	0.934466	client-A
0	1	False	28	4	1	1	1.0	0.115	0.0	1.0	4.72131	[2, 0, 1]	[0, 1, 2]	1.0	2.36905	client-B	1.0	0.717596	client-C	0.0	1.56837	client-A
0	1	False	29	2	1	2	1.0	0.135	1.0	0.0	4.00451	[2, 0, 1]	[0, 1, 2]	0.0	2.33572	client-B	0.0	1.76847	client-C	1.0	0.901113	client-A
0	1	False	30	2	1	2	1.0	0.135	2.0	1.0	4.58784	[2, 0, 1]	[0, 1, 2]	0.0	1.45156	client-B	1.0	0.694702	client-C	1.0	0.883095	client-A
0	1	False	31	5	0	3	1.0	0.17	0.0	0.0	4.60455	[2, 0, 1]	[0, 1, 2]	0.0	1.13466	client-B	1.0	0.76764	client-C	1.0	1.03454	client-A
0	1	False	32	3	0	2	1.0	0.135	-1.0	1.0	-1.0	[2, 0, 1]	[0, 1, 2]	1.0	2.61929	client-B	1.0	1.2013	client-C	1.0	1.585	client-A
1	1	False	1	5	1	2	1.0	0.135	1.0	1.0	3.65361	[2, 0, 1]	[0, 1, 2]	0.0	3.57013	client-B	1.0	0.667528	client-C	1.0	1.90191	client-A
1	1	False	2	1	0	2	1.0	0.135	2.0	0.0	3.409	[2, 0, 1]	[0, 1, 2]	0.0	1.11794	client-B	1.0	0.66757	client-C	0.0	2.51915	client-A
1	1	False	3	1	0	2	1.0	0.135	0.0	1.0	3.98738	[2, 0, 1]	[0, 1, 2]	1.0	1.33484	client-B	1.0	0.717568	client-C	0.0	1.26809	client-A
1	1	False	4	5	0	3	1.0	0.17	1.0	0.0	4.88798	[2, 0, 1]	[0, 1, 2]	0.0	0.884561	client-B	1.0	1.0345	client-C	0.0	1.25147	client-A
1	1	False	5	4	1	1	1.0	0.115	2.0	1.0	3.60365	[2, 0, 1]	[0, 1, 2]	0.0	1.20135	client-B	0.0	0.951099	client-C	1.0	1.2347	client-A
1	1	False	6	5	0	4	1.0	0.25	-1.0	0.0	-1.0	[2, 0, 1]	[0, 1, 2]	0.0	0.834369	client-B	0.0	0.951086	client-C	0.0	0.550732	client-A
1	1	False	7	5	0	3	1.0	0.17	-1.0	0.0	-1.0	[2, 0, 1]	[0, 1, 2]	0.0	0.967803	client-B	0.0	0.717572	client-C	0.0	1.05125	client-A
1	1	False	8	2	0	1	1.0	0.115	0.0	1.0	4.07078	[2, 0, 1]	[0, 1, 2]	1.0	1.15194	client-B	0.0	0.667546	client-C	1.0	0.800938	client-A
1	1	False	9	5	0	3	1.0	0.17	-1.0	0.0	-1.0	[2, 0, 1]	[0, 1, 2]	0.0	0.717591	client-B	0.0	0.901063	client-C	0.0	0.934171	client-A
1	1	False	10	1	0	2	1.0	0.135	1.0	0.0	3.42013	[2, 0, 1]	[0, 1, 2]	1.0	1.18466	client-B	0.0	0.684249	client-C	0.0	1.01784	client-A
1	1	False	11	1	0	2	1.0	0.135	-1.0	0.0	-1.0	[2, 0, 1]	[0, 1, 2]	0.0	1.33485	client-B	0.0	1.08454	client-C	0.0	0.58418	client-A
1	1	False	12	2	0	1	1.0	0.115	-1.0	0.0	-1.0	[2, 0, 1]	[0, 1, 2]	0.0	1.00122	client-B	0.0	0.667521	client-C	0.0	0.884415	client-A
1	1	False	13	5	1	2	1.0	0.135	2.0	1.0	4.00401	[2, 0, 1]	[0, 1, 2]	1.0	1.15136	client-B	0.0	0.700879	client-C	1.0	1.10127	client-A
1	1	False	14	5	1	3	1.0	0.17	0.0	1.0	3.60427	[2, 0, 1]	[0, 1, 2]	1.0	1.45157	client-B	0.0	2.23558	client-C	1.0	1.45154	client-A
1	1	False	15	5	1	4	1.0	0.25	-1.0	1.0	-1.0	[2, 0, 1]	[0, 1, 2]	1.0	1.01785	client-B	1.0	0.684192	client-C	1.0	1.11797	client-A
1	1	False	16	4	1	1	1.0	0.115	1.0	1.0	3.05307	[2, 0, 1]	[0, 1, 2]	0.0	0.884445	client-B	1.0	0.901082	client-C	1.0	0.917729	client-A
1	1	False	17	5	0	4	1.0	0.25	-1.0	0.0	-1.0	[2, 0, 1]	[0, 1, 2]	0.0	0.867705	client-B	0.0	1.18462	client-C	0.0	0.0504022	client-A
1	1	False	18	5	1	4	1.0	0.25	2.0	1.0	3.37006	[2, 0, 1]	[0, 1, 2]	0.0	0.984483	client-B	1.0	0.901085	client-C	1.0	0.901125	client-A
1	1	False	19	4	1	1	1.0	0.115	0.0	0.0	3.55364	[2, 0, 1]	[0, 1, 2]	0.0	1.51833	client-B	1.0	0.867695	client-C	0.0	1.03451	client-A
1	1	False	20	5	1	2	1.0	0.135	-1.0	1.0	-1.0	[2, 0, 1]	[0, 1, 2]	1.0	1.01785	client-B	1.0	0.667531	client-C	1.0	0.901129	client-A
1	1	False	21	2	0	1	1.0	0.115	1.0	1.0	3.15378	[2, 0, 1]	[0, 1, 2]	1.0	1.20136	client-B	1.0	0.60077	client-C	0.0	0.951109	client-A
1	1	False	22	5	0	4	1.0	0.25	2.0	0.0	2.93642	[2, 0, 1]	[0, 1, 2]	0.0	0.834383	client-B	1.0	1.15129	client-C	0.0	0.250493	client-A
1	1	False	23	5	1	3	1.0	0.17	0.0	1.0	3.32008	[2, 0, 1]	[0, 1, 2]	1.0	1.15132	client-B	1.0	2.81937	client-C	0.0	0.550793	client-A
1	1	False	24	5	1	3	1.0	0.17	1.0	1.0	2.6361	[2, 0, 1]	[0, 1, 2]	1.0	1.16798	client-B	1.0	0.767601	client-C	0.0	1.28478	client-A
1	1	False	25	5	1	4	1.0	0.25	-1.0	1.0	-1.0	[2, 0, 1]	[0, 1, 2]	1.0	1.08457	client-B	1.0	1.16793	client-C	1.0	0.884378	client-A
1	1	False	26	5	1	3	1.0	0.17	2.0	1.0	2.88636	[2, 0, 1]	[0, 1, 2]	1.0	0.934433	client-B	0.0	0.734258	client-C	1.0	0.817717	client-A
1	1	False	27	5	1	2	1.0	0.135	0.0	1.0	3.87616	[2, 0, 1]	[0, 1, 2]	1.0	1.01845	client-B	1.0	0.700857	client-C	0.0	0.667533	client-A
1	1	False	28	4	1	1	1.0	0.115	1.0	0.0	4.03732	[2, 0, 1]	[0, 1, 2]	1.0	1.2347	client-B	0.0	0.733746	client-C	0.0	1.63511	client-A
1	1	False	29	5	0	3	1.0	0.17	2.0	1.0	4.68794	[2, 0, 1]	[0, 1, 2]	0.0	1.33484	client-B	0.0	1.03449	client-C	1.0	1.06788	client-A
1	1	False	30	2	0	1	1.0	0.115	-1.0	1.0	-1.0	[2, 0, 1]	[0, 1, 2]	1.0	0.967765	client-B	1.0	0.934442	client-C	1.0	1.61841	client-A
1	1	False	31	5	1	4	1.0	0.25	0.0	1.0	3.38679	[2, 0, 1]	[0, 1, 2]	1.0	1.03453	client-B	1.0	1.40147	client-C	0.0	0.967832	client-A
1	1	False	32	5	0	4	1.0	0.25	1.0	0.0	3.11982	[2, 0, 1]	[0, 1, 2]	0.0	0.834334	client-B	1.0	0.834323	client-C	0.0	0.4507	client-A
2	1	False	1	5	1	2	1.0	0.135	2.0	0.0	3.27	[2, 0, 1]	[0, 1, 2]	1.0	6.72294	client-B	0.0	1.71838	client-C	0.0	0.433978	client-A
2	1	False	2	3	0	3	1.0	0.17	0.0	1.0	4.02068	[2, 0, 1]	[0, 1, 2]	1.0	0.951158	client-B	1.0	0.7176	client-C	0.0	1.56801	client-A
2	1	False	3	2	0	4	1.0	0.25	-1.0	0.0	-1.0	[2, 0, 1]	[0, 1, 2]	0.0	1.31812	client-B	0.0	0.850997	client-C	0.0	1.16796	client-A
2	1	False	4	4	0	1	1.0	0.115	1.0	0.0	2.95298	[2, 0, 1]	[0, 1, 2]	1.0	1.00116	client-B	0.0	0.784338	client-C	0.0	0.851067	client-A
2	1	False	5	0	1	1	1.0	0.115	2.0	0.0	2.91968	[2, 0, 1]	[0, 1, 2]	1.0	1.13464	client-B	0.0	0.717598	client-C	0.0	3.00316	client-A
2	1	False	6	4	0	1	1.0	0.115	0.0	1.0	3.80386	[2, 0, 1]	[0, 1, 2]	1.0	0.684253	client-B	0.0	0.700939	client-C	1.0	1.40151	client-A
2	1	False	7	3	1	3	1.0	0.17	1.0	0.0	6.1724	[2, 0, 1]	[0, 1, 2]	1.0	1.78537	client-B	0.0	1.3014	client-C	0.0	0.816338	client-A
2	1	False	8	4	0	2	1.0	0.135	2.0	0.0	12.428	[2, 0, 1]	[0, 1, 2]	1.0	0.467405	client-B	0.0	0.700917	client-C	1.0	1.56837	client-A
2	1	False	9	5	1	2	1.0	0.135	0.0	1.0	8.85793	[2, 0, 1]	[0, 1, 2]	1.0	1.68577	client-B	0.0	1.03452	client-C	0.0	1.35148	client-A
2	1	False	10	5	1	2	1.0	0.135	1.0	1.0	3.40339	[2, 0, 1]	[0, 1, 2]	1.0	1.35148	client-B	1.0	1.28472	client-C	0.0	1.83526	client-A
2	1	False	11	0	1	1	1.0	0.115	2.0	0.0	3.68702	[2, 0, 1]	[0, 1, 2]	1.0	2.60262	client-B	1.0	0.667555	client-C	0.0	0.0836877	client-A
2	1	False	12	2	0	4	1.0	0.25	-1.0	0.0	-1.0	[2, 0, 1]	[0, 1, 2]	0.0	0.817672	client-B	0.0	0.734253	client-C	0.0	0.98453	client-A
2	1	False	13	2	0	4	1.0	0.25	-1.0	0.0	-1.0	[2, 0, 1]	[0, 1, 2]	0.0	1.3348	client-B	0.0	0.684189	client-C	0.0	0.66754	client-A
2	1	False	14	0	1	1	1.0	0.115	0.0	1.0	3.45976	[2, 0, 1]	[0, 1, 2]	1.0	0.967809	client-B	0.0	0.650844	client-C	1.0	1.08455	client-A
2	1	False	15	4	0	1	1.0	0.115	1.0	1.0	3.65367	[2, 0, 1]	[0, 1, 2]	1.0	2.10215	client-B	1.0	1.23468	client-C	0.0	0.650855	client-A
2	1	False	16	3	1	4	1.0	0.25	-1.0	0.0	-1.0	[2, 0, 1]	[0, 1, 2]	0.0	1.56835	client-B	0.0	3.80357	client-C	0.0	0.700889	client-A
2	1	False	17	4	0	2	1.0	0.135	2.0	0.0	3.42012	[2, 0, 1]	[0, 1, 2]	1.0	0.734258	client-B	0.0	1.15129	client-C	0.0	0.800949	client-A
2	1	False	18	3	1	4	1.0	0.25	0.0	1.0	3.27003	[2, 0, 1]	[0, 1, 2]	1.0	1.25141	client-B	0.0	1.1346	client-C	1.0	1.55165	client-A
2	1	False	19	2	0	4	1.0	0.25	1.0	0.0	2.53594	[2, 0, 1]	[0, 1, 2]	0.0	0.867732	client-B	1.0	2.56913	client-C	0.0	0.750965	client-A
2	1	False	20	3	1	4	1.0	0.25	2.0	0.0	4.17142	[2, 0, 1]	[0, 1, 2]	1.0	1.11797	client-B	0.0	1.03512	client-C	0.0	0.867761	client-A
2	1	False	21	3	1	4	1.0	0.25	0.0	1.0	5.32186	[2, 0, 1]	[0, 1, 2]	1.0	1.00121	client-B	0.0	1.06754	client-C	0.0	1.43439	client-A
2	1	False	22	3	0	3	1.0	0.17	-1.0	0.0	-1.0	[2, 0, 1]	[0, 1, 2]	0.0	1.63509	client-B	0.0	0.984449	client-C	0.0	0.951105	client-A
2	1	False	23	4	0	1	1.0	0.115	1.0	0.0	6.23917	[2, 0, 1]	[0, 1, 2]	1.0	0.934443	client-B	0.0	1.31808	client-C	0.0	0.934429	client-A
2	1	False	24	3	1	3	1.0	0.17	2.0	0.0	4.7713	[2, 0, 1]	[0, 1, 2]	1.0	1.38483	client-B	0.0	2.23551	client-C	0.0	1.01783	client-A
2	1	False	25	4	0	2	1.0	0.135	0.0	1.0	4.05407	[2, 0, 1]	[0, 1, 2]	1.0	1.40151	client-B	1.0	1.50157	client-C	0.0	0.934423	client-A
2	1	False	26	3	1	3	1.0	0.17	1.0	0.0	3.37	[2, 0, 1]	[0, 1, 2]	0.0	1.13467	client-B	1.0	0.817651	client-C	0.0	1.0012	client-A
2	1	False	27	0	1	1	1.0	0.115	-1.0	1.0	-1.0	[2, 0, 1]	[0, 1, 2]	1.0	1.03454	client-B	1.0	1.28471	client-C	1.0	0.81769	client-A
2	1	False	28	3	0	3	1.0	0.17	-1.0	0.0	-1.0	[2, 0, 1]	[0, 1, 2]	0.0	1.43489	client-B	0.0	0.967816	client-C	0.0	0.884416	client-A
2	1	False	29	3	0	3	1.0	0.17	2.0	1.0	8.19101	[2, 0, 1]	[0, 1, 2]	1.0	0.817685	client-B	0.0	0.784311	client-C	1.0	1.00115	client-A
2	1	False	30	5	1	2	1.0	0.135	0.0	1.0	4.67126	[2, 0, 1]	[0, 1, 2]	1.0	1.76852	client-B	0.0	0.81766	client-C	0.0	0.700906	client-A
2	1	False	31	3	1	3	1.0	0.17	-1.0	0.0	-1.0	[2, 0, 1]	[0, 1, 2]	0.0	4.07056	client-B	0.0	1.48489	client-C	0.0	0.634179	client-A
2	1	False	32	4	0	2	1.0	0.135	1.0	0.0	4.7712	[2, 0, 1]	[0, 1, 2]	1.0	0.91774	client-B	0.0	1.08457	client-C	0.0	0.600822	client-A
0	2	False	1	4	1	4	1.0	0.25	1.0	1.0	4.82137	[1, 2, 0]	[0, 1, 2]	0.0	13.0782	client-C	1.0	1.91859	client-A	1.0	1.71793	client-B
0	2	False	2	4	1	4	1.0	0.25	-1.0	1.0	-1.0	[1, 2, 0]	[0, 1, 2]	1.0	1.0512	client-C	1.0	1.0179	client-A	1.0	1.65178	client-B
0	2	False	3	2	1	2	1.0	0.135	2.0	0.0	2.60279	[1, 2, 0]	[0, 1, 2]	0.0	1.2514	client-C	1.0	0.750991	client-A	0.0	0.851047	client-B
0	2	False	4	4	1	4	1.0	0.25	-1.0	1.0	-1.0	[1, 2, 0]	[0, 1, 2]	1.0	1.0679	client-C	1.0	0.785226	client-A	1.0	1.50163	client-B
0	2	False	5	4	0	3	1.0	0.17	0.0	1.0	2.46924	[1, 2, 0]	[0, 1, 2]	1.0	0.934414	client-C	1.0	0.834392	client-A	0.0	1.23472	client-B
0	2	False	6	0	0	2	1.0	0.135	1.0	1.0	4.10408	[1, 2, 0]	[0, 1, 2]	1.0	1.21799	client-C	1.0	0.751013	client-A	0.0	1.2848	client-B
0	2	False	7	1	0	1	1.0	0.115	2.0	0.0	5.25514	[1, 2, 0]	[0, 1, 2]	0.0	0.917756	client-C	1.0	1.13465	client-A	0.0	0.550788	client-B
0	2	False	8	2	0	4	1.0	0.25	-1.0	0.0	-1.0	[1, 2, 0]	[0, 1, 2]	0.0	0.734243	client-C	0.0	0.901124	client-A	0.0	0.600824	client-B
0	2	False	9	2	1	2	1.0	0.135	0.0	1.0	4.99429	[1, 2, 0]	[0, 1, 2]	1.0	1.26803	client-C	0.0	0.700903	client-A	1.0	0.734258	client-B
0	2	False	10	2	0	4	1.0	0.25	-1.0	0.0	-1.0	[1, 2, 0]	[0, 1, 2]	0.0	0.817637	client-C	0.0	1.2681	client-A	0.0	1.16794	client-B
0	2	False	11	5	1	1	1.0	0.115	1.0	1.0	1.93547	[1, 2, 0]	[0, 1, 2]	0.0	2.08541	client-C	1.0	0.917748	client-A	1.0	0.917763	client-B
0	2	False	12	3	1	3	1.0	0.17	2.0	0.0	4.80475	[1, 2, 0]	[0, 1, 2]	1.0	1.08457	client-C	1.0	0.751011	client-A	0.0	2.21882	client-B
0	2	False	13	4	0	3	1.0	0.17	0.0	0.0	3.97051	[1, 2, 0]	[0, 1, 2]	0.0	1.8852	client-C	1.0	1.46826	client-A	0.0	0.500736	client-B
0	2	False	14	0	0	2	1.0	0.135	1.0	0.0	3.27616	[1, 2, 0]	[0, 1, 2]	1.0	1.65167	client-C	0.0	1.06795	client-A	0.0	0.750975	client-B
0	2	False	15	2	1	2	1.0	0.135	2.0	0.0	2.90302	[1, 2, 0]	[0, 1, 2]	1.0	1.23469	client-C	1.0	1.01784	client-A	0.0	0.66724	client-B
0	2	False	16	3	1	3	1.0	0.17	0.0	0.0	4.88798	[1, 2, 0]	[0, 1, 2]	0.0	0.884402	client-C	1.0	1.36813	client-A	1.0	1.20131	client-B
0	2	False	17	4	1	4	1.0	0.25	-1.0	1.0	-1.0	[1, 2, 0]	[0, 1, 2]	1.0	0.984473	client-C	1.0	0.684266	client-A	1.0	1.26807	client-B
0	2	False	18	4	0	3	1.0	0.17	1.0	1.0	3.05316	[1, 2, 0]	[0, 1, 2]	0.0	1.31808	client-C	1.0	0.667525	client-A	1.0	0.901082	client-B
0	2	False	19	1	0	1	1.0	0.115	2.0	1.0	6.22338	[1, 2, 0]	[0, 1, 2]	1.0	0.984469	client-C	1.0	0.767685	client-A	0.0	0.584119	client-B
0	2	False	20	2	0	4	1.0	0.25	0.0	0.0	4.02056	[1, 2, 0]	[0, 1, 2]	0.0	0.984471	client-C	1.0	1.43492	client-A	0.0	1.65147	client-B
0	2	False	21	4	0	3	1.0	0.17	1.0	0.0	3.52023	[1, 2, 0]	[0, 1, 2]	0.0	1.30144	client-C	1.0	0.600834	client-A	0.0	0.71762	client-B
0	2	False	22	5	1	1	1.0	0.115	2.0	1.0	4.15417	[1, 2, 0]	[0, 1, 2]	1.0	2.08539	client-C	0.0	1.13463	client-A	1.0	1.0512	client-B
0	2	False	23	2	1	2	1.0	0.135	0.0	0.0	3.4701	[1, 2, 0]	[0, 1, 2]	0.0	1.06785	client-C	1.0	1.03453	client-A	0.0	0.684293	client-B
0	2	False	24	5	1	1	1.0	0.115	1.0	0.0	3.22057	[1, 2, 0]	[0, 1, 2]	0.0	1.28477	client-C	1.0	1.11794	client-A	0.0	1.20136	client-B
0	2	False	25	3	1	3	1.0	0.17	2.0	1.0	4.80472	[1, 2, 0]	[0, 1, 2]	1.0	1.8852	client-C	1.0	0.750967	client-A	0.0	0.650839	client-B
0	2	False	26	5	1	1	1.0	0.115	0.0	0.0	3.47009	[1, 2, 0]	[0, 1, 2]	0.0	1.66843	client-C	1.0	1.20148	client-A	0.0	0.867733	client-B
0	2	False	27	0	0	2	1.0	0.135	-1.0	0.0	-1.0	[1, 2, 0]	[0, 1, 2]	0.0	1.6684	client-C	0.0	0.800974	client-A	0.0	1.11793	client-B
0	2	False	28	3	1	3	1.0	0.17	-1.0	1.0	-1.0	[1, 2, 0]	[0, 1, 2]	1.0	1.06786	client-C	1.0	0.750955	client-A	1.0	1.01786	client-B
0	2	False	29	2	0	4	1.0	0.25	-1.0	0.0	-1.0	[1, 2, 0]	[0, 1, 2]	0.0	0.784345	client-C	0.0	0.884446	client-A	0.0	0.517438	client-B
0	2	False	30	0	0	2	1.0	0.135	1.0	1.0	3.10317	[1, 2, 0]	[0, 1, 2]	1.0	0.917789	client-C	1.0	0.750967	client-A	0.0	0.851031	client-B
0	2	False	31	1	0	1	1.0	0.115	-1.0	0.0	-1.0	[1, 2, 0]	[0, 1, 2]	0.0	1.31813	client-C	0.0	1.36814	client-A	0.0	0.734325	client-B
0	2	False	32	1	0	1	1.0	0.115	2.0	0.0	5.00492	[1, 2, 0]	[0, 1, 2]	0.0	0.967811	client-C	0.0	0.867732	client-A	1.0	0.51738	client-B
1	2	False	1	5	1	4	1.0	0.25	-1.0	1.0	-1.0	[1, 2, 0]	[0, 1, 2]	1.0	1.21796	client-C	1.0	1.03451	client-A	1.0	2.1522	client-B
1	2	False	2	4	1	2	1.0	0.135	0.0	0.0	2.70275	[1, 2, 0]	[0, 1, 2]	0.0	0.901064	client-C	0.0	0.700882	client-A	1.0	0.717592	client-B
1	2	False	3	0	0	3	1.0	0.17	1.0	1.0	2.90303	[1, 2, 0]	[0, 1, 2]	1.0	1.26804	client-C	1.0	0.817671	client-A	0.0	0.717574	client-B
1	2	False	4	4	1	2	1.0	0.135	2.0	0.0	3.11989	[1, 2, 0]	[0, 1, 2]	0.0	0.917737	client-C	1.0	0.90113	client-A	0.0	0.43405	client-B
1	2	False	5	4	1	1	1.0	0.115	0.0	0.0	3.0086	[1, 2, 0]	[0, 1, 2]	0.0	1.03516	client-C	1.0	0.617496	client-A	1.0	1.30207	client-B
1	2	False	6	5	1	4	1.0	0.25	-1.0	1.0	-1.0	[1, 2, 0]	[0, 1, 2]	1.0	1.03452	client-C	1.0	2.56923	client-A	1.0	1.11794	client-B
1	2	False	7	4	1	2	1.0	0.135	1.0	1.0	3.2033	[1, 2, 0]	[0, 1, 2]	1.0	0.967822	client-C	1.0	0.700861	client-A	0.0	0.984482	client-B
1	2	False	8	4	1	3	1.0	0.17	-1.0	1.0	-1.0	[1, 2, 0]	[0, 1, 2]	1.0	1.00114	client-C	1.0	1.16798	client-A	1.0	0.951136	client-B
1	2	False	9	2	0	2	1.0	0.135	2.0	0.0	5.65548	[1, 2, 0]	[0, 1, 2]	1.0	0.917719	client-C	0.0	0.85106	client-A	0.0	0.750931	client-B
1	2	False	10	5	1	4	1.0	0.25	0.0	1.0	3.5424	[1, 2, 0]	[0, 1, 2]	1.0	0.834353	client-C	0.0	7.69034	client-A	1.0	1.00118	client-B
1	2	False	11	2	0	2	1.0	0.135	1.0	1.0	4.32088	[1, 2, 0]	[0, 1, 2]	1.0	1.70171	client-C	1.0	2.48582	client-A	0.0	1.23475	client-B
1	2	False	12	4	1	1	1.0	0.115	-1.0	0.0	-1.0	[1, 2, 0]	[0, 1, 2]	0.0	1.01784	client-C	0.0	0.700929	client-A	0.0	1.13461	client-B
1	2	False	13	0	0	3	1.0	0.17	2.0	0.0	5.15503	[1, 2, 0]	[0, 1, 2]	1.0	0.76758	client-C	0.0	0.967852	client-A	0.0	0.200576	client-B
1	2	False	14	4	1	3	1.0	0.17	-1.0	1.0	-1.0	[1, 2, 0]	[0, 1, 2]	1.0	0.984483	client-C	1.0	1.46827	client-A	1.0	0.984486	client-B
1	2	False	15	0	0	4	1.0	0.25	0.0	1.0	3.03639	[1, 2, 0]	[0, 1, 2]	1.0	0.800961	client-C	1.0	1.75187	client-A	0.0	0.817716	client-B
1	2	False	16	0	0	1	1.0	0.115	1.0	0.0	3.67593	[1, 2, 0]	[0, 1, 2]	1.0	2.1695	client-C	0.0	2.23563	client-A	0.0	1.31875	client-B
1	2	False	17	4	1	3	1.0	0.17	2.0	0.0	3.13658	[1, 2, 0]	[0, 1, 2]	1.0	1.15129	client-C	1.0	0.967832	client-A	0.0	0.566962	client-B
1	2	False	18	4	1	3	1.0	0.17	0.0	1.0	5.47186	[1, 2, 0]	[0, 1, 2]	1.0	1.13458	client-C	1.0	1.48498	client-A	0.0	0.600795	client-B
1	2	False	19	0	0	4	1.0	0.25	1.0	0.0	3.72039	[1, 2, 0]	[0, 1, 2]	0.0	0.901079	client-C	1.0	0.867763	client-A	0.0	0.901123	client-B
1	2	False	20	0	0	3	1.0	0.17	2.0	0.0	6.34005	[1, 2, 0]	[0, 1, 2]	0.0	1.36816	client-C	0.0	0.750936	client-A	1.0	1.0679	client-B
1	2	False	21	2	0	2	1.0	0.135	0.0	0.0	3.93719	[1, 2, 0]	[0, 1, 2]	1.0	1.10125	client-C	0.0	8.49107	client-A	0.0	0.91775	client-B
1	2	False	22	0	0	1	1.0	0.115	-1.0	0.0	-1.0	[1, 2, 0]	[0, 1, 2]	0.0	1.16797	client-C	0.0	1.30146	client-A	0.0	0.700891	client-B
1	2	False	23	4	1	1	1.0	0.115	1.0	1.0	3.45348	[1, 2, 0]	[0, 1, 2]	1.0	0.934402	client-C	1.0	0.901147	client-A	0.0	0.734252	client-B
1	2	False	24	0	0	1	1.0	0.115	-1.0	1.0	-1.0	[1, 2, 0]	[0, 1, 2]	1.0	0.81764	client-C	1.0	0.851061	client-A	1.0	1.41824	client-B
1	2	False	25	4	1	2	1.0	0.135	-1.0	1.0	-1.0	[1, 2, 0]	[0, 1, 2]	1.0	1.86858	client-C	1.0	1.0512	client-A	1.0	1.16801	client-B
1	2	False	26	4	1	1	1.0	0.115	2.0	0.0	3.64321	[1, 2, 0]	[0, 1, 2]	0.0	0.834395	client-C	1.0	1.20135	client-A	0.0	1.05125	client-B
1	2	False	27	0	0	1	1.0	0.115	0.0	0.0	3.57014	[1, 2, 0]	[0, 1, 2]	0.0	1.28472	client-C	1.0	1.00206	client-A	0.0	1.01784	client-B
1	2	False	28	5	1	4	1.0	0.25	-1.0	1.0	-1.0	[1, 2, 0]	[0, 1, 2]	1.0	1.06785	client-C	1.0	0.884376	client-A	1.0	1.21805	client-B
1	2	False	29	0	0	3	1.0	0.17	1.0	0.0	2.60279	[1, 2, 0]	[0, 1, 2]	0.0	1.58497	client-C	1.0	0.817675	client-A	0.0	0.834346	client-B
1	2	False	30	0	0	4	1.0	0.25	-1.0	0.0	-1.0	[1, 2, 0]	[0, 1, 2]	0.0	0.884381	client-C	0.0	0.734257	client-A	0.0	0.751003	client-B
1	2	False	31	2	0	2	1.0	0.135	-1.0	0.0	-1.0	[1, 2, 0]	[0, 1, 2]	0.0	1.13462	client-C	0.0	0.667577	client-A	0.0	0.884388	client-B
1	2	False	32	0	0	4	1.0	0.25	-1.0	0.0	-1.0	[1, 2, 0]	[0, 1, 2]	0.0	0.884369	client-C	0.0	0.934421	client-A	0.0	0.684236	client-B
2	2	False	1	1	0	2	1.0	0.135	-1.0	0.0	-1.0	[1, 2, 0]	[0, 1, 2]	0.0	0.951107	client-C	0.0	0.917736	client-A	0.0	0.500698	client-B
2	2	False	2	1	0	1	1.0	0.115	-1.0	0.0	-1.0	[1, 2, 0]	[0, 1, 2]	0.0	1.03446	client-C	0.0	0.700872	client-A	0.0	0.834964	client-B
2	2	False	3	5	1	4	1.0	0.25	-1.0	1.0	-1.0	[1, 2, 0]	[0, 1, 2]	1.0	0.934391	client-C	1.0	0.834398	client-A	1.0	0.717586	client-B
2	2	False	4	0	1	3	1.0	0.17	2.0	1.0	5.97242	[1, 2, 0]	[0, 1, 2]	1.0	0.901049	client-C	0.0	0.750954	client-A	1.0	0.733802	client-B
2	2	False	5	0	1	3	1.0	0.17	0.0	0.0	2.7028	[1, 2, 0]	[0, 1, 2]	0.0	0.951094	client-C	1.0	0.867742	client-A	0.0	1.05122	client-B
2	2	False	6	1	0	1	1.0	0.115	1.0	0.0	3.30339	[1, 2, 0]	[0, 1, 2]	1.0	1.88524	client-C	0.0	1.56828	client-A	0.0	0.667536	client-B
2	2	False	7	5	1	1	1.0	0.115	2.0	1.0	2.88637	[1, 2, 0]	[0, 1, 2]	1.0	0.851039	client-C	0.0	1.05121	client-A	1.0	0.817704	client-B
2	2	False	8	5	1	2	1.0	0.135	0.0	1.0	3.52015	[1, 2, 0]	[0, 1, 2]	1.0	0.884368	client-C	1.0	0.68426	client-A	0.0	1.16799	client-B
2	2	False	9	1	0	2	1.0	0.135	1.0	0.0	3.42013	[1, 2, 0]	[0, 1, 2]	1.0	1.20197	client-C	0.0	0.934475	client-A	0.0	0.68422	client-B
2	2	False	10	5	1	2	1.0	0.135	2.0	0.0	2.90304	[1, 2, 0]	[0, 1, 2]	1.0	1.28471	client-C	0.0	0.734302	client-A	0.0	0.834347	client-B
2	2	False	11	0	0	4	1.0	0.25	0.0	0.0	3.05304	[1, 2, 0]	[0, 1, 2]	0.0	0.717527	client-C	1.0	2.00208	client-A	1.0	1.41825	client-B
2	2	False	12	1	0	2	1.0	0.135	1.0	0.0	4.43772	[1, 2, 0]	[0, 1, 2]	1.0	1.45151	client-C	0.0	3.16977	client-A	0.0	0.934456	client-B
2	2	False	13	0	0	4	1.0	0.25	-1.0	0.0	-1.0	[1, 2, 0]	[0, 1, 2]	0.0	0.851043	client-C	0.0	0.65087	client-A	0.0	0.63419	client-B
2	2	False	14	1	0	1	1.0	0.115	-1.0	0.0	-1.0	[1, 2, 0]	[0, 1, 2]	0.0	0.817679	client-C	0.0	0.834362	client-A	0.0	0.85108	client-B
2	2	False	15	4	0	3	1.0	0.17	2.0	0.0	4.2932	[1, 2, 0]	[0, 1, 2]	0.0	0.750986	client-C	0.0	0.434048	client-A	1.0	0.567462	client-B
2	2	False	16	4	0	3	1.0	0.17	-1.0	0.0	-1.0	[1, 2, 0]	[0, 1, 2]	0.0	0.700595	client-C	0.0	0.684241	client-A	0.0	0.700946	client-B
2	2	False	17	5	1	2	1.0	0.135	0.0	0.0	2.96969	[1, 2, 0]	[0, 1, 2]	0.0	0.817675	client-C	1.0	0.817715	client-A	0.0	0.834493	client-B
2	2	False	18	4	0	3	1.0	0.17	1.0	0.0	3.25335	[1, 2, 0]	[0, 1, 2]	0.0	0.784273	client-C	1.0	1.88524	client-A	0.0	1.11798	client-B
2	2	False	19	1	0	1	1.0	0.115	2.0	0.0	2.43596	[1, 2, 0]	[0, 1, 2]	1.0	1.50161	client-C	1.0	1.08456	client-A	0.0	0.734254	client-B
2	2	False	20	5	1	1	1.0	0.115	-1.0	0.0	-1.0	[1, 2, 0]	[0, 1, 2]	0.0	1.65172	client-C	0.0	0.884443	client-A	0.0	0.817682	client-B
2	2	False	21	0	0	4	1.0	0.25	-1.0	0.0	-1.0	[1, 2, 0]	[0, 1, 2]	0.0	0.717583	client-C	0.0	0.734362	client-A	0.0	0.734264	client-B
2	2	False	22	5	1	4	1.0	0.25	0.0	1.0	3.83698	[1, 2, 0]	[0, 1, 2]	1.0	0.984505	client-C	0.0	2.76943	client-A	1.0	0.667584	client-B
2	2	False	23	5	1	2	1.0	0.135	1.0	1.0	5.63876	[1, 2, 0]	[0, 1, 2]	1.0	1.28471	client-C	1.0	0.934479	client-A	0.0	0.46827	client-B
2	2	False	24	5	1	1	1.0	0.115	2.0	0.0	4.3043	[1, 2, 0]	[0, 1, 2]	0.0	1.68505	client-C	1.0	0.81771	client-A	0.0	0.500777	client-B
2	2	False	25	0	0	4	1.0	0.25	0.0	0.0	2.18565	[1, 2, 0]	[0, 1, 2]	0.0	0.867718	client-C	0.0	0.667535	client-A	1.0	0.817697	client-B
2	2	False	26	5	1	1	1.0	0.115	1.0	0.0	4.827	[1, 2, 0]	[0, 1, 2]	1.0	1.21801	client-C	0.0	0.750985	client-A	0.0	0.50078	client-B
2	2	False	27	5	1	4	1.0	0.25	-1.0	1.0	-1.0	[1, 2, 0]	[0, 1, 2]	1.0	0.967773	client-C	1.0	1.25138	client-A	1.0	0.98449	client-B
2	2	False	28	5	1	4	1.0	0.25	-1.0	1.0	-1.0	[1, 2, 0]	[0, 1, 2]	1.0	0.934393	client-C	1.0	0.750982	client-A	1.0	0.867704	client-B
2	2	False	29	4	0	3	1.0	0.17	2.0	1.0	5.3719	[1, 2, 0]	[0, 1, 2]	0.0	1.31811	client-C	1.0	0.767688	client-A	0.0	0.851042	client-B
2	2	False	30	0	1	3	1.0	0.17	0.0	0.0	3.16984	[1, 2, 0]	[0, 1, 2]	0.0	1.06787	client-C	1.0	0.851052	client-A	0.0	1.71847	client-B
2	2	False	31	0	1	3	1.0	0.17	1.0	1.0	2.43594	[1, 2, 0]	[0, 1, 2]	1.0	0.984478	client-C	1.0	0.917794	client-A	0.0	0.53408	client-B
2	2	False	32	1	0	2	1.0	0.135	2.0	0.0	4.03737	[1, 2, 0]	[0, 1, 2]	0.0	0.800973	client-C	1.0	0.784311	client-A	0.0	0.634184	client-B
