subblock_no	block_no	practice	TrialNumber	target_pos	target_screen_nr	contrast_idx	ran	contrast	group_dec_maker	group_dec	group_dec_rt	participants	feedback_texts_order	0_indiv_dec	0_indiv_dec_rt	0_client	1_indiv_dec	1_indiv_dec_rt	1_client	2_indiv_dec	2_indiv_dec_rt	2_client
0	0	True	1	5	0	4	1.0	0.25	0.0	1.0	55.6827	[0, 1, 2]	[0, 1, 2]	0.0	37.1391	client-A	1.0	33.6862	client-B	1.0	31.1001	client-C
0	0	True	2	1	0	2	1.0	0.135	1.0	0.0	16.3815	[0, 1, 2]	[0, 1, 2]	0.0	62.4613	client-A	1.0	38.3067	client-B	1.0	34.1696	client-C
0	0	True	3	3	1	3	1.0	0.17	2.0	0.0	29.8931	[0, 1, 2]	[0, 1, 2]	0.0	20.7581	client-A	1.0	17.939	client-B	0.0	10.3154	client-C
0	0	True	4	3	1	1	1.0	0.115	-1.0	1.0	-1.0	[0, 1, 2]	[0, 1, 2]	1.0	11.1497	client-A	1.0	2.65329	client-B	1.0	4.20466	client-C
0	0	True	5	5	0	1	1.0	0.115	0.0	1.0	27.1744	[0, 1, 2]	[0, 1, 2]	0.0	41.3428	client-A	1.0	3.92042	client-B	0.0	3.48559	client-C
0	0	True	6	4	1	4	1.0	0.25	1.0	0.0	66.1317	[0, 1, 2]	[0, 1, 2]	0.0	9.12531	client-A	1.0	1.23469	client-B	0.0	3.36993	client-C
0	0	True	7	2	1	2	1.0	0.135	-1.0	1.0	-1.0	[0, 1, 2]	[0, 1, 2]	1.0	6.49558	client-A	1.0	1.56896	client-B	1.0	4.22097	client-C
0	0	True	8	5	0	3	1.0	0.17	-1.0	1.0	-1.0	[0, 1, 2]	[0, 1, 2]	1.0	22.6869	client-A	1.0	2.05215	client-B	1.0	2.80269	client-C
0	0	False	1	5	1	1	1.0	0.115	0.0	1.0	7.34022	[0, 1, 2]	[0, 1, 2]	0.0	2.08607	client-A	1.0	1.38554	client-B	1.0	3.33713	client-C
0	0	False	2	3	1	4	1.0	0.25	1.0	1.0	7.89079	[0, 1, 2]	[0, 1, 2]	0.0	2.686	client-A	1.0	0.684251	client-B	1.0	2.11829	client-C
0	0	False	3	1	0	2	1.0	0.135	2.0	1.0	6.50612	[0, 1, 2]	[0, 1, 2]	0.0	3.52008	client-A	1.0	1.7852	client-B	1.0	3.78691	client-C
0	0	False	4	3	1	4	1.0	0.25	-1.0	1.0	-1.0	[0, 1, 2]	[0, 1, 2]	1.0	1.6685	client-A	1.0	0.650864	client-B	1.0	2.38568	client-C
0	0	False	5	5	0	4	1.0	0.25	0.0	1.0	5.63872	[0, 1, 2]	[0, 1, 2]	1.0	22.6758	client-A	1.0	1.86859	client-B	0.0	1.25141	client-C
0	0	False	6	2	0	1	1.0	0.115	1.0	0.0	28.3484	[0, 1, 2]	[0, 1, 2]	0.0	1.93535	client-A	1.0	1.43493	client-B	0.0	2.23561	client-C
0	0	False	7	0	0	3	1.0	0.17	2.0	1.0	9.07503	[0, 1, 2]	[0, 1, 2]	1.0	4.80408	client-A	1.0	2.71938	client-B	0.0	5.85545	client-C
0	0	False	8	0	1	3	1.0	0.17	0.0	1.0	8.14713	[0, 1, 2]	[0, 1, 2]	0.0	2.43577	client-A	1.0	2.66934	client-B	1.0	2.15216	client-C
0	0	False	9	5	1	2	1.0	0.135	1.0	0.0	12.2613	[0, 1, 2]	[0, 1, 2]	0.0	2.50248	client-A	1.0	1.43459	client-B	0.0	1.88529	client-C
0	0	False	10	1	0	2	1.0	0.135	-1.0	1.0	-1.0	[0, 1, 2]	[0, 1, 2]	1.0	5.82206	client-A	1.0	4.98806	client-B	1.0	4.03713	client-C
0	0	False	11	5	1	1	1.0	0.115	2.0	0.0	29.8492	[0, 1, 2]	[0, 1, 2]	0.0	6.15574	client-A	1.0	7.00649	client-B	0.0	1.952	client-C
0	0	False	12	0	0	3	1.0	0.17	-1.0	1.0	-1.0	[0, 1, 2]	[0, 1, 2]	1.0	4.45426	client-A	1.0	3.45338	client-B	1.0	5.42166	client-C
0	0	False	13	5	1	2	1.0	0.135	0.0	1.0	15.5864	[0, 1, 2]	[0, 1, 2]	0.0	10.4268	client-A	1.0	1.66846	client-B	0.0	3.01957	client-C
0	0	False	14	5	1	2	1.0	0.135	1.0	1.0	8.36407	[0, 1, 2]	[0, 1, 2]	0.0	24.0047	client-A	1.0	24.5387	client-B	1.0	19.9343	client-C
0	0	False	15	2	0	1	1.0	0.115	2.0	1.0	3.18661	[0, 1, 2]	[0, 1, 2]	0.0	3.68692	client-A	1.0	1.65175	client-B	1.0	2.0187	client-C
0	0	False	16	2	0	1	1.0	0.115	-1.0	0.0	-1.0	[0, 1, 2]	[0, 1, 2]	0.0	7.87388	client-A	0.0	8.45779	client-B	0.0	2.0187	client-C
0	0	False	17	1	0	2	1.0	0.135	0.0	0.0	12.501	[0, 1, 2]	[0, 1, 2]	1.0	13.1952	client-A	0.0	6.13902	client-B	0.0	1.78521	client-C
0	0	False	18	3	1	4	1.0	0.25	-1.0	1.0	-1.0	[0, 1, 2]	[0, 1, 2]	1.0	3.75358	client-A	1.0	1.33479	client-B	1.0	1.05122	client-C
0	0	False	19	5	0	4	1.0	0.25	1.0	1.0	9.15856	[0, 1, 2]	[0, 1, 2]	0.0	12.8783	client-A	1.0	1.06789	client-B	1.0	1.58504	client-C
0	0	False	20	0	0	3	1.0	0.17	2.0	0.0	12.0777	[0, 1, 2]	[0, 1, 2]	0.0	3.60898	client-A	1.0	1.93531	client-B	0.0	1.86858	client-C
0	0	False	21	3	1	4	1.0	0.25	0.0	1.0	6.13924	[0, 1, 2]	[0, 1, 2]	0.0	3.72026	client-A	1.0	1.00115	client-B	1.0	1.33485	client-C
0	0	False	22	5	0	4	1.0	0.25	1.0	0.0	6.90659	[0, 1, 2]	[0, 1, 2]	0.0	3.65352	client-A	0.0	1.4683	client-B	1.0	1.05123	client-C
0	0	False	23	5	1	2	1.0	0.135	-1.0	1.0	-1.0	[0, 1, 2]	[0, 1, 2]	1.0	2.21895	client-A	1.0	1.1013	client-B	1.0	2.61929	client-C
0	0	False	24	5	0	4	1.0	0.25	2.0	0.0	11.0601	[0, 1, 2]	[0, 1, 2]	0.0	13.9121	client-A	1.0	1.83527	client-B	0.0	1.56835	client-C
0	0	False	25	0	0	3	1.0	0.17	0.0	0.0	12.134	[0, 1, 2]	[0, 1, 2]	0.0	9.94237	client-A	1.0	2.76944	client-B	0.0	7.0899	client-C
0	0	False	26	0	1	3	1.0	0.17	-1.0	1.0	-1.0	[0, 1, 2]	[0, 1, 2]	1.0	2.81941	client-A	1.0	1.66849	client-B	1.0	1.58452	client-C
0	0	False	27	1	0	2	1.0	0.135	1.0	0.0	9.37546	[0, 1, 2]	[0, 1, 2]	1.0	7.52361	client-A	0.0	1.80189	client-B	0.0	2.10213	client-C
0	0	False	28	0	1	3	1.0	0.17	2.0	1.0	5.89508	[0, 1, 2]	[0, 1, 2]	0.0	2.33569	client-A	1.0	1.18466	client-B	1.0	1.38483	client-C
0	0	False	29	0	1	3	1.0	0.17	0.0	1.0	6.9566	[0, 1, 2]	[0, 1, 2]	0.0	1.78518	client-A	1.0	1.30146	client-B	1.0	2.21879	client-C
0	0	False	30	5	1	1	1.0	0.115	1.0	1.0	6.40612	[0, 1, 2]	[0, 1, 2]	0.0	2.35243	client-A	1.0	1.11796	client-B	1.0	1.80188	client-C
0	0	False	31	2	0	1	1.0	0.115	2.0	1.0	6.12246	[0, 1, 2]	[0, 1, 2]	1.0	1.0679	client-A	1.0	0.98449	client-B	0.0	1.71849	client-C
0	0	False	32	5	1	1	1.0	0.115	0.0	0.0	8.44114	[0, 1, 2]	[0, 1, 2]	0.0	7.32963	client-A	1.0	1.50223	client-B	0.0	2.7751	client-C
1	0	False	1	0	1	3	1.0	0.17	-1.0	1.0	-1.0	[0, 1, 2]	[0, 1, 2]	1.0	2.78607	client-A	1.0	1.20133	client-B	1.0	1.3681	client-C
1	0	False	2	1	0	2	1.0	0.135	-1.0	1.0	-1.0	[0, 1, 2]	[0, 1, 2]	1.0	4.50423	client-A	1.0	0.834384	client-B	1.0	2.21887	client-C
1	0	False	3	5	0	1	1.0	0.115	1.0	1.0	6.87324	[0, 1, 2]	[0, 1, 2]	0.0	1.10124	client-A	1.0	1.73518	client-B	1.0	1.56836	client-C
1	0	False	4	5	0	4	1.0	0.25	-1.0	0.0	-1.0	[0, 1, 2]	[0, 1, 2]	0.0	1.86858	client-A	0.0	2.2189	client-B	0.0	1.78516	client-C
1	0	False	5	5	0	4	1.0	0.25	2.0	0.0	9.62553	[0, 1, 2]	[0, 1, 2]	0.0	5.33918	client-A	1.0	1.80188	client-B	0.0	1.01788	client-C
1	0	False	6	2	0	3	1.0	0.17	-1.0	0.0	-1.0	[0, 1, 2]	[0, 1, 2]	0.0	2.61928	client-A	0.0	1.55166	client-B	0.0	1.50159	client-C
1	0	False	7	2	0	3	1.0	0.17	0.0	0.0	9.89313	[0, 1, 2]	[0, 1, 2]	0.0	6.17239	client-A	1.0	1.5183	client-B	0.0	1.25139	client-C
1	0	False	8	1	1	2	1.0	0.135	1.0	0.0	7.45705	[0, 1, 2]	[0, 1, 2]	0.0	3.23645	client-A	1.0	1.36818	client-B	0.0	4.55422	client-C
1	0	False	9	2	0	3	1.0	0.17	-1.0	1.0	-1.0	[0, 1, 2]	[0, 1, 2]	1.0	2.95289	client-A	1.0	1.96837	client-B	1.0	3.80357	client-C
1	0	False	10	0	1	3	1.0	0.17	2.0	1.0	11.9442	[0, 1, 2]	[0, 1, 2]	0.0	5.97223	client-A	1.0	1.41825	client-B	0.0	1.63508	client-C
1	0	False	11	1	0	2	1.0	0.135	0.0	0.0	19.2674	[0, 1, 2]	[0, 1, 2]	0.0	5.11038	client-A	1.0	2.9369	client-B	0.0	2.03539	client-C
1	0	False	12	2	1	1	1.0	0.115	-1.0	1.0	-1.0	[0, 1, 2]	[0, 1, 2]	1.0	2.26894	client-A	1.0	1.93534	client-B	1.0	2.16884	client-C
1	0	False	13	0	1	4	1.0	0.25	1.0	1.0	6.70638	[0, 1, 2]	[0, 1, 2]	0.0	3.18648	client-A	1.0	0.76763	client-B	1.0	1.35151	client-C
1	0	False	14	5	0	4	1.0	0.25	2.0	1.0	8.75807	[0, 1, 2]	[0, 1, 2]	1.0	3.30883	client-A	0.0	3.67082	client-B	1.0	1.2514	client-C
1	0	False	15	1	0	2	1.0	0.135	0.0	1.0	5.08832	[0, 1, 2]	[0, 1, 2]	0.0	2.71937	client-A	1.0	0.984184	client-B	0.0	0.917734	client-C
1	0	False	16	2	1	1	1.0	0.115	1.0	0.0	8.44126	[0, 1, 2]	[0, 1, 2]	0.0	1.91861	client-A	1.0	1.65175	client-B	0.0	2.26895	client-C
1	0	False	17	1	1	2	1.0	0.135	-1.0	1.0	-1.0	[0, 1, 2]	[0, 1, 2]	1.0	6.99602	client-A	1.0	1.65172	client-B	1.0	1.33478	client-C
1	0	False	18	2	1	1	1.0	0.115	2.0	0.0	6.85651	[0, 1, 2]	[0, 1, 2]	0.0	2.50256	client-A	1.0	1.85192	client-B	0.0	1.03455	client-C
1	0	False	19	5	0	1	1.0	0.115	-1.0	1.0	-1.0	[0, 1, 2]	[0, 1, 2]	1.0	3.26983	client-A	1.0	0.934486	client-B	1.0	3.46997	client-C
1	0	False	20	0	1	4	1.0	0.25	0.0	1.0	6.43947	[0, 1, 2]	[0, 1, 2]	0.0	1.90201	client-A	1.0	1.13463	client-B	0.0	0.90106	client-C
1	0	False	21	2	0	3	1.0	0.17	1.0	0.0	10.7828	[0, 1, 2]	[0, 1, 2]	0.0	1.51829	client-A	0.0	1.28474	client-B	1.0	1.15134	client-C
1	0	False	22	0	1	3	1.0	0.17	2.0	1.0	4.07066	[0, 1, 2]	[0, 1, 2]	1.0	2.0855	client-A	1.0	1.50129	client-B	0.0	2.16884	client-C
1	0	False	23	2	1	1	1.0	0.115	0.0	1.0	5.2217	[0, 1, 2]	[0, 1, 2]	0.0	2.3857	client-A	1.0	0.801039	client-B	1.0	2.18555	client-C
1	0	False	24	0	1	4	1.0	0.25	1.0	1.0	5.20506	[0, 1, 2]	[0, 1, 2]	0.0	2.48584	client-A	1.0	0.750997	client-B	1.0	0.784289	client-C
1	0	False	25	1	1	2	1.0	0.135	2.0	1.0	4.96036	[0, 1, 2]	[0, 1, 2]	0.0	0.602694	client-A	1.0	1.56833	client-B	1.0	0.817712	client-C
1	0	False	26	1	1	2	1.0	0.135	0.0	1.0	3.67034	[0, 1, 2]	[0, 1, 2]	1.0	1.86857	client-A	1.0	0.901084	client-B	0.0	1.18466	client-C
1	0	False	27	1	0	2	1.0	0.135	1.0	0.0	5.48864	[0, 1, 2]	[0, 1, 2]	0.0	3.13638	client-A	1.0	1.73516	client-B	0.0	1.21806	client-C
1	0	False	28	0	1	3	1.0	0.17	-1.0	1.0	-1.0	[0, 1, 2]	[0, 1, 2]	1.0	1.86864	client-A	1.0	1.46823	client-B	1.0	1.43492	client-C
1	0	False	29	5	0	1	1.0	0.115	2.0	1.0	5.45585	[0, 1, 2]	[0, 1, 2]	0.0	7.03979	client-A	1.0	2.28565	client-B	1.0	1.58501	client-C
1	0	False	30	0	1	4	1.0	0.25	-1.0	1.0	-1.0	[0, 1, 2]	[0, 1, 2]	1.0	7.34008	client-A	1.0	1.40155	client-B	1.0	8.39184	client-C
1	0	False	31	5	0	1	1.0	0.115	0.0	1.0	5.80559	[0, 1, 2]	[0, 1, 2]	0.0	2.05206	client-A	1.0	1.10125	client-B	1.0	1.28477	client-C
1	0	False	32	5	0	4	1.0	0.25	1.0	0.0	6.1893	[0, 1, 2]	[0, 1, 2]	0.0	2.75276	client-A	1.0	1.25144	client-B	0.0	1.36812	client-C
2	0	False	1	1	0	1	1.0	0.115	-1.0	1.0	-1.0	[0, 1, 2]	[0, 1, 2]	1.0	1.50156	client-A	1.0	1.30203	client-B	1.0	1.36812	client-C
2	0	False	2	0	0	2	1.0	0.135	2.0	1.0	9.35869	[0, 1, 2]	[0, 1, 2]	0.0	2.41905	client-A	1.0	1.61842	client-B	0.0	1.15133	client-C
2	0	False	3	0	0	2	1.0	0.135	0.0	1.0	4.18747	[0, 1, 2]	[0, 1, 2]	1.0	2.25232	client-A	1.0	1.75187	client-B	0.0	3.0196	client-C
2	0	False	4	4	0	3	1.0	0.17	1.0	0.0	5.52207	[0, 1, 2]	[0, 1, 2]	0.0	3.31989	client-A	1.0	1.31817	client-B	0.0	1.11794	client-C
2	0	False	5	2	1	2	1.0	0.135	2.0	1.0	6.07856	[0, 1, 2]	[0, 1, 2]	1.0	1.26869	client-A	1.0	1.08462	client-B	0.0	1.3014	client-C
2	0	False	6	2	1	4	1.0	0.25	0.0	1.0	4.0707	[0, 1, 2]	[0, 1, 2]	0.0	1.31812	client-A	1.0	0.734254	client-B	1.0	1.15136	client-C
2	0	False	7	3	1	1	1.0	0.115	1.0	0.0	7.10675	[0, 1, 2]	[0, 1, 2]	0.0	1.46827	client-A	1.0	1.38485	client-B	0.0	2.43573	client-C
2	0	False	8	3	1	1	1.0	0.115	-1.0	1.0	-1.0	[0, 1, 2]	[0, 1, 2]	1.0	1.90198	client-A	1.0	1.45158	client-B	1.0	0.700939	client-C
2	0	False	9	5	1	3	1.0	0.17	2.0	1.0	1.90211	[0, 1, 2]	[0, 1, 2]	0.0	1.23475	client-A	1.0	0.784352	client-B	1.0	0.584172	client-C
2	0	False	10	2	1	4	1.0	0.25	0.0	1.0	3.50355	[0, 1, 2]	[0, 1, 2]	0.0	1.80188	client-A	1.0	0.717646	client-B	1.0	1.35149	client-C
2	0	False	11	5	1	3	1.0	0.17	1.0	1.0	24.5555	[0, 1, 2]	[0, 1, 2]	0.0	1.66841	client-A	1.0	2.35248	client-B	1.0	1.71851	client-C
2	0	False	12	3	0	4	1.0	0.25	2.0	0.0	5.67828	[0, 1, 2]	[0, 1, 2]	0.0	5.0881	client-A	1.0	2.50252	client-B	0.0	0.984478	client-C
2	0	False	13	1	0	1	1.0	0.115	0.0	1.0	3.28668	[0, 1, 2]	[0, 1, 2]	1.0	0.567429	client-A	1.0	0.851055	client-B	0.0	1.10095	client-C
2	0	False	14	4	0	3	1.0	0.17	-1.0	0.0	-1.0	[0, 1, 2]	[0, 1, 2]	0.0	2.28564	client-A	0.0	1.96873	client-B	0.0	1.05122	client-C
2	0	False	15	2	1	2	1.0	0.135	1.0	0.0	8.00757	[0, 1, 2]	[0, 1, 2]	0.0	2.56922	client-A	1.0	1.85206	client-B	0.0	1.31814	client-C
2	0	False	16	3	1	1	1.0	0.115	2.0	1.0	5.65537	[0, 1, 2]	[0, 1, 2]	1.0	1.96873	client-A	1.0	1.60169	client-B	0.0	1.13462	client-C
2	0	False	17	5	1	3	1.0	0.17	0.0	1.0	6.0725	[0, 1, 2]	[0, 1, 2]	0.0	2.96906	client-A	1.0	0.884455	client-B	0.0	1.13524	client-C
2	0	False	18	5	1	3	1.0	0.17	1.0	1.0	9.10854	[0, 1, 2]	[0, 1, 2]	1.0	2.38569	client-A	1.0	0.70088	client-B	0.0	1.26806	client-C
2	0	False	19	2	1	2	1.0	0.135	2.0	1.0	4.95478	[0, 1, 2]	[0, 1, 2]	0.0	2.20226	client-A	1.0	0.917761	client-B	1.0	0.467356	client-C
2	0	False	20	3	0	4	1.0	0.25	0.0	0.0	4.04348	[0, 1, 2]	[0, 1, 2]	1.0	1.35146	client-A	0.0	1.41823	client-B	0.0	1.20137	client-C
2	0	False	21	2	1	4	1.0	0.25	-1.0	1.0	-1.0	[0, 1, 2]	[0, 1, 2]	1.0	3.00294	client-A	1.0	0.700899	client-B	1.0	1.10125	client-C
2	0	False	22	0	0	2	1.0	0.135	1.0	1.0	4.30425	[0, 1, 2]	[0, 1, 2]	0.0	2.61926	client-A	1.0	1.16803	client-B	1.0	0.700936	client-C
2	0	False	23	0	0	2	1.0	0.135	2.0	1.0	2.4693	[0, 1, 2]	[0, 1, 2]	1.0	3.33659	client-A	1.0	2.13551	client-B	0.0	1.8019	client-C
2	0	False	24	1	0	1	1.0	0.115	-1.0	0.0	-1.0	[0, 1, 2]	[0, 1, 2]	0.0	1.08461	client-A	0.0	2.73603	client-B	0.0	1.08462	client-C
2	0	False	25	2	1	2	1.0	0.135	0.0	0.0	3.23731	[0, 1, 2]	[0, 1, 2]	0.0	2.33565	client-A	0.0	1.30148	client-B	1.0	0.26723	client-C
2	0	False	26	3	1	1	1.0	0.115	1.0	1.0	10.3765	[0, 1, 2]	[0, 1, 2]	1.0	3.20311	client-A	1.0	1.16801	client-B	0.0	0.851096	client-C
2	0	False	27	3	0	4	1.0	0.25	-1.0	0.0	-1.0	[0, 1, 2]	[0, 1, 2]	0.0	0.734262	client-A	0.0	0.934444	client-B	0.0	0.800981	client-C
2	0	False	28	1	0	1	1.0	0.115	2.0	0.0	1.81871	[0, 1, 2]	[0, 1, 2]	1.0	2.80274	client-A	0.0	2.40247	client-B	0.0	0.867736	client-C
2	0	False	29	4	0	3	1.0	0.17	-1.0	0.0	-1.0	[0, 1, 2]	[0, 1, 2]	0.0	1.85197	client-A	0.0	0.867765	client-B	0.0	0.834327	client-C
2	0	False	30	2	1	4	1.0	0.25	-1.0	1.0	-1.0	[0, 1, 2]	[0, 1, 2]	1.0	1.58505	client-A	1.0	0.834363	client-B	1.0	0.801025	client-C
2	0	False	31	4	0	3	1.0	0.17	-1.0	0.0	-1.0	[0, 1, 2]	[0, 1, 2]	0.0	2.55313	client-A	0.0	1.88533	client-B	0.0	0.717594	client-C
2	0	False	32	3	0	4	1.0	0.25	0.0	0.0	3.05315	[0, 1, 2]	[0, 1, 2]	1.0	2.21891	client-A	0.0	0.801022	client-B	0.0	0.634152	client-C
0	1	False	1	5	0	1	1.0	0.115	2.0	0.0	4.0874	[2, 0, 1]	[0, 1, 2]	0.0	1.58566	client-B	1.0	1.70126	client-C	0.0	1.7184	client-A
0	1	False	2	0	0	4	1.0	0.25	0.0	1.0	3.637	[2, 0, 1]	[0, 1, 2]	1.0	2.70274	client-B	1.0	1.76854	client-C	0.0	2.38573	client-A
0	1	False	3	3	1	3	1.0	0.17	-1.0	0.0	-1.0	[2, 0, 1]	[0, 1, 2]	0.0	1.05126	client-B	0.0	1.08461	client-C	0.0	1.56832	client-A
0	1	False	4	4	1	4	1.0	0.25	1.0	0.0	6.12247	[2, 0, 1]	[0, 1, 2]	1.0	1.18465	client-B	0.0	0.700935	client-C	0.0	0.567461	client-A
0	1	False	5	5	0	3	1.0	0.17	2.0	1.0	1.76928	[2, 0, 1]	[0, 1, 2]	0.0	1.81857	client-B	1.0	2.00204	client-C	1.0	0.800976	client-A
0	1	False	6	3	1	1	1.0	0.115	0.0	0.0	5.06061	[2, 0, 1]	[0, 1, 2]	1.0	1.38485	client-B	0.0	1.13461	client-C	0.0	0.851055	client-A
0	1	False	7	3	1	2	1.0	0.135	1.0	0.0	11.4437	[2, 0, 1]	[0, 1, 2]	1.0	1.01785	client-B	0.0	1.60166	client-C	0.0	0.750982	client-A
0	1	False	8	3	0	2	1.0	0.135	-1.0	0.0	-1.0	[2, 0, 1]	[0, 1, 2]	0.0	2.25226	client-B	0.0	2.00208	client-C	0.0	1.91866	client-A
0	1	False	9	5	0	1	1.0	0.115	-1.0	1.0	-1.0	[2, 0, 1]	[0, 1, 2]	1.0	4.9881	client-B	1.0	1.4516	client-C	1.0	0.534083	client-A
0	1	False	10	3	1	1	1.0	0.115	2.0	0.0	6.84603	[2, 0, 1]	[0, 1, 2]	0.0	1.55166	client-B	1.0	2.03539	client-C	0.0	0.734232	client-A
0	1	False	11	3	0	2	1.0	0.135	-1.0	1.0	-1.0	[2, 0, 1]	[0, 1, 2]	1.0	2.53589	client-B	1.0	1.61836	client-C	1.0	1.66842	client-A
0	1	False	12	3	1	3	1.0	0.17	0.0	1.0	3.68706	[2, 0, 1]	[0, 1, 2]	0.0	1.91869	client-B	1.0	2.31898	client-C	1.0	0.684262	client-A
0	1	False	13	4	1	4	1.0	0.25	1.0	1.0	7.90736	[2, 0, 1]	[0, 1, 2]	0.0	1.80191	client-B	1.0	1.01789	client-C	1.0	0.684222	client-A
0	1	False	14	0	0	4	1.0	0.25	2.0	0.0	1.58517	[2, 0, 1]	[0, 1, 2]	1.0	1.7185	client-B	0.0	1.00113	client-C	0.0	0.784278	client-A
0	1	False	15	3	1	2	1.0	0.135	0.0	0.0	10.0822	[2, 0, 1]	[0, 1, 2]	0.0	1.18469	client-B	1.0	1.83526	client-C	0.0	1.43491	client-A
0	1	False	16	0	0	4	1.0	0.25	1.0	0.0	13.996	[2, 0, 1]	[0, 1, 2]	1.0	0.951141	client-B	0.0	0.901061	client-C	1.0	0.934459	client-A
0	1	False	17	5	0	3	1.0	0.17	2.0	0.0	1.88547	[2, 0, 1]	[0, 1, 2]	1.0	1.2014	client-B	0.0	6.52264	client-C	0.0	0.934468	client-A
0	1	False	18	3	1	3	1.0	0.17	0.0	1.0	3.13722	[2, 0, 1]	[0, 1, 2]	0.0	0.83433	client-B	1.0	1.01784	client-C	0.0	0.934451	client-A
0	1	False	19	3	0	2	1.0	0.135	1.0	1.0	12.2278	[2, 0, 1]	[0, 1, 2]	0.0	0.984182	client-B	1.0	1.71845	client-C	0.0	0.617464	client-A
0	1	False	20	3	0	2	1.0	0.135	-1.0	1.0	-1.0	[2, 0, 1]	[0, 1, 2]	1.0	1.41823	client-B	1.0	1.38482	client-C	1.0	0.333957	client-A
0	1	False	21	3	1	1	1.0	0.115	2.0	1.0	3.43682	[2, 0, 1]	[0, 1, 2]	0.0	1.65179	client-B	1.0	1.03454	client-C	0.0	0.517384	client-A
0	1	False	22	0	0	4	1.0	0.25	-1.0	0.0	-1.0	[2, 0, 1]	[0, 1, 2]	0.0	0.517409	client-B	0.0	0.884372	client-C	0.0	0.650838	client-A
0	1	False	23	5	0	3	1.0	0.17	0.0	1.0	3.18728	[2, 0, 1]	[0, 1, 2]	0.0	1.40154	client-B	1.0	1.16798	client-C	0.0	0.600781	client-A
0	1	False	24	5	0	1	1.0	0.115	1.0	1.0	9.70894	[2, 0, 1]	[0, 1, 2]	0.0	0.884385	client-B	1.0	2.1522	client-C	1.0	0.934486	client-A
0	1	False	25	4	1	4	1.0	0.25	2.0	1.0	2.78621	[2, 0, 1]	[0, 1, 2]	0.0	1.58507	client-B	1.0	1.85189	client-C	1.0	0.784334	client-A
0	1	False	26	5	0	1	1.0	0.115	0.0	1.0	4.32097	[2, 0, 1]	[0, 1, 2]	0.0	3.60351	client-B	1.0	2.16883	client-C	0.0	0.934431	client-A
0	1	False	27	3	1	2	1.0	0.135	1.0	1.0	5.73945	[2, 0, 1]	[0, 1, 2]	0.0	1.90196	client-B	1.0	1.65174	client-C	1.0	3.67084	client-A
0	1	False	28	5	0	3	1.0	0.17	2.0	1.0	2.56938	[2, 0, 1]	[0, 1, 2]	0.0	1.50163	client-B	1.0	1.9458	client-C	1.0	0.684221	client-A
0	1	False	29	3	1	2	1.0	0.135	0.0	1.0	3.90393	[2, 0, 1]	[0, 1, 2]	1.0	2.16888	client-B	1.0	1.10139	client-C	0.0	0.88438	client-A
0	1	False	30	4	1	4	1.0	0.25	1.0	1.0	8.55791	[2, 0, 1]	[0, 1, 2]	0.0	1.41825	client-B	1.0	0.70088	client-C	1.0	0.550811	client-A
0	1	False	31	3	1	3	1.0	0.17	-1.0	1.0	-1.0	[2, 0, 1]	[0, 1, 2]	1.0	1.93534	client-B	1.0	2.03543	client-C	1.0	0.383957	client-A
0	1	False	32	3	1	1	1.0	0.115	2.0	1.0	2.3692	[2, 0, 1]	[0, 1, 2]	0.0	2.4358	client-B	1.0	1.13461	client-C	1.0	0.417322	client-A
1	1	False	1	4	1	1	1.0	0.115	0.0	1.0	3.3201	[2, 0, 1]	[0, 1, 2]	0.0	1.41824	client-B	1.0	1.25139	client-C	0.0	0.93445	client-A
1	1	False	2	4	0	1	1.0	0.115	-1.0	1.0	-1.0	[2, 0, 1]	[0, 1, 2]	1.0	1.60175	client-B	1.0	0.917799	client-C	1.0	0.934489	client-A
1	1	False	3	0	0	4	1.0	0.25	-1.0	0.0	-1.0	[2, 0, 1]	[0, 1, 2]	0.0	2.36904	client-B	0.0	0.951128	client-C	0.0	0.86774	client-A
1	1	False	4	1	1	3	1.0	0.17	1.0	1.0	5.03822	[2, 0, 1]	[0, 1, 2]	1.0	2.2857	client-B	1.0	0.617511	client-C	0.0	0.667575	client-A
1	1	False	5	0	1	2	1.0	0.135	2.0	1.0	2.55823	[2, 0, 1]	[0, 1, 2]	0.0	2.60257	client-B	1.0	1.36815	client-C	1.0	0.700915	client-A
1	1	False	6	4	1	1	1.0	0.115	0.0	1.0	3.21996	[2, 0, 1]	[0, 1, 2]	1.0	1.23471	client-B	1.0	1.91867	client-C	0.0	0.550819	client-A
1	1	False	7	4	0	2	1.0	0.135	1.0	1.0	6.08912	[2, 0, 1]	[0, 1, 2]	0.0	2.93627	client-B	1.0	1.08404	client-C	0.0	1.00116	client-A
1	1	False	8	4	0	1	1.0	0.115	2.0	1.0	4.12076	[2, 0, 1]	[0, 1, 2]	1.0	3.15309	client-B	1.0	1.73518	client-C	0.0	1.13461	client-A
1	1	False	9	1	1	3	1.0	0.17	0.0	1.0	7.09069	[2, 0, 1]	[0, 1, 2]	0.0	1.48491	client-B	1.0	0.951156	client-C	1.0	0.784344	client-A
1	1	False	10	2	0	3	1.0	0.17	-1.0	0.0	-1.0	[2, 0, 1]	[0, 1, 2]	0.0	1.90199	client-B	0.0	1.06791	client-C	0.0	0.617496	client-A
1	1	False	11	3	1	4	1.0	0.25	1.0	1.0	5.10492	[2, 0, 1]	[0, 1, 2]	1.0	1.60175	client-B	1.0	0.60087	client-C	0.0	0.650866	client-A
1	1	False	12	0	1	2	1.0	0.135	2.0	1.0	3.95397	[2, 0, 1]	[0, 1, 2]	0.0	1.66842	client-B	1.0	2.1021	client-C	0.0	0.884386	client-A
1	1	False	13	3	1	4	1.0	0.25	0.0	1.0	2.51935	[2, 0, 1]	[0, 1, 2]	1.0	1.90201	client-B	1.0	1.86868	client-C	0.0	0.584122	client-A
1	1	False	14	0	1	2	1.0	0.135	1.0	0.0	17.3217	[2, 0, 1]	[0, 1, 2]	0.0	2.16889	client-B	1.0	1.50155	client-C	0.0	10.3656	client-A
1	1	False	15	4	0	2	1.0	0.135	-1.0	1.0	-1.0	[2, 0, 1]	[0, 1, 2]	1.0	1.7018	client-B	1.0	1.78517	client-C	1.0	0.83437	client-A
1	1	False	16	0	0	4	1.0	0.25	-1.0	0.0	-1.0	[2, 0, 1]	[0, 1, 2]	0.0	2.46915	client-B	0.0	0.951162	client-C	0.0	0.5007	client-A
1	1	False	17	2	0	3	1.0	0.17	2.0	0.0	4.43771	[2, 0, 1]	[0, 1, 2]	1.0	1.8853	client-B	0.0	1.0012	client-C	0.0	0.400654	client-A
1	1	False	18	1	1	3	1.0	0.17	0.0	1.0	2.47485	[2, 0, 1]	[0, 1, 2]	0.0	2.73671	client-B	1.0	1.10126	client-C	0.0	0.367264	client-A
1	1	False	19	3	1	4	1.0	0.25	1.0	1.0	3.72046	[2, 0, 1]	[0, 1, 2]	1.0	1.88528	client-B	1.0	1.40151	client-C	0.0	0.450678	client-A
1	1	False	20	2	0	3	1.0	0.17	-1.0	0.0	-1.0	[2, 0, 1]	[0, 1, 2]	0.0	0.951134	client-B	0.0	0.967806	client-C	0.0	0.700894	client-A
1	1	False	21	2	0	3	1.0	0.17	2.0	0.0	2.05225	[2, 0, 1]	[0, 1, 2]	1.0	3.18644	client-B	0.0	0.784334	client-C	0.0	0.584143	client-A
1	1	False	22	0	1	2	1.0	0.135	0.0	1.0	2.98647	[2, 0, 1]	[0, 1, 2]	0.0	0.600852	client-B	1.0	1.30145	client-C	0.0	0.884408	client-A
1	1	False	23	4	1	1	1.0	0.115	1.0	1.0	8.4745	[2, 0, 1]	[0, 1, 2]	0.0	1.55164	client-B	1.0	1.68512	client-C	1.0	1.38484	client-A
1	1	False	24	4	0	2	1.0	0.135	2.0	0.0	1.48508	[2, 0, 1]	[0, 1, 2]	0.0	1.61838	client-B	1.0	1.55225	client-C	0.0	0.617509	client-A
1	1	False	25	4	0	1	1.0	0.115	0.0	0.0	2.70287	[2, 0, 1]	[0, 1, 2]	1.0	5.20492	client-B	0.0	3.72025	client-C	0.0	1.01787	client-A
1	1	False	26	0	0	4	1.0	0.25	1.0	0.0	4.4377	[2, 0, 1]	[0, 1, 2]	1.0	3.4534	client-B	0.0	1.03457	client-C	0.0	0.934418	client-A
1	1	False	27	4	0	2	1.0	0.135	2.0	0.0	3.15383	[2, 0, 1]	[0, 1, 2]	0.0	1.65177	client-B	1.0	1.88526	client-C	0.0	0.600832	client-A
1	1	False	28	1	1	3	1.0	0.17	0.0	1.0	3.40347	[2, 0, 1]	[0, 1, 2]	1.0	3.9927	client-B	1.0	3.13635	client-C	0.0	2.26894	client-A
1	1	False	29	4	0	1	1.0	0.115	-1.0	0.0	-1.0	[2, 0, 1]	[0, 1, 2]	0.0	1.55172	client-B	0.0	1.96867	client-C	0.0	1.26812	client-A
1	1	False	30	4	1	1	1.0	0.115	1.0	0.0	7.07327	[2, 0, 1]	[0, 1, 2]	1.0	2.30239	client-B	0.0	1.06791	client-C	0.0	0.73431	client-A
1	1	False	31	3	1	4	1.0	0.25	-1.0	1.0	-1.0	[2, 0, 1]	[0, 1, 2]	1.0	2.20227	client-B	1.0	0.750938	client-C	1.0	0.951124	client-A
1	1	False	32	0	0	4	1.0	0.25	2.0	0.0	3.23852	[2, 0, 1]	[0, 1, 2]	1.0	2.319	client-B	0.0	0.834388	client-C	1.0	0.934463	client-A
2	1	False	1	1	0	2	1.0	0.135	0.0	0.0	2.50822	[2, 0, 1]	[0, 1, 2]	1.0	1.11856	client-B	0.0	0.951134	client-C	1.0	0.533559	client-A
2	1	False	2	2	0	1	1.0	0.115	1.0	1.0	6.60607	[2, 0, 1]	[0, 1, 2]	1.0	1.20139	client-B	1.0	1.68518	client-C	0.0	1.01789	client-A
2	1	False	3	1	1	1	1.0	0.115	2.0	1.0	2.96975	[2, 0, 1]	[0, 1, 2]	0.0	1.25139	client-B	1.0	1.10092	client-C	1.0	0.283892	client-A
2	1	False	4	1	1	2	1.0	0.135	0.0	1.0	2.31921	[2, 0, 1]	[0, 1, 2]	1.0	1.06794	client-B	1.0	1.01789	client-C	0.0	0.650827	client-A
2	1	False	5	0	1	4	1.0	0.25	1.0	1.0	4.73793	[2, 0, 1]	[0, 1, 2]	0.0	1.10133	client-B	1.0	1.35152	client-C	1.0	0.550769	client-A
2	1	False	6	2	0	1	1.0	0.115	-1.0	0.0	-1.0	[2, 0, 1]	[0, 1, 2]	0.0	1.7852	client-B	0.0	2.95292	client-C	0.0	0.417365	client-A
2	1	False	7	0	0	4	1.0	0.25	2.0	0.0	1.86882	[2, 0, 1]	[0, 1, 2]	1.0	2.18561	client-B	0.0	0.951125	client-C	0.0	0.550787	client-A
2	1	False	8	1	0	2	1.0	0.135	0.0	1.0	2.43597	[2, 0, 1]	[0, 1, 2]	1.0	1.55163	client-B	1.0	1.10097	client-C	0.0	0.43402	client-A
2	1	False	9	2	0	1	1.0	0.115	1.0	0.0	6.43943	[2, 0, 1]	[0, 1, 2]	0.0	9.05831	client-B	1.0	1.51825	client-C	0.0	0.317261	client-A
2	1	False	10	1	1	1	1.0	0.115	-1.0	1.0	-1.0	[2, 0, 1]	[0, 1, 2]	1.0	1.10126	client-B	1.0	3.01956	client-C	1.0	0.484286	client-A
2	1	False	11	5	0	3	1.0	0.17	2.0	1.0	5.92239	[2, 0, 1]	[0, 1, 2]	0.0	1.20136	client-B	1.0	1.65172	client-C	1.0	0.350554	client-A
2	1	False	12	5	1	3	1.0	0.17	0.0	1.0	12.8952	[2, 0, 1]	[0, 1, 2]	1.0	1.53497	client-B	1.0	1.58499	client-C	0.0	0.817648	client-A
2	1	False	13	2	0	1	1.0	0.115	-1.0	0.0	-1.0	[2, 0, 1]	[0, 1, 2]	0.0	1.21817	client-B	0.0	1.10126	client-C	0.0	0.817695	client-A
2	1	False	14	5	0	3	1.0	0.17	-1.0	0.0	-1.0	[2, 0, 1]	[0, 1, 2]	0.0	1.41825	client-B	0.0	1.25137	client-C	0.0	0.534124	client-A
2	1	False	15	5	1	3	1.0	0.17	1.0	1.0	10.7772	[2, 0, 1]	[0, 1, 2]	0.0	0.867701	client-B	1.0	1.01784	client-C	0.0	0.467385	client-A
2	1	False	16	0	0	4	1.0	0.25	-1.0	0.0	-1.0	[2, 0, 1]	[0, 1, 2]	0.0	2.15187	client-B	0.0	0.851049	client-C	0.0	0.584146	client-A
2	1	False	17	0	0	4	1.0	0.25	2.0	0.0	3.16991	[2, 0, 1]	[0, 1, 2]	1.0	1.93534	client-B	0.0	0.783958	client-C	0.0	0.617531	client-A
2	1	False	18	5	0	3	1.0	0.17	-1.0	0.0	-1.0	[2, 0, 1]	[0, 1, 2]	0.0	1.91862	client-B	0.0	1.585	client-C	0.0	0.667556	client-A
2	1	False	19	0	1	4	1.0	0.25	0.0	1.0	3.25334	[2, 0, 1]	[0, 1, 2]	1.0	3.20316	client-B	1.0	1.20135	client-C	0.0	0.650873	client-A
2	1	False	20	5	1	3	1.0	0.17	1.0	1.0	8.99163	[2, 0, 1]	[0, 1, 2]	0.0	1.26808	client-B	1.0	1.7685	client-C	1.0	1.20133	client-A
2	1	False	21	1	1	2	1.0	0.135	-1.0	1.0	-1.0	[2, 0, 1]	[0, 1, 2]	1.0	0.901092	client-B	1.0	1.35207	client-C	1.0	1.21803	client-A
2	1	False	22	1	0	2	1.0	0.135	2.0	1.0	1.86882	[2, 0, 1]	[0, 1, 2]	0.0	2.73607	client-B	1.0	1.24518	client-C	1.0	1.13465	client-A
2	1	False	23	1	1	1	1.0	0.115	0.0	0.0	6.60631	[2, 0, 1]	[0, 1, 2]	1.0	2.45244	client-B	0.0	2.50251	client-C	0.0	0.567482	client-A
2	1	False	24	0	1	4	1.0	0.25	1.0	1.0	8.291	[2, 0, 1]	[0, 1, 2]	1.0	1.80189	client-B	1.0	0.767609	client-C	0.0	0.634195	client-A
2	1	False	25	1	1	2	1.0	0.135	2.0	1.0	2.23578	[2, 0, 1]	[0, 1, 2]	0.0	2.03544	client-B	1.0	1.38484	client-C	1.0	0.834057	client-A
2	1	False	26	1	1	2	1.0	0.135	0.0	1.0	2.3192	[2, 0, 1]	[0, 1, 2]	1.0	1.36817	client-B	1.0	0.95109	client-C	0.0	0.817646	client-A
2	1	False	27	0	1	4	1.0	0.25	1.0	1.0	4.40433	[2, 0, 1]	[0, 1, 2]	0.0	2.13555	client-B	1.0	0.700926	client-C	1.0	0.767603	client-A
2	1	False	28	1	1	1	1.0	0.115	2.0	1.0	2.00218	[2, 0, 1]	[0, 1, 2]	1.0	1.55166	client-B	1.0	1.41822	client-C	0.0	1.00123	client-A
2	1	False	29	0	0	4	1.0	0.25	-1.0	0.0	-1.0	[2, 0, 1]	[0, 1, 2]	0.0	1.46828	client-B	0.0	0.750935	client-C	0.0	0.467415	client-A
2	1	False	30	1	0	2	1.0	0.135	0.0	0.0	4.13812	[2, 0, 1]	[0, 1, 2]	1.0	2.43582	client-B	0.0	2.0688	client-C	0.0	0.517386	client-A
2	1	False	31	5	0	3	1.0	0.17	1.0	0.0	5.02705	[2, 0, 1]	[0, 1, 2]	1.0	2.93627	client-B	0.0	1.20137	client-C	0.0	0.484048	client-A
2	1	False	32	5	1	3	1.0	0.17	2.0	1.0	3.95394	[2, 0, 1]	[0, 1, 2]	0.0	2.35247	client-B	1.0	0.583637	client-C	0.0	0.600817	client-A
0	2	False	1	1	1	4	1.0	0.25	1.0	1.0	6.22258	[1, 2, 0]	[0, 1, 2]	0.0	1.42865	client-C	1.0	0.934408	client-A	1.0	1.85189	client-B
0	2	False	2	4	0	4	1.0	0.25	2.0	0.0	2.46935	[1, 2, 0]	[0, 1, 2]	1.0	1.71849	client-C	0.0	0.817686	client-A	1.0	0.951162	client-B
0	2	False	3	5	1	1	1.0	0.115	-1.0	0.0	-1.0	[1, 2, 0]	[0, 1, 2]	0.0	1.33479	client-C	0.0	1.26809	client-A	0.0	0.650865	client-B
0	2	False	4	3	0	2	1.0	0.135	0.0	1.0	2.20234	[1, 2, 0]	[0, 1, 2]	1.0	1.11791	client-C	1.0	0.567494	client-A	0.0	0.650855	client-B
0	2	False	5	3	0	3	1.0	0.17	-1.0	0.0	-1.0	[1, 2, 0]	[0, 1, 2]	0.0	3.41991	client-C	0.0	0.884424	client-A	0.0	0.450766	client-B
0	2	False	6	0	1	3	1.0	0.17	1.0	1.0	4.02067	[1, 2, 0]	[0, 1, 2]	1.0	1.21798	client-C	1.0	0.534089	client-A	0.0	0.650922	client-B
0	2	False	7	3	0	2	1.0	0.135	2.0	0.0	3.13659	[1, 2, 0]	[0, 1, 2]	0.0	0.417309	client-C	0.0	1.28474	client-A	1.0	0.734284	client-B
0	2	False	8	5	1	1	1.0	0.115	0.0	1.0	2.13565	[1, 2, 0]	[0, 1, 2]	1.0	1.48492	client-C	1.0	0.767682	client-A	0.0	0.700946	client-B
0	2	False	9	2	1	2	1.0	0.135	1.0	1.0	8.50793	[1, 2, 0]	[0, 1, 2]	0.0	1.30148	client-C	1.0	0.984538	client-A	1.0	0.700887	client-B
0	2	False	10	1	0	1	1.0	0.115	2.0	1.0	3.82117	[1, 2, 0]	[0, 1, 2]	0.0	1.25137	client-C	1.0	2.65821	client-A	0.0	0.300575	client-B
0	2	False	11	3	0	3	1.0	0.17	0.0	1.0	2.21905	[1, 2, 0]	[0, 1, 2]	0.0	2.90841	client-C	1.0	1.78521	client-A	0.0	0.367255	client-B
0	2	False	12	0	1	3	1.0	0.17	1.0	0.0	7.50709	[1, 2, 0]	[0, 1, 2]	0.0	2.06879	client-C	1.0	1.88526	client-A	0.0	0.317265	client-B
0	2	False	13	1	1	4	1.0	0.25	2.0	1.0	1.8855	[1, 2, 0]	[0, 1, 2]	0.0	1.65174	client-C	1.0	0.917732	client-A	0.0	0.300553	client-B
0	2	False	14	3	0	3	1.0	0.17	0.0	0.0	2.21906	[1, 2, 0]	[0, 1, 2]	1.0	1.55164	client-C	0.0	1.218	client-A	1.0	0.967847	client-B
0	2	False	15	3	0	2	1.0	0.135	1.0	1.0	7.80737	[1, 2, 0]	[0, 1, 2]	1.0	1.90198	client-C	1.0	1.13462	client-A	0.0	0.267206	client-B
0	2	False	16	1	0	1	1.0	0.115	2.0	0.0	1.68529	[1, 2, 0]	[0, 1, 2]	0.0	1.33481	client-C	1.0	1.73514	client-A	0.0	0.317238	client-B
0	2	False	17	4	0	4	1.0	0.25	0.0	0.0	3.60362	[1, 2, 0]	[0, 1, 2]	1.0	1.66843	client-C	0.0	0.834399	client-A	0.0	0.801029	client-B
0	2	False	18	2	1	2	1.0	0.135	1.0	1.0	12.6846	[1, 2, 0]	[0, 1, 2]	1.0	4.30403	client-C	1.0	1.35145	client-A	0.0	0.767616	client-B
0	2	False	19	4	0	4	1.0	0.25	2.0	0.0	2.78633	[1, 2, 0]	[0, 1, 2]	1.0	1.31815	client-C	0.0	1.31811	client-A	0.0	0.717584	client-B
0	2	False	20	1	1	4	1.0	0.25	0.0	1.0	2.51934	[1, 2, 0]	[0, 1, 2]	0.0	3.75355	client-C	1.0	0.750972	client-A	0.0	0.867707	client-B
0	2	False	21	0	1	3	1.0	0.17	1.0	1.0	14.0461	[1, 2, 0]	[0, 1, 2]	0.0	3.0029	client-C	1.0	1.38486	client-A	0.0	0.767635	client-B
0	2	False	22	1	1	4	1.0	0.25	2.0	1.0	1.76871	[1, 2, 0]	[0, 1, 2]	0.0	2.53582	client-C	1.0	0.967825	client-A	1.0	0.367291	client-B
0	2	False	23	5	1	1	1.0	0.115	0.0	0.0	6.88983	[1, 2, 0]	[0, 1, 2]	1.0	1.55168	client-C	1.0	2.16888	client-A	0.0	0.650902	client-B
0	2	False	24	1	0	1	1.0	0.115	1.0	1.0	8.49126	[1, 2, 0]	[0, 1, 2]	1.0	5.75527	client-C	0.0	2.76937	client-A	1.0	0.350643	client-B
0	2	False	25	4	0	4	1.0	0.25	-1.0	0.0	-1.0	[1, 2, 0]	[0, 1, 2]	0.0	1.08463	client-C	0.0	0.817679	client-A	0.0	0.634171	client-B
0	2	False	26	2	1	2	1.0	0.135	2.0	0.0	2.4026	[1, 2, 0]	[0, 1, 2]	1.0	1.53499	client-C	1.0	1.25138	client-A	0.0	0.500734	client-B
0	2	False	27	3	0	2	1.0	0.135	-1.0	0.0	-1.0	[1, 2, 0]	[0, 1, 2]	0.0	0.300539	client-C	0.0	1.01789	client-A	0.0	0.467354	client-B
0	2	False	28	3	0	3	1.0	0.17	-1.0	0.0	-1.0	[1, 2, 0]	[0, 1, 2]	0.0	1.35151	client-C	0.0	1.3348	client-A	0.0	0.617473	client-B
0	2	False	29	2	1	2	1.0	0.135	0.0	1.0	2.40253	[1, 2, 0]	[0, 1, 2]	0.0	1.56829	client-C	1.0	1.13463	client-A	0.0	0.550805	client-B
0	2	False	30	0	1	3	1.0	0.17	1.0	1.0	4.37094	[1, 2, 0]	[0, 1, 2]	0.0	1.9854	client-C	1.0	1.03454	client-A	1.0	4.37079	client-B
0	2	False	31	5	1	1	1.0	0.115	-1.0	1.0	-1.0	[1, 2, 0]	[0, 1, 2]	1.0	1.23471	client-C	1.0	2.60259	client-A	1.0	0.267187	client-B
0	2	False	32	1	0	1	1.0	0.115	2.0	1.0	2.76979	[1, 2, 0]	[0, 1, 2]	1.0	1.76852	client-C	1.0	1.76852	client-A	0.0	0.73431	client-B
1	2	False	1	3	0	4	1.0	0.25	0.0	0.0	2.70344	[1, 2, 0]	[0, 1, 2]	1.0	1.68507	client-C	0.0	0.650856	client-A	0.0	0.400667	client-B
1	2	False	2	5	1	1	1.0	0.115	1.0	1.0	3.43687	[1, 2, 0]	[0, 1, 2]	1.0	1.66844	client-C	1.0	1.96868	client-A	0.0	0.517412	client-B
1	2	False	3	2	1	3	1.0	0.17	2.0	1.0	2.41928	[1, 2, 0]	[0, 1, 2]	1.0	1.31809	client-C	1.0	1.51831	client-A	0.0	0.550799	client-B
1	2	False	4	4	0	1	1.0	0.115	0.0	1.0	3.77042	[1, 2, 0]	[0, 1, 2]	0.0	1.60166	client-C	1.0	1.81883	client-A	0.0	0.350652	client-B
1	2	False	5	1	1	4	1.0	0.25	1.0	1.0	7.17958	[1, 2, 0]	[0, 1, 2]	0.0	1.53499	client-C	1.0	1.20137	client-A	0.0	0.26717	client-B
1	2	False	6	2	1	3	1.0	0.17	2.0	1.0	2.25243	[1, 2, 0]	[0, 1, 2]	1.0	2.18557	client-C	1.0	1.3682	client-A	0.0	0.734266	client-B
1	2	False	7	5	0	3	1.0	0.17	0.0	1.0	5.47202	[1, 2, 0]	[0, 1, 2]	0.0	1.10128	client-C	1.0	2.68599	client-A	0.0	0.867756	client-B
1	2	False	8	1	1	4	1.0	0.25	1.0	1.0	4.22084	[1, 2, 0]	[0, 1, 2]	0.0	1.91861	client-C	1.0	1.06787	client-A	0.0	0.634179	client-B
1	2	False	9	1	1	2	1.0	0.135	-1.0	1.0	-1.0	[1, 2, 0]	[0, 1, 2]	1.0	0.43397	client-C	1.0	3.33657	client-A	1.0	0.31725	client-B
1	2	False	10	5	1	1	1.0	0.115	2.0	0.0	1.18488	[1, 2, 0]	[0, 1, 2]	0.0	1.61835	client-C	1.0	2.10218	client-A	0.0	0.434057	client-B
1	2	False	11	0	0	2	1.0	0.135	0.0	1.0	3.42012	[1, 2, 0]	[0, 1, 2]	1.0	1.16795	client-C	1.0	1.28475	client-A	0.0	0.5675	client-B
1	2	False	12	1	1	2	1.0	0.135	1.0	1.0	7.47366	[1, 2, 0]	[0, 1, 2]	0.0	1.43491	client-C	1.0	0.901115	client-A	0.0	0.45089	client-B
1	2	False	13	5	0	3	1.0	0.17	2.0	0.0	1.28497	[1, 2, 0]	[0, 1, 2]	1.0	1.6851	client-C	1.0	1.10129	client-A	0.0	0.434049	client-B
1	2	False	14	0	0	2	1.0	0.135	-1.0	0.0	-1.0	[1, 2, 0]	[0, 1, 2]	0.0	1.25141	client-C	0.0	0.95117	client-A	0.0	2.21888	client-B
1	2	False	15	5	1	1	1.0	0.115	0.0	1.0	3.21996	[1, 2, 0]	[0, 1, 2]	1.0	2.95287	client-C	1.0	1.70177	client-A	0.0	0.417307	client-B
1	2	False	16	0	0	2	1.0	0.135	1.0	0.0	6.25596	[1, 2, 0]	[0, 1, 2]	1.0	3.33653	client-C	0.0	1.61704	client-A	0.0	0.383999	client-B
1	2	False	17	3	0	4	1.0	0.25	-1.0	0.0	-1.0	[1, 2, 0]	[0, 1, 2]	0.0	2.55256	client-C	0.0	4.78782	client-A	0.0	1.30141	client-B
1	2	False	18	5	0	3	1.0	0.17	-1.0	0.0	-1.0	[1, 2, 0]	[0, 1, 2]	0.0	3.52005	client-C	0.0	1.13458	client-A	0.0	0.634212	client-B
1	2	False	19	4	0	1	1.0	0.115	2.0	0.0	0.901265	[1, 2, 0]	[0, 1, 2]	0.0	1.81855	client-C	1.0	1.00122	client-A	0.0	0.36728	client-B
1	2	False	20	5	0	3	1.0	0.17	0.0	1.0	2.95308	[1, 2, 0]	[0, 1, 2]	1.0	2.68593	client-C	1.0	1.0846	client-A	0.0	0.317248	client-B
1	2	False	21	1	1	4	1.0	0.25	1.0	1.0	3.75377	[1, 2, 0]	[0, 1, 2]	0.0	1.28472	client-C	1.0	0.584121	client-A	0.0	0.951125	client-B
1	2	False	22	1	1	4	1.0	0.25	2.0	1.0	1.10697	[1, 2, 0]	[0, 1, 2]	0.0	1.96934	client-C	1.0	0.73427	client-A	1.0	0.383961	client-B
1	2	False	23	4	0	1	1.0	0.115	-1.0	0.0	-1.0	[1, 2, 0]	[0, 1, 2]	0.0	2.36903	client-C	0.0	1.218	client-A	0.0	0.411155	client-B
1	2	False	24	1	1	2	1.0	0.135	-1.0	1.0	-1.0	[1, 2, 0]	[0, 1, 2]	1.0	2.13553	client-C	1.0	0.951163	client-A	1.0	0.250495	client-B
1	2	False	25	4	0	1	1.0	0.115	0.0	1.0	3.00313	[1, 2, 0]	[0, 1, 2]	1.0	2.0354	client-C	1.0	1.95202	client-A	0.0	0.600934	client-B
1	2	False	26	2	1	3	1.0	0.17	1.0	1.0	3.7099	[1, 2, 0]	[0, 1, 2]	0.0	1.21802	client-C	1.0	1.46824	client-A	1.0	0.717607	client-B
1	2	False	27	5	1	1	1.0	0.115	-1.0	1.0	-1.0	[1, 2, 0]	[0, 1, 2]	1.0	0.61749	client-C	1.0	1.7685	client-A	1.0	0.834394	client-B
1	2	False	28	3	0	4	1.0	0.25	-1.0	0.0	-1.0	[1, 2, 0]	[0, 1, 2]	0.0	1.61835	client-C	0.0	0.8344	client-A	0.0	0.500729	client-B
1	2	False	29	3	0	4	1.0	0.25	-1.0	0.0	-1.0	[1, 2, 0]	[0, 1, 2]	0.0	2.2362	client-C	0.0	0.600838	client-A	0.0	0.517472	client-B
1	2	False	30	0	0	2	1.0	0.135	2.0	0.0	1.01813	[1, 2, 0]	[0, 1, 2]	1.0	1.96867	client-C	0.0	1.60171	client-A	0.0	0.467394	client-B
1	2	False	31	1	1	2	1.0	0.135	0.0	0.0	4.72127	[1, 2, 0]	[0, 1, 2]	0.0	9.75878	client-C	1.0	2.11885	client-A	0.0	0.700951	client-B
1	2	False	32	2	1	3	1.0	0.17	1.0	1.0	5.12164	[1, 2, 0]	[0, 1, 2]	1.0	1.43491	client-C	1.0	1.30147	client-A	0.0	1.75185	client-B
2	2	False	1	1	0	3	1.0	0.17	2.0	1.0	1.00136	[1, 2, 0]	[0, 1, 2]	0.0	4.43808	client-C	1.0	1.43488	client-A	1.0	0.434002	client-B
2	2	False	2	1	0	3	1.0	0.17	0.0	0.0	2.40255	[1, 2, 0]	[0, 1, 2]	1.0	1.70178	client-C	0.0	0.817661	client-A	1.0	0.834345	client-B
2	2	False	3	2	1	4	1.0	0.25	-1.0	1.0	-1.0	[1, 2, 0]	[0, 1, 2]	1.0	1.35147	client-C	1.0	1.11792	client-A	1.0	0.467392	client-B
2	2	False	4	0	1	3	1.0	0.17	1.0	1.0	2.86965	[1, 2, 0]	[0, 1, 2]	1.0	1.63509	client-C	1.0	0.717548	client-A	0.0	0.45074	client-B
2	2	False	5	2	1	4	1.0	0.25	2.0	1.0	1.75205	[1, 2, 0]	[0, 1, 2]	0.0	1.95197	client-C	1.0	0.884402	client-A	0.0	0.367354	client-B
2	2	False	6	2	0	4	1.0	0.25	-1.0	0.0	-1.0	[1, 2, 0]	[0, 1, 2]	0.0	2.51915	client-C	0.0	0.750625	client-A	0.0	0.56747	client-B
2	2	False	7	1	1	2	1.0	0.135	-1.0	1.0	-1.0	[1, 2, 0]	[0, 1, 2]	1.0	2.00201	client-C	1.0	1.01788	client-A	1.0	0.317227	client-B
2	2	False	8	5	1	1	1.0	0.115	-1.0	0.0	-1.0	[1, 2, 0]	[0, 1, 2]	0.0	2.06875	client-C	0.0	1.41818	client-A	0.0	0.767686	client-B
2	2	False	9	5	1	1	1.0	0.115	-1.0	1.0	-1.0	[1, 2, 0]	[0, 1, 2]	1.0	1.43485	client-C	1.0	0.667582	client-A	1.0	1.48556	client-B
2	2	False	10	2	0	4	1.0	0.25	0.0	0.0	2.0189	[1, 2, 0]	[0, 1, 2]	1.0	1.68513	client-C	0.0	0.634199	client-A	0.0	0.300576	client-B
2	2	False	11	5	1	1	1.0	0.115	1.0	1.0	6.70634	[1, 2, 0]	[0, 1, 2]	1.0	1.06786	client-C	1.0	1.21802	client-A	0.0	0.317223	client-B
2	2	False	12	1	1	2	1.0	0.135	2.0	0.0	1.03469	[1, 2, 0]	[0, 1, 2]	0.0	1.96868	client-C	1.0	1.00179	client-A	0.0	0.367267	client-B
2	2	False	13	0	1	3	1.0	0.17	0.0	1.0	2.03557	[1, 2, 0]	[0, 1, 2]	1.0	1.11797	client-C	1.0	0.684229	client-A	0.0	0.434007	client-B
2	2	False	14	1	1	2	1.0	0.135	1.0	1.0	9.05843	[1, 2, 0]	[0, 1, 2]	1.0	1.01783	client-C	1.0	1.50161	client-A	0.0	0.317276	client-B
2	2	False	15	5	0	2	1.0	0.135	2.0	0.0	1.46845	[1, 2, 0]	[0, 1, 2]	0.0	2.05207	client-C	1.0	1.05121	client-A	0.0	0.283875	client-B
2	2	False	16	4	0	1	1.0	0.115	0.0	1.0	3.03649	[1, 2, 0]	[0, 1, 2]	1.0	5.33826	client-C	1.0	2.11881	client-A	0.0	0.467351	client-B
2	2	False	17	2	0	4	1.0	0.25	-1.0	0.0	-1.0	[1, 2, 0]	[0, 1, 2]	0.0	2.0854	client-C	0.0	0.750871	client-A	0.0	1.15136	client-B
2	2	False	18	2	1	4	1.0	0.25	1.0	1.0	2.55269	[1, 2, 0]	[0, 1, 2]	0.0	0.700888	client-C	1.0	0.417399	client-A	0.0	0.200509	client-B
2	2	False	19	1	1	2	1.0	0.135	2.0	0.0	0.784535	[1, 2, 0]	[0, 1, 2]	1.0	1.21805	client-C	1.0	1.10128	client-A	0.0	0.600864	client-B
2	2	False	20	5	0	2	1.0	0.135	0.0	0.0	5.32181	[1, 2, 0]	[0, 1, 2]	0.0	1.73511	client-C	0.0	3.77024	client-A	1.0	0.551387	client-B
2	2	False	21	5	0	2	1.0	0.135	1.0	0.0	10.9941	[1, 2, 0]	[0, 1, 2]	0.0	3.67014	client-C	1.0	1.23471	client-A	0.0	0.283897	client-B
2	2	False	22	5	0	2	1.0	0.135	2.0	1.0	2.08568	[1, 2, 0]	[0, 1, 2]	1.0	1.61839	client-C	1.0	0.80101	client-A	0.0	0.217156	client-B
2	2	False	23	0	1	3	1.0	0.17	0.0	0.0	10.2761	[1, 2, 0]	[0, 1, 2]	0.0	2.06882	client-C	1.0	0.951143	client-A	0.0	0.267205	client-B
2	2	False	24	0	1	3	1.0	0.17	1.0	1.0	4.92143	[1, 2, 0]	[0, 1, 2]	1.0	2.35231	client-C	1.0	0.650903	client-A	0.0	0.283394	client-B
2	2	False	25	4	0	1	1.0	0.115	-1.0	0.0	-1.0	[1, 2, 0]	[0, 1, 2]	0.0	2.03541	client-C	0.0	1.88525	client-A	0.0	1.08456	client-B
2	2	False	26	4	0	1	1.0	0.115	2.0	0.0	1.46846	[1, 2, 0]	[0, 1, 2]	0.0	1.26808	client-C	1.0	2.25291	client-A	0.0	0.500735	client-B
2	2	False	27	2	1	4	1.0	0.25	-1.0	1.0	-1.0	[1, 2, 0]	[0, 1, 2]	1.0	2.93623	client-C	1.0	3.18644	client-A	1.0	0.817652	client-B
2	2	False	28	1	0	3	1.0	0.17	0.0	1.0	6.22255	[1, 2, 0]	[0, 1, 2]	0.0	1.585	client-C	1.0	1.61838	client-A	1.0	0.484062	client-B
2	2	False	29	2	0	4	1.0	0.25	-1.0	0.0	-1.0	[1, 2, 0]	[0, 1, 2]	0.0	1.31808	client-C	0.0	0.500736	client-A	0.0	1.18466	client-B
2	2	False	30	5	1	1	1.0	0.115	1.0	0.0	6.40612	[1, 2, 0]	[0, 1, 2]	0.0	1.3014	client-C	1.0	0.717626	client-A	0.0	0.300517	client-B
2	2	False	31	1	0	3	1.0	0.17	2.0	1.0	2.9364	[1, 2, 0]	[0, 1, 2]	1.0	1.08458	client-C	1.0	1.31812	client-A	0.0	0.450668	client-B
2	2	False	32	4	0	1	1.0	0.115	-1.0	0.0	-1.0	[1, 2, 0]	[0, 1, 2]	0.0	1.53497	client-C	0.0	1.86856	client-A	0.0	0.567466	client-B
