subblock_no	block_no	practice	TrialNumber	target_pos	target_screen_nr	contrast_idx	ran	contrast	group_dec_maker	group_dec	group_dec_rt	participants	feedback_texts_order	0_indiv_dec	0_indiv_dec_rt	0_client	1_indiv_dec	1_indiv_dec_rt	1_client	2_indiv_dec	2_indiv_dec_rt	2_client	trial_wait.duration	fixation.duration	stim1.duration	blank_between.duration	stim2.duration
0	0	True	1	4	0	2	1.0	0.135	0.0	0.0	25.8567	[0, 1, 2]	[0, 1, 2]	1.0	2.98685	client-A	--	--	--	--	--	--	0.0501034	0.520733	0.0960733	0.994564	0.0665701
0	0	True	2	4	1	1	1.0	0.115	1.0	--	--	[0, 1, 2]	[0, 1, 2]	0.0	16.4373	client-A	--	--	--	--	--	--	0.0501027	0.500384	0.0998749	1.00077	0.110812
0	0	True	3	1	0	1	1.0	0.115	2.0	--	--	[0, 1, 2]	[0, 1, 2]	1.0	14.6695	client-A	--	--	--	--	--	--	0.0333725	0.50038	0.0999008	0.994616	0.0665786
0	0	True	4	4	0	4	1.0	0.25	0.0	0.0	15.9151	[0, 1, 2]	[0, 1, 2]	0.0	1.7185	client-A	--	--	--	--	--	--	0.0333491	0.500451	0.0998346	0.994595	0.0666281
0	0	True	5	5	1	3	1.0	0.17	1.0	--	--	[0, 1, 2]	[0, 1, 2]	0.0	1.40119	client-A	--	--	--	--	--	--	0.0500698	0.500321	0.0999542	1.00083	0.11078
0	0	True	6	4	1	2	1.0	0.135	2.0	--	--	[0, 1, 2]	[0, 1, 2]	1.0	2.41912	client-A	--	--	--	--	--	--	0.0333643	0.483647	0.0666179	0.984097	0.066598
0	0	True	7	0	0	3	1.0	0.17	-1.0	--	--	[0, 1, 2]	[0, 1, 2]	0.0	1.13466	client-A	--	--	--	--	--	--	0.0333972	0.483653	0.0666129	0.984716	0.0665998
0	0	True	8	2	1	4	1.0	0.25	-1.0	--	--	[0, 1, 2]	[0, 1, 2]	1.0	1.43489	client-A	--	--	--	--	--	--	0.0333636	0.500255	0.0999928	0.994607	0.0666246
0	0	False	1	3	0	2	1.0	0.135	0.0	1.0	4.4377	[0, 1, 2]	[0, 1, 2]	1.0	0.851039	client-A	--	--	--	--	--	--	0.0500468	0.483585	0.0665987	0.984049	0.0665559
0	0	False	2	1	1	1	1.0	0.115	1.0	--	--	[0, 1, 2]	[0, 1, 2]	0.0	1.01785	client-A	--	--	--	--	--	--	0.0500631	0.483648	0.0666497	0.984064	0.0666207
0	0	False	3	0	1	2	1.0	0.135	2.0	--	--	[0, 1, 2]	[0, 1, 2]	0.0	1.88532	client-A	--	--	--	--	--	--	0.0333774	0.500341	0.100092	0.994488	0.0666072
0	0	False	4	4	0	1	1.0	0.115	0.0	1.0	5.47197	[0, 1, 2]	[0, 1, 2]	0.0	0.767652	client-A	--	--	--	--	--	--	0.0333951	0.483656	0.0665973	0.984085	0.06662
0	0	False	5	1	1	3	1.0	0.17	1.0	--	--	[0, 1, 2]	[0, 1, 2]	0.0	1.90198	client-A	--	--	--	--	--	--	0.0333551	0.48366	0.0666235	0.98409	0.0666246
0	0	False	6	1	1	1	1.0	0.115	-1.0	--	--	[0, 1, 2]	[0, 1, 2]	0.0	0.767632	client-A	--	--	--	--	--	--	0.0334627	0.500357	0.0999673	0.994507	0.0666094
0	0	False	7	4	0	1	1.0	0.115	2.0	--	--	[0, 1, 2]	[0, 1, 2]	1.0	1.30148	client-A	--	--	--	--	--	--	0.033371	0.48368	0.0665902	0.984107	0.0665803
0	0	False	8	3	0	2	1.0	0.135	0.0	0.0	3.9101	[0, 1, 2]	[0, 1, 2]	1.0	1.20136	client-A	--	--	--	--	--	--	0.0333746	0.483677	0.0666044	0.984113	0.0666246
0	0	False	9	2	0	3	1.0	0.17	-1.0	--	--	[0, 1, 2]	[0, 1, 2]	0.0	0.851097	client-A	--	--	--	--	--	--	0.0500355	0.500321	0.0938324	0.984079	0.0665832
0	0	False	10	5	1	4	1.0	0.25	1.0	--	--	[0, 1, 2]	[0, 1, 2]	1.0	0.884367	client-A	--	--	--	--	--	--	0.0333859	0.48365	0.0832756	1.00079	0.0666044
0	0	False	11	5	1	4	1.0	0.25	2.0	--	--	[0, 1, 2]	[0, 1, 2]	0.0	0.71759	client-A	--	--	--	--	--	--	0.0333771	0.483659	0.0666115	0.984078	0.0666228
0	0	False	12	1	1	3	1.0	0.17	0.0	0.0	4.83809	[0, 1, 2]	[0, 1, 2]	1.0	2.21894	client-A	--	--	--	--	--	--	0.0500578	0.483653	0.0666168	0.984107	0.0666016
0	0	False	13	2	0	3	1.0	0.17	1.0	--	--	[0, 1, 2]	[0, 1, 2]	0.0	0.517428	client-A	--	--	--	--	--	--	0.0667555	0.483646	0.0666186	0.984103	0.066575
0	0	False	14	0	1	2	1.0	0.135	2.0	--	--	[0, 1, 2]	[0, 1, 2]	0.0	0.467393	client-A	--	--	--	--	--	--	0.0334061	0.500306	0.0771057	0.984084	0.0666278
0	0	False	15	0	0	4	1.0	0.25	-1.0	--	--	[0, 1, 2]	[0, 1, 2]	0.0	1.21801	client-A	--	--	--	--	--	--	0.0500829	0.483632	0.0666115	0.984104	0.0666147
0	0	False	16	1	1	1	1.0	0.115	0.0	1.0	3.35339	[0, 1, 2]	[0, 1, 2]	0.0	0.6008	client-A	--	--	--	--	--	--	0.0500921	0.48363	0.0666302	0.984092	0.0666147
0	0	False	17	2	0	3	1.0	0.17	1.0	--	--	[0, 1, 2]	[0, 1, 2]	0.0	0.68423	client-A	--	--	--	--	--	--	0.0500659	0.483657	0.0666104	0.984095	0.0666203
0	0	False	18	0	0	4	1.0	0.25	-1.0	--	--	[0, 1, 2]	[0, 1, 2]	0.0	0.550749	client-A	--	--	--	--	--	--	0.033382	0.483646	0.0666079	0.984097	0.0666341
0	0	False	19	2	0	3	1.0	0.17	-1.0	--	--	[0, 1, 2]	[0, 1, 2]	0.0	0.477923	client-A	--	--	--	--	--	--	0.0500688	0.505883	0.09998	1.00074	0.099997
0	0	False	20	5	1	4	1.0	0.25	-1.0	--	--	[0, 1, 2]	[0, 1, 2]	1.0	0.967867	client-A	--	--	--	--	--	--	0.0333937	0.483654	0.066598	0.984088	0.0666069
0	0	False	21	4	0	1	1.0	0.115	2.0	--	--	[0, 1, 2]	[0, 1, 2]	0.0	0.867762	client-A	--	--	--	--	--	--	0.0333884	0.483631	0.0666345	0.984078	0.0665959
0	0	False	22	0	1	2	1.0	0.135	0.0	0.0	0.95131	[0, 1, 2]	[0, 1, 2]	0.0	0.584174	client-A	--	--	--	--	--	--	0.033393	0.483614	0.0666207	0.984101	0.0666161
0	0	False	23	0	0	4	1.0	0.25	1.0	--	--	[0, 1, 2]	[0, 1, 2]	1.0	1.65174	client-A	--	--	--	--	--	--	0.0667375	0.483647	0.0666048	0.984096	0.0666048
0	0	False	24	1	1	3	1.0	0.17	2.0	--	--	[0, 1, 2]	[0, 1, 2]	0.0	0.383934	client-A	--	--	--	--	--	--	0.0333824	0.483648	0.0666228	0.984102	0.0666079
0	0	False	25	1	1	3	1.0	0.17	0.0	0.0	7.22349	[0, 1, 2]	[0, 1, 2]	0.0	1.11795	client-A	--	--	--	--	--	--	0.0667831	0.483598	0.0666338	0.984083	0.0666072
0	0	False	26	0	0	4	1.0	0.25	-1.0	--	--	[0, 1, 2]	[0, 1, 2]	0.0	0.650892	client-A	--	--	--	--	--	--	0.0501144	0.500293	0.0999878	0.994587	0.0665952
0	0	False	27	3	0	2	1.0	0.135	1.0	--	--	[0, 1, 2]	[0, 1, 2]	0.0	0.634186	client-A	--	--	--	--	--	--	0.0500351	0.483662	0.06662	0.984095	0.0665821
0	0	False	28	4	0	1	1.0	0.115	2.0	--	--	[0, 1, 2]	[0, 1, 2]	0.0	0.934465	client-A	--	--	--	--	--	--	0.0333933	0.483632	0.0665888	0.984102	0.0666292
0	0	False	29	5	1	4	1.0	0.25	-1.0	--	--	[0, 1, 2]	[0, 1, 2]	1.0	1.01786	client-A	--	--	--	--	--	--	0.0500546	0.483658	0.0665995	0.984071	0.0666239
0	0	False	30	1	1	1	1.0	0.115	0.0	0.0	3.72044	[0, 1, 2]	[0, 1, 2]	0.0	0.550798	client-A	--	--	--	--	--	--	0.0667548	0.500331	0.0684932	0.999517	0.0665938
0	0	False	31	3	0	2	1.0	0.135	1.0	--	--	[0, 1, 2]	[0, 1, 2]	1.0	1.3682	client-A	--	--	--	--	--	--	0.100125	0.50035	0.111803	0.999428	0.0665902
0	0	False	32	0	1	2	1.0	0.135	2.0	--	--	[0, 1, 2]	[0, 1, 2]	0.0	1.5016	client-A	--	--	--	--	--	--	0.0333933	0.483647	0.0666168	0.984105	0.066614
1	0	False	1	1	1	2	1.0	0.135	0.0	0.0	3.72041	[0, 1, 2]	[0, 1, 2]	0.0	1.66842	client-A	--	--	--	--	--	--	0.0500436	0.483593	0.0666009	0.98406	0.0665853
1	0	False	2	2	1	1	1.0	0.115	1.0	--	--	[0, 1, 2]	[0, 1, 2]	1.0	5.53853	client-A	--	--	--	--	--	--	0.100115	0.483643	0.0665948	0.984124	0.0666125
1	0	False	3	1	0	2	1.0	0.135	-1.0	--	--	[0, 1, 2]	[0, 1, 2]	0.0	0.901088	client-A	--	--	--	--	--	--	0.0335119	0.500207	0.0999701	1.00075	0.110516
1	0	False	4	1	0	3	1.0	0.17	-1.0	--	--	[0, 1, 2]	[0, 1, 2]	0.0	0.317229	client-A	--	--	--	--	--	--	0.0333519	0.483666	0.0666033	0.984092	0.0666051
1	0	False	5	4	1	4	1.0	0.25	-1.0	--	--	[0, 1, 2]	[0, 1, 2]	1.0	0.717569	client-A	--	--	--	--	--	--	0.0500362	0.483656	0.0666072	0.984112	0.0666182
1	0	False	6	1	0	2	1.0	0.135	2.0	--	--	[0, 1, 2]	[0, 1, 2]	0.0	1.218	client-A	--	--	--	--	--	--	0.0500734	0.483649	0.0666196	0.984092	0.06662
1	0	False	7	1	0	3	1.0	0.17	0.0	0.0	1.50178	[0, 1, 2]	[0, 1, 2]	1.0	0.75101	client-A	--	--	--	--	--	--	0.050067	0.483633	0.0666313	0.984082	0.0666143
1	0	False	8	4	1	4	1.0	0.25	1.0	--	--	[0, 1, 2]	[0, 1, 2]	1.0	1.15133	client-A	--	--	--	--	--	--	0.0500443	0.483665	0.0666076	0.984113	0.066604
1	0	False	9	5	1	3	1.0	0.17	2.0	--	--	[0, 1, 2]	[0, 1, 2]	0.0	0.800985	client-A	--	--	--	--	--	--	0.033388	0.483649	0.0666147	0.984107	0.0665708
1	0	False	10	5	1	3	1.0	0.17	0.0	0.0	1.03474	[0, 1, 2]	[0, 1, 2]	1.0	3.16979	client-A	--	--	--	--	--	--	0.0333247	0.500309	0.0771301	0.984092	0.0666094
1	0	False	11	5	0	1	1.0	0.115	1.0	--	--	[0, 1, 2]	[0, 1, 2]	0.0	1.03458	client-A	--	--	--	--	--	--	0.0333824	0.483645	0.0666317	0.984083	0.066615
1	0	False	12	1	0	3	1.0	0.17	2.0	--	--	[0, 1, 2]	[0, 1, 2]	0.0	0.784306	client-A	--	--	--	--	--	--	0.0333675	0.483662	0.0666108	0.984105	0.0666065
1	0	False	13	1	1	2	1.0	0.135	-1.0	--	--	[0, 1, 2]	[0, 1, 2]	1.0	6.93977	client-A	--	--	--	--	--	--	0.0667481	0.48364	0.0666281	0.984077	0.0665867
1	0	False	14	2	1	1	1.0	0.115	0.0	1.0	1.70202	[0, 1, 2]	[0, 1, 2]	0.0	0.701505	client-A	--	--	--	--	--	--	0.0333792	0.483641	0.0666072	0.98409	0.0666196
1	0	False	15	5	0	1	1.0	0.115	1.0	--	--	[0, 1, 2]	[0, 1, 2]	0.0	1.05122	client-A	--	--	--	--	--	--	0.0500224	0.500328	0.100058	0.994514	0.0665995
1	0	False	16	1	1	2	1.0	0.135	2.0	--	--	[0, 1, 2]	[0, 1, 2]	0.0	0.617468	client-A	--	--	--	--	--	--	0.0333859	0.483656	0.0666214	0.984086	0.066615
1	0	False	17	5	1	3	1.0	0.17	0.0	1.0	1.16819	[0, 1, 2]	[0, 1, 2]	0.0	0.834338	client-A	--	--	--	--	--	--	0.083409	0.483641	0.0666044	0.984119	0.0666101
1	0	False	18	5	1	3	1.0	0.17	-1.0	--	--	[0, 1, 2]	[0, 1, 2]	1.0	0.917742	client-A	--	--	--	--	--	--	0.0500624	0.483658	0.0666104	0.984097	0.0666256
1	0	False	19	4	1	4	1.0	0.25	1.0	--	--	[0, 1, 2]	[0, 1, 2]	1.0	0.901065	client-A	--	--	--	--	--	--	0.0500723	0.483637	0.0665899	0.984141	0.0666108
1	0	False	20	1	0	2	1.0	0.135	2.0	--	--	[0, 1, 2]	[0, 1, 2]	0.0	0.734263	client-A	--	--	--	--	--	--	0.0334107	0.483619	0.0666189	0.984722	0.0665814
1	0	False	21	5	0	1	1.0	0.115	0.0	0.0	1.81875	[0, 1, 2]	[0, 1, 2]	0.0	1.03455	client-A	--	--	--	--	--	--	0.0500691	0.500366	0.0999316	0.994618	0.0666048
1	0	False	22	2	0	4	1.0	0.25	-1.0	--	--	[0, 1, 2]	[0, 1, 2]	0.0	0.500744	client-A	--	--	--	--	--	--	0.0500458	0.483651	0.0666394	0.984079	0.066604
1	0	False	23	2	0	4	1.0	0.25	-1.0	--	--	[0, 1, 2]	[0, 1, 2]	0.0	0.484048	client-A	--	--	--	--	--	--	0.0333763	0.483666	0.0665874	0.984124	0.0666118
1	0	False	24	1	1	2	1.0	0.135	-1.0	--	--	[0, 1, 2]	[0, 1, 2]	1.0	0.63479	client-A	--	--	--	--	--	--	0.0333739	0.483648	0.0666111	0.984114	0.0666019
1	0	False	25	2	1	1	1.0	0.115	1.0	--	--	[0, 1, 2]	[0, 1, 2]	1.0	0.617544	client-A	--	--	--	--	--	--	0.0723043	0.500303	0.0999793	0.994593	0.0666228
1	0	False	26	2	0	4	1.0	0.25	-1.0	--	--	[0, 1, 2]	[0, 1, 2]	0.0	0.367342	client-A	--	--	--	--	--	--	0.0500741	0.483629	0.0666267	0.984059	0.0666193
1	0	False	27	1	0	3	1.0	0.17	-1.0	--	--	[0, 1, 2]	[0, 1, 2]	1.0	1.33483	client-A	--	--	--	--	--	--	0.0500649	0.48365	0.0666203	0.984087	0.066609
1	0	False	28	1	0	2	1.0	0.135	2.0	--	--	[0, 1, 2]	[0, 1, 2]	1.0	0.91777	client-A	--	--	--	--	--	--	0.0333845	0.483639	0.066621	0.984085	0.0666069
1	0	False	29	2	1	1	1.0	0.115	0.0	0.0	1.91879	[0, 1, 2]	[0, 1, 2]	1.0	1.95201	client-A	--	--	--	--	--	--	0.0500451	0.483658	0.0665987	0.984109	0.0665934
1	0	False	30	2	0	4	1.0	0.25	-1.0	--	--	[0, 1, 2]	[0, 1, 2]	0.0	0.434039	client-A	--	--	--	--	--	--	0.0500652	0.483611	0.0666076	0.984114	0.0666189
1	0	False	31	4	1	4	1.0	0.25	-1.0	--	--	[0, 1, 2]	[0, 1, 2]	1.0	0.801018	client-A	--	--	--	--	--	--	0.0333912	0.483637	0.0666189	0.984093	0.0666288
1	0	False	32	5	0	1	1.0	0.115	1.0	--	--	[0, 1, 2]	[0, 1, 2]	1.0	0.851026	client-A	--	--	--	--	--	--	0.0334071	0.48364	0.0666094	0.984105	0.0666101
2	0	False	1	0	1	3	1.0	0.17	2.0	--	--	[0, 1, 2]	[0, 1, 2]	1.0	3.7202	client-A	--	--	--	--	--	--	0.033388	0.500266	0.0942596	0.983602	0.0665658
2	0	False	2	4	0	2	1.0	0.135	0.0	0.0	1.26826	[0, 1, 2]	[0, 1, 2]	0.0	0.700933	client-A	--	--	--	--	--	--	0.0500507	0.483656	0.0666299	0.984094	0.0666076
2	0	False	3	2	0	1	1.0	0.115	1.0	--	--	[0, 1, 2]	[0, 1, 2]	0.0	1.10127	client-A	--	--	--	--	--	--	0.0500663	0.483635	0.0666125	0.984095	0.066614
2	0	False	4	4	1	4	1.0	0.25	-1.0	--	--	[0, 1, 2]	[0, 1, 2]	1.0	0.918394	client-A	--	--	--	--	--	--	0.0333682	0.483663	0.0666111	0.9841	0.0665934
2	0	False	5	4	0	2	1.0	0.135	2.0	--	--	[0, 1, 2]	[0, 1, 2]	1.0	0.967829	client-A	--	--	--	--	--	--	0.0500794	0.505921	0.111722	0.999487	0.0666083
2	0	False	6	4	1	1	1.0	0.115	0.0	0.0	0.867885	[0, 1, 2]	[0, 1, 2]	0.0	0.884427	client-A	--	--	--	--	--	--	0.050056	0.483655	0.0666196	0.984087	0.0666355
2	0	False	7	4	0	2	1.0	0.135	1.0	--	--	[0, 1, 2]	[0, 1, 2]	0.0	1.03452	client-A	--	--	--	--	--	--	0.0500719	0.483679	0.0665634	0.984092	0.0666058
2	0	False	8	0	1	3	1.0	0.17	2.0	--	--	[0, 1, 2]	[0, 1, 2]	0.0	0.934489	client-A	--	--	--	--	--	--	0.0500507	0.483668	0.0665924	0.984129	0.0666087
2	0	False	9	4	1	1	1.0	0.115	-1.0	--	--	[0, 1, 2]	[0, 1, 2]	0.0	3.0363	client-A	--	--	--	--	--	--	0.0500543	0.483656	0.0666111	0.984099	0.066597
2	0	False	10	2	0	1	1.0	0.115	0.0	0.0	1.41846	[0, 1, 2]	[0, 1, 2]	0.0	1.10128	client-A	--	--	--	--	--	--	0.0352396	0.499069	0.0665991	0.984129	0.0665973
2	0	False	11	0	1	2	1.0	0.135	1.0	--	--	[0, 1, 2]	[0, 1, 2]	0.0	1.98508	client-A	--	--	--	--	--	--	0.0499247	0.500419	0.0998562	1.00077	0.110803
2	0	False	12	2	0	3	1.0	0.17	2.0	--	--	[0, 1, 2]	[0, 1, 2]	0.0	0.550792	client-A	--	--	--	--	--	--	0.0500783	0.483659	0.0666196	0.984096	0.0665998
2	0	False	13	4	0	2	1.0	0.135	0.0	1.0	4.13748	[0, 1, 2]	[0, 1, 2]	0.0	0.750963	client-A	--	--	--	--	--	--	0.0500765	0.483638	0.0666154	0.984114	0.0665832
2	0	False	14	4	1	4	1.0	0.25	-1.0	--	--	[0, 1, 2]	[0, 1, 2]	1.0	1.03454	client-A	--	--	--	--	--	--	0.0500666	0.483638	0.0666108	0.984715	0.066621
2	0	False	15	5	0	4	1.0	0.25	-1.0	--	--	[0, 1, 2]	[0, 1, 2]	0.0	0.383974	client-A	--	--	--	--	--	--	0.0334931	0.500377	0.0999517	0.994531	0.0666154
2	0	False	16	4	1	1	1.0	0.115	1.0	--	--	[0, 1, 2]	[0, 1, 2]	1.0	0.90109	client-A	--	--	--	--	--	--	0.0500479	0.483663	0.0666005	0.984104	0.0665952
2	0	False	17	0	1	3	1.0	0.17	2.0	--	--	[0, 1, 2]	[0, 1, 2]	1.0	1.18464	client-A	--	--	--	--	--	--	0.0333689	0.483633	0.0666433	0.984095	0.0666037
2	0	False	18	4	1	4	1.0	0.25	-1.0	--	--	[0, 1, 2]	[0, 1, 2]	1.0	0.901127	client-A	--	--	--	--	--	--	0.0500507	0.483653	0.0666327	0.984093	0.0665991
2	0	False	19	5	0	4	1.0	0.25	-1.0	--	--	[0, 1, 2]	[0, 1, 2]	0.0	0.383932	client-A	--	--	--	--	--	--	0.0333926	0.483627	0.066644	0.984081	0.0666147
2	0	False	20	5	0	4	1.0	0.25	-1.0	--	--	[0, 1, 2]	[0, 1, 2]	0.0	0.233867	client-A	--	--	--	--	--	--	0.0333827	0.483622	0.06662	0.984106	0.0666228
2	0	False	21	2	0	1	1.0	0.115	-1.0	--	--	[0, 1, 2]	[0, 1, 2]	1.0	1.15133	client-A	--	--	--	--	--	--	0.0333594	0.483667	0.0666225	0.98409	0.066615
2	0	False	22	4	1	4	1.0	0.25	-1.0	--	--	[0, 1, 2]	[0, 1, 2]	1.0	0.834384	client-A	--	--	--	--	--	--	0.0333923	0.483648	0.0666111	0.984112	0.0666079
2	0	False	23	0	1	2	1.0	0.135	-1.0	--	--	[0, 1, 2]	[0, 1, 2]	1.0	2.18617	client-A	--	--	--	--	--	--	0.0333809	0.483667	0.0666147	0.9841	0.0665963
2	0	False	24	5	0	4	1.0	0.25	-1.0	--	--	[0, 1, 2]	[0, 1, 2]	0.0	0.534094	client-A	--	--	--	--	--	--	0.0500394	0.500336	0.0937963	0.984076	0.066604
2	0	False	25	0	1	2	1.0	0.135	0.0	1.0	1.10143	[0, 1, 2]	[0, 1, 2]	1.0	1.03455	client-A	--	--	--	--	--	--	0.0333742	0.483649	0.0666348	0.984085	0.0666309
2	0	False	26	2	0	1	1.0	0.115	-1.0	--	--	[0, 1, 2]	[0, 1, 2]	0.0	0.600794	client-A	--	--	--	--	--	--	0.0500578	0.483642	0.0665931	0.984093	0.0666256
2	0	False	27	0	1	2	1.0	0.135	1.0	--	--	[0, 1, 2]	[0, 1, 2]	1.0	0.984487	client-A	--	--	--	--	--	--	0.033371	0.483645	0.0666143	0.984088	0.0666033
2	0	False	28	4	1	1	1.0	0.115	2.0	--	--	[0, 1, 2]	[0, 1, 2]	1.0	0.934464	client-A	--	--	--	--	--	--	0.0500504	0.483648	0.0666242	0.984103	0.0666288
2	0	False	29	2	0	3	1.0	0.17	-1.0	--	--	[0, 1, 2]	[0, 1, 2]	0.0	2.41907	client-A	--	--	--	--	--	--	0.0500557	0.483659	0.066614	0.98409	0.0666182
2	0	False	30	2	0	3	1.0	0.17	-1.0	--	--	[0, 1, 2]	[0, 1, 2]	0.0	0.534109	client-A	--	--	--	--	--	--	0.0333749	0.483653	0.0666217	0.984098	0.066615
2	0	False	31	2	0	3	1.0	0.17	-1.0	--	--	[0, 1, 2]	[0, 1, 2]	0.0	0.600861	client-A	--	--	--	--	--	--	0.033387	0.48365	0.0666094	0.984702	0.0666182
2	0	False	32	0	1	3	1.0	0.17	0.0	1.0	5.48862	[0, 1, 2]	[0, 1, 2]	1.0	0.700929	client-A	--	--	--	--	--	--	0.0500758	0.50032	0.0999623	0.994626	0.0666076
0	1	False	1	2	1	2	1.0	0.135	2.0	1.0	1.63523	[2, 0, 1]	[0, 1, 2]	--	--	--	--	--	--	1.0	0.995	client-A	0.050062	0.50581	0.100046	1.00067	0.0999156
0	1	False	2	0	1	4	1.0	0.25	0.0	--	--	[2, 0, 1]	[0, 1, 2]	--	--	--	--	--	--	1.0	0.917788	client-A	0.0667435	0.483678	0.0665956	0.984103	0.0666281
0	1	False	3	5	0	1	1.0	0.115	1.0	--	--	[2, 0, 1]	[0, 1, 2]	--	--	--	--	--	--	1.0	1.28475	client-A	0.0500627	0.483661	0.0666055	0.984106	0.0666051
0	1	False	4	0	0	2	1.0	0.135	2.0	1.0	4.25425	[2, 0, 1]	[0, 1, 2]	--	--	--	--	--	--	0.0	1.25137	client-A	0.0500734	0.483633	0.0666359	0.984097	0.066614
0	1	False	5	0	0	2	1.0	0.135	0.0	--	--	[2, 0, 1]	[0, 1, 2]	--	--	--	--	--	--	0.0	2.53584	client-A	0.0500532	0.483658	0.0666154	0.984107	0.0666147
0	1	False	6	5	0	1	1.0	0.115	1.0	--	--	[2, 0, 1]	[0, 1, 2]	--	--	--	--	--	--	0.0	0.684281	client-A	0.0500773	0.48364	0.06662	0.984089	0.066592
0	1	False	7	5	1	3	1.0	0.17	2.0	0.0	1.23489	[2, 0, 1]	[0, 1, 2]	--	--	--	--	--	--	0.0	0.467392	client-A	0.0333594	0.500344	0.0937963	0.984099	0.0666051
0	1	False	8	5	0	4	1.0	0.25	-1.0	--	--	[2, 0, 1]	[0, 1, 2]	--	--	--	--	--	--	0.0	0.367266	client-A	0.0834246	0.483659	0.0666168	0.984093	0.0666182
0	1	False	9	5	0	4	1.0	0.25	-1.0	--	--	[2, 0, 1]	[0, 1, 2]	--	--	--	--	--	--	0.0	0.367306	client-A	0.0500518	0.483664	0.0666154	0.984104	0.0666101
0	1	False	10	5	0	1	1.0	0.115	0.0	--	--	[2, 0, 1]	[0, 1, 2]	--	--	--	--	--	--	0.0	0.383936	client-A	0.0333778	0.483669	0.0666016	0.984111	0.0666179
0	1	False	11	2	1	2	1.0	0.135	1.0	--	--	[2, 0, 1]	[0, 1, 2]	--	--	--	--	--	--	0.0	1.08456	client-A	0.050067	0.483658	0.066604	0.984107	0.0666087
0	1	False	12	2	1	1	1.0	0.115	-1.0	--	--	[2, 0, 1]	[0, 1, 2]	--	--	--	--	--	--	1.0	1.65176	client-A	0.0500673	0.483647	0.0666033	0.984095	0.0666246
0	1	False	13	5	1	3	1.0	0.17	2.0	0.0	3.22619	[2, 0, 1]	[0, 1, 2]	--	--	--	--	--	--	1.0	0.684307	client-A	0.0333735	0.483661	0.0666186	0.984079	0.0666306
0	1	False	14	2	1	1	1.0	0.115	-1.0	--	--	[2, 0, 1]	[0, 1, 2]	--	--	--	--	--	--	1.0	1.00119	client-A	0.0500245	0.5003	0.100034	0.994491	0.066643
0	1	False	15	4	0	3	1.0	0.17	0.0	--	--	[2, 0, 1]	[0, 1, 2]	--	--	--	--	--	--	0.0	0.434037	client-A	0.0500691	0.483661	0.0666168	0.984079	0.0666292
0	1	False	16	2	1	1	1.0	0.115	-1.0	--	--	[2, 0, 1]	[0, 1, 2]	--	--	--	--	--	--	0.0	1.168	client-A	0.0500808	0.483648	0.0666055	0.984099	0.0666214
0	1	False	17	4	0	3	1.0	0.17	1.0	--	--	[2, 0, 1]	[0, 1, 2]	--	--	--	--	--	--	0.0	0.383953	client-A	0.0334047	0.483652	0.0666048	0.984097	0.0666157
0	1	False	18	5	0	4	1.0	0.25	-1.0	--	--	[2, 0, 1]	[0, 1, 2]	--	--	--	--	--	--	0.0	0.317256	client-A	0.05005	0.483648	0.0666324	0.98407	0.0666083
0	1	False	19	5	0	1	1.0	0.115	2.0	1.0	4.22086	[2, 0, 1]	[0, 1, 2]	--	--	--	--	--	--	0.0	0.567462	client-A	0.0334093	0.48363	0.0666359	0.984103	0.0665931
0	1	False	20	5	1	3	1.0	0.17	0.0	--	--	[2, 0, 1]	[0, 1, 2]	--	--	--	--	--	--	1.0	2.60256	client-A	0.0500578	0.48367	0.0665906	0.984115	0.0666005
0	1	False	21	0	0	2	1.0	0.135	1.0	--	--	[2, 0, 1]	[0, 1, 2]	--	--	--	--	--	--	0.0	4.74339	client-A	0.0500833	0.483638	0.0665991	0.984118	0.0666058
0	1	False	22	0	1	4	1.0	0.25	2.0	1.0	1.20148	[2, 0, 1]	[0, 1, 2]	--	--	--	--	--	--	1.0	1.80186	client-A	0.0500638	0.500315	0.0771609	0.984071	0.0666189
0	1	False	23	0	1	4	1.0	0.25	-1.0	--	--	[2, 0, 1]	[0, 1, 2]	--	--	--	--	--	--	1.0	1.38482	client-A	0.0500783	0.48364	0.0666263	0.984088	0.0666263
0	1	False	24	2	1	2	1.0	0.135	0.0	--	--	[2, 0, 1]	[0, 1, 2]	--	--	--	--	--	--	0.0	0.350635	client-A	0.0333707	0.483643	0.0666242	0.984099	0.0666094
0	1	False	25	4	0	3	1.0	0.17	-1.0	--	--	[2, 0, 1]	[0, 1, 2]	--	--	--	--	--	--	0.0	0.417359	client-A	0.0500967	0.483649	0.0665913	0.984078	0.0666271
0	1	False	26	5	0	4	1.0	0.25	-1.0	--	--	[2, 0, 1]	[0, 1, 2]	--	--	--	--	--	--	0.0	0.500721	client-A	0.0334153	0.483644	0.066621	0.984095	0.0665913
0	1	False	27	2	1	2	1.0	0.135	1.0	--	--	[2, 0, 1]	[0, 1, 2]	--	--	--	--	--	--	1.0	0.83434	client-A	0.0333788	0.483652	0.0666108	0.984098	0.0665987
0	1	False	28	2	1	1	1.0	0.115	2.0	0.0	2.93641	[2, 0, 1]	[0, 1, 2]	--	--	--	--	--	--	0.0	0.901074	client-A	0.0332988	0.500331	0.0938144	0.984098	0.0666118
0	1	False	29	5	1	3	1.0	0.17	-1.0	--	--	[2, 0, 1]	[0, 1, 2]	--	--	--	--	--	--	1.0	0.700928	client-A	0.0667538	0.48365	0.0666207	0.984088	0.066614
0	1	False	30	0	0	2	1.0	0.135	0.0	--	--	[2, 0, 1]	[0, 1, 2]	--	--	--	--	--	--	0.0	0.650894	client-A	0.0334078	0.483652	0.0666097	0.984099	0.0666108
0	1	False	31	0	1	4	1.0	0.25	-1.0	--	--	[2, 0, 1]	[0, 1, 2]	--	--	--	--	--	--	1.0	1.1513	client-A	0.0500758	0.483613	0.0666522	0.984099	0.0666044
0	1	False	32	4	0	3	1.0	0.17	1.0	--	--	[2, 0, 1]	[0, 1, 2]	--	--	--	--	--	--	0.0	0.383962	client-A	0.0333813	0.483639	0.0666228	0.984091	0.0666087
1	1	False	1	1	0	3	1.0	0.17	-1.0	--	--	[2, 0, 1]	[0, 1, 2]	--	--	--	--	--	--	0.0	2.15218	client-A	0.033428	0.483568	0.0665825	0.984076	0.0665718
1	1	False	2	4	1	3	1.0	0.17	-1.0	--	--	[2, 0, 1]	[0, 1, 2]	--	--	--	--	--	--	1.0	0.834354	client-A	0.0500904	0.483658	0.066604	0.984116	0.066603
1	1	False	3	2	1	1	1.0	0.115	2.0	0.0	1.00685	[2, 0, 1]	[0, 1, 2]	--	--	--	--	--	--	0.0	0.500758	client-A	0.0500528	0.483675	0.066598	0.984098	0.0666175
1	1	False	4	0	0	4	1.0	0.25	-1.0	--	--	[2, 0, 1]	[0, 1, 2]	--	--	--	--	--	--	0.0	0.200479	client-A	0.0500327	0.500334	0.0942631	0.983625	0.066598
1	1	False	5	3	0	2	1.0	0.135	0.0	--	--	[2, 0, 1]	[0, 1, 2]	--	--	--	--	--	--	0.0	0.934429	client-A	0.0334008	0.48366	0.0666065	0.984104	0.066615
1	1	False	6	2	0	1	1.0	0.115	-1.0	--	--	[2, 0, 1]	[0, 1, 2]	--	--	--	--	--	--	1.0	1.16802	client-A	0.0500677	0.483641	0.0666157	0.984113	0.0666104
1	1	False	7	5	1	4	1.0	0.25	-1.0	--	--	[2, 0, 1]	[0, 1, 2]	--	--	--	--	--	--	1.0	0.834387	client-A	0.0334227	0.48363	0.0666274	0.984107	0.0666002
1	1	False	8	0	0	4	1.0	0.25	1.0	--	--	[2, 0, 1]	[0, 1, 2]	--	--	--	--	--	--	0.0	0.750936	client-A	0.0334004	0.483653	0.0666334	0.984078	0.0666239
1	1	False	9	4	1	3	1.0	0.17	2.0	1.0	2.82021	[2, 0, 1]	[0, 1, 2]	--	--	--	--	--	--	1.0	0.93447	client-A	0.0334192	0.48368	0.0665775	0.984083	0.0666132
1	1	False	10	4	1	3	1.0	0.17	0.0	--	--	[2, 0, 1]	[0, 1, 2]	--	--	--	--	--	--	1.0	1.10128	client-A	0.0333997	0.500293	0.0999836	0.994616	0.0666026
1	1	False	11	4	1	2	1.0	0.135	-1.0	--	--	[2, 0, 1]	[0, 1, 2]	--	--	--	--	--	--	1.0	0.567447	client-A	0.0500829	0.483633	0.0666309	0.984077	0.0666281
1	1	False	12	5	1	4	1.0	0.25	-1.0	--	--	[2, 0, 1]	[0, 1, 2]	--	--	--	--	--	--	1.0	1.08458	client-A	0.0333714	0.483652	0.0666338	0.984081	0.0665931
1	1	False	13	1	0	3	1.0	0.17	1.0	--	--	[2, 0, 1]	[0, 1, 2]	--	--	--	--	--	--	0.0	0.467364	client-A	0.0334156	0.483646	0.066632	0.984083	0.0666079
1	1	False	14	2	0	1	1.0	0.115	2.0	1.0	0.917921	[2, 0, 1]	[0, 1, 2]	--	--	--	--	--	--	1.0	1.13462	client-A	0.0333845	0.483635	0.0666019	0.984129	0.0665878
1	1	False	15	1	0	3	1.0	0.17	-1.0	--	--	[2, 0, 1]	[0, 1, 2]	--	--	--	--	--	--	0.0	1.01786	client-A	0.0500942	0.483629	0.0666228	0.9841	0.0666182
1	1	False	16	1	0	3	1.0	0.17	-1.0	--	--	[2, 0, 1]	[0, 1, 2]	--	--	--	--	--	--	0.0	0.434038	client-A	0.0333937	0.483628	0.0666044	0.984107	0.0666087
1	1	False	17	3	0	2	1.0	0.135	0.0	--	--	[2, 0, 1]	[0, 1, 2]	--	--	--	--	--	--	0.0	0.700881	client-A	0.0333976	0.483649	0.0666193	0.984101	0.0666221
1	1	False	18	4	1	2	1.0	0.135	1.0	--	--	[2, 0, 1]	[0, 1, 2]	--	--	--	--	--	--	1.0	0.951128	client-A	0.05005	0.483663	0.0665913	0.984088	0.0666281
1	1	False	19	2	1	1	1.0	0.115	2.0	1.0	2.31918	[2, 0, 1]	[0, 1, 2]	--	--	--	--	--	--	0.0	0.834383	client-A	0.033273	0.500388	0.099957	1.00076	0.110506
1	1	False	20	3	0	2	1.0	0.135	0.0	--	--	[2, 0, 1]	[0, 1, 2]	--	--	--	--	--	--	1.0	0.834388	client-A	0.0500645	0.483646	0.0666062	0.984118	0.0665952
1	1	False	21	4	1	3	1.0	0.17	1.0	--	--	[2, 0, 1]	[0, 1, 2]	--	--	--	--	--	--	1.0	0.534111	client-A	0.0333763	0.483675	0.066614	0.984097	0.0666122
1	1	False	22	3	0	2	1.0	0.135	2.0	0.0	1.78536	[2, 0, 1]	[0, 1, 2]	--	--	--	--	--	--	0.0	1.18467	client-A	0.033376	0.483644	0.066621	0.984097	0.066626
1	1	False	23	5	1	4	1.0	0.25	-1.0	--	--	[2, 0, 1]	[0, 1, 2]	--	--	--	--	--	--	1.0	0.834342	client-A	0.0500801	0.483665	0.0666154	0.984093	0.0666065
1	1	False	24	4	1	2	1.0	0.135	0.0	--	--	[2, 0, 1]	[0, 1, 2]	--	--	--	--	--	--	1.0	1.1013	client-A	0.0500677	0.483629	0.0666373	0.984089	0.0665764
1	1	False	25	2	0	1	1.0	0.115	1.0	--	--	[2, 0, 1]	[0, 1, 2]	--	--	--	--	--	--	0.0	0.333892	client-A	0.0333431	0.500358	0.099962	0.994622	0.0666147
1	1	False	26	4	1	2	1.0	0.135	2.0	1.0	3.62036	[2, 0, 1]	[0, 1, 2]	--	--	--	--	--	--	1.0	1.03453	client-A	0.0334192	0.483641	0.0666044	0.984116	0.0666111
1	1	False	27	2	1	1	1.0	0.115	0.0	--	--	[2, 0, 1]	[0, 1, 2]	--	--	--	--	--	--	1.0	1.20134	client-A	0.0500896	0.483638	0.0666033	0.984108	0.0666225
1	1	False	28	2	0	1	1.0	0.115	1.0	--	--	[2, 0, 1]	[0, 1, 2]	--	--	--	--	--	--	0.0	0.750991	client-A	0.0500794	0.483631	0.0666164	0.984099	0.0666253
1	1	False	29	5	1	4	1.0	0.25	-1.0	--	--	[2, 0, 1]	[0, 1, 2]	--	--	--	--	--	--	1.0	0.901136	client-A	0.0333795	0.483654	0.0665835	0.984105	0.0666118
1	1	False	30	2	1	1	1.0	0.115	2.0	0.0	7.81357	[2, 0, 1]	[0, 1, 2]	--	--	--	--	--	--	0.0	0.500738	client-A	0.0333831	0.48367	0.066615	0.984089	0.0666048
1	1	False	31	0	0	4	1.0	0.25	0.0	--	--	[2, 0, 1]	[0, 1, 2]	--	--	--	--	--	--	0.0	0.366976	client-A	0.0500797	0.500391	0.0999103	1.00079	0.110812
1	1	False	32	0	0	4	1.0	0.25	-1.0	--	--	[2, 0, 1]	[0, 1, 2]	--	--	--	--	--	--	0.0	0.250512	client-A	0.0500567	0.483638	0.0666164	0.984097	0.0666115
2	1	False	1	0	0	1	1.0	0.115	-1.0	--	--	[2, 0, 1]	[0, 1, 2]	--	--	--	--	--	--	1.0	1.98537	client-A	0.0334068	0.483598	0.066598	0.984054	0.0665676
2	1	False	2	1	1	4	1.0	0.25	-1.0	--	--	[2, 0, 1]	[0, 1, 2]	--	--	--	--	--	--	1.0	1.01783	client-A	0.0333993	0.483669	0.0666246	0.984088	0.0666058
2	1	False	3	2	0	2	1.0	0.135	1.0	--	--	[2, 0, 1]	[0, 1, 2]	--	--	--	--	--	--	0.0	0.367288	client-A	0.0333788	0.483663	0.0666115	0.984104	0.0666225
2	1	False	4	3	0	4	1.0	0.25	-1.0	--	--	[2, 0, 1]	[0, 1, 2]	--	--	--	--	--	--	0.0	0.383952	client-A	0.0333781	0.483659	0.0666157	0.984085	0.0666334
2	1	False	5	1	1	4	1.0	0.25	-1.0	--	--	[2, 0, 1]	[0, 1, 2]	--	--	--	--	--	--	1.0	0.81769	client-A	0.0500741	0.483659	0.0666306	0.984078	0.0666051
2	1	False	6	4	1	1	1.0	0.115	2.0	0.0	2.38592	[2, 0, 1]	[0, 1, 2]	--	--	--	--	--	--	0.0	0.784331	client-A	0.0333809	0.483638	0.0666341	0.984095	0.0665913
2	1	False	7	2	0	2	1.0	0.135	-1.0	--	--	[2, 0, 1]	[0, 1, 2]	--	--	--	--	--	--	1.0	1.31812	client-A	0.0500631	0.484273	0.0665948	0.984098	0.0666118
2	1	False	8	3	0	4	1.0	0.25	0.0	--	--	[2, 0, 1]	[0, 1, 2]	--	--	--	--	--	--	0.0	0.834368	client-A	0.0333632	0.500359	0.0937917	0.984095	0.0665832
2	1	False	9	2	1	3	1.0	0.17	1.0	--	--	[2, 0, 1]	[0, 1, 2]	--	--	--	--	--	--	1.0	1.21804	client-A	0.033405	0.483648	0.066586	0.984117	0.0666037
2	1	False	10	0	0	3	1.0	0.17	2.0	0.0	2.05226	[2, 0, 1]	[0, 1, 2]	--	--	--	--	--	--	0.0	1.63508	client-A	0.0333955	0.483639	0.0666164	0.984106	0.0665874
2	1	False	11	0	0	1	1.0	0.115	0.0	--	--	[2, 0, 1]	[0, 1, 2]	--	--	--	--	--	--	1.0	1.41823	client-A	0.050055	0.483644	0.0666108	0.984103	0.06662
2	1	False	12	2	1	3	1.0	0.17	1.0	--	--	[2, 0, 1]	[0, 1, 2]	--	--	--	--	--	--	0.0	0.801006	client-A	0.0500652	0.483642	0.0666157	0.984108	0.0666094
2	1	False	13	4	1	1	1.0	0.115	2.0	0.0	6.33935	[2, 0, 1]	[0, 1, 2]	--	--	--	--	--	--	1.0	1.85195	client-A	0.0334142	0.500227	0.0771485	0.984072	0.0666317
2	1	False	14	0	0	1	1.0	0.115	0.0	--	--	[2, 0, 1]	[0, 1, 2]	--	--	--	--	--	--	0.0	1.10127	client-A	0.0500836	0.483658	0.0665786	0.984121	0.0665878
2	1	False	15	1	1	4	1.0	0.25	-1.0	--	--	[2, 0, 1]	[0, 1, 2]	--	--	--	--	--	--	1.0	0.734285	client-A	0.05005	0.483664	0.066614	0.984062	0.0666256
2	1	False	16	4	1	2	1.0	0.135	1.0	--	--	[2, 0, 1]	[0, 1, 2]	--	--	--	--	--	--	0.0	0.367265	client-A	0.0333951	0.483631	0.0666292	0.984097	0.0666179
2	1	False	17	2	0	2	1.0	0.135	2.0	0.0	1.15148	[2, 0, 1]	[0, 1, 2]	--	--	--	--	--	--	0.0	0.367304	client-A	0.0667506	0.483633	0.0666214	0.984097	0.0666132
2	1	False	18	4	1	1	1.0	0.115	0.0	--	--	[2, 0, 1]	[0, 1, 2]	--	--	--	--	--	--	0.0	1.11798	client-A	0.0501732	0.500225	0.10001	0.994605	0.0666048
2	1	False	19	1	1	4	1.0	0.25	-1.0	--	--	[2, 0, 1]	[0, 1, 2]	--	--	--	--	--	--	1.0	0.550754	client-A	0.0500882	0.483638	0.0666104	0.984098	0.0666111
2	1	False	20	2	1	3	1.0	0.17	1.0	--	--	[2, 0, 1]	[0, 1, 2]	--	--	--	--	--	--	0.0	0.650877	client-A	0.0333806	0.483666	0.0666154	0.984082	0.0666214
2	1	False	21	0	0	1	1.0	0.115	2.0	0.0	3.95391	[2, 0, 1]	[0, 1, 2]	--	--	--	--	--	--	1.0	0.867789	client-A	0.0334124	0.483653	0.0666193	0.984086	0.0666221
2	1	False	22	0	0	3	1.0	0.17	0.0	--	--	[2, 0, 1]	[0, 1, 2]	--	--	--	--	--	--	0.0	1.10126	client-A	0.050056	0.483667	0.0666122	0.984103	0.0666111
2	1	False	23	2	0	2	1.0	0.135	1.0	--	--	[2, 0, 1]	[0, 1, 2]	--	--	--	--	--	--	1.0	0.884451	client-A	0.0500748	0.483647	0.0666132	0.984104	0.0666016
2	1	False	24	4	1	2	1.0	0.135	-1.0	--	--	[2, 0, 1]	[0, 1, 2]	--	--	--	--	--	--	1.0	1.50222	client-A	0.0834302	0.483629	0.0666164	0.98411	0.066603
2	1	False	25	4	1	2	1.0	0.135	2.0	1.0	1.31833	[2, 0, 1]	[0, 1, 2]	--	--	--	--	--	--	1.0	0.700922	client-A	0.0500528	0.505919	0.093785	0.984091	0.0666016
2	1	False	26	4	1	1	1.0	0.115	-1.0	--	--	[2, 0, 1]	[0, 1, 2]	--	--	--	--	--	--	1.0	1.21801	client-A	0.0500868	0.483628	0.0666196	0.984091	0.0665998
2	1	False	27	3	0	4	1.0	0.25	0.0	--	--	[2, 0, 1]	[0, 1, 2]	--	--	--	--	--	--	0.0	0.233819	client-A	0.0333714	0.483644	0.0666285	0.984105	0.0665984
2	1	False	28	4	1	2	1.0	0.135	-1.0	--	--	[2, 0, 1]	[0, 1, 2]	--	--	--	--	--	--	1.0	0.984464	client-A	0.0500652	0.483662	0.0666037	0.9841	0.0666274
2	1	False	29	0	0	3	1.0	0.17	1.0	--	--	[2, 0, 1]	[0, 1, 2]	--	--	--	--	--	--	0.0	0.767656	client-A	0.0500709	0.483647	0.0666288	0.984106	0.0665842
2	1	False	30	0	0	3	1.0	0.17	2.0	0.0	0.90125	[2, 0, 1]	[0, 1, 2]	--	--	--	--	--	--	0.0	0.233836	client-A	0.0333965	0.483656	0.066632	0.984098	0.0666048
2	1	False	31	3	0	4	1.0	0.25	-1.0	--	--	[2, 0, 1]	[0, 1, 2]	--	--	--	--	--	--	0.0	0.267165	client-A	0.0500698	0.483652	0.0666087	0.984104	0.0665973
2	1	False	32	2	1	3	1.0	0.17	0.0	--	--	[2, 0, 1]	[0, 1, 2]	--	--	--	--	--	--	1.0	0.7009	client-A	0.0333813	0.483655	0.0666026	0.984088	0.0666143
0	2	False	1	2	0	3	1.0	0.17	1.0	0.0	6.5229	[1, 2, 0]	[0, 1, 2]	--	--	--	1.0	0.517495	client-A	--	--	--	0.0501105	0.500234	0.0999634	0.994587	0.0665619
0	2	False	2	1	0	4	1.0	0.25	-1.0	--	--	[1, 2, 0]	[0, 1, 2]	--	--	--	0.0	0.200476	client-A	--	--	--	0.0500904	0.483649	0.0666214	0.984099	0.0666228
0	2	False	3	2	0	3	1.0	0.17	2.0	--	--	[1, 2, 0]	[0, 1, 2]	--	--	--	1.0	1.18659	client-A	--	--	--	0.0500673	0.48366	0.066604	0.984066	0.0666309
0	2	False	4	1	0	1	1.0	0.115	0.0	--	--	[1, 2, 0]	[0, 1, 2]	--	--	--	1.0	0.650883	client-A	--	--	--	0.0334376	0.500341	0.0999386	0.994598	0.0666267
0	2	False	5	4	1	2	1.0	0.135	1.0	0.0	1.35168	[1, 2, 0]	[0, 1, 2]	--	--	--	0.0	0.834345	client-A	--	--	--	0.0500815	0.483657	0.066615	0.984117	0.0665871
0	2	False	6	0	1	1	1.0	0.115	2.0	--	--	[1, 2, 0]	[0, 1, 2]	--	--	--	1.0	0.75096	client-A	--	--	--	0.0500684	0.483658	0.0666179	0.984085	0.0665881
0	2	False	7	5	1	3	1.0	0.17	-1.0	--	--	[1, 2, 0]	[0, 1, 2]	--	--	--	1.0	0.917761	client-A	--	--	--	0.0334117	0.483615	0.0666111	0.984119	0.0666016
0	2	False	8	0	0	2	1.0	0.135	0.0	--	--	[1, 2, 0]	[0, 1, 2]	--	--	--	0.0	0.717582	client-A	--	--	--	0.0500751	0.483661	0.0666051	0.984098	0.0666062
0	2	False	9	4	1	2	1.0	0.135	-1.0	--	--	[1, 2, 0]	[0, 1, 2]	--	--	--	1.0	0.750973	client-A	--	--	--	0.0333696	0.483664	0.066626	0.984078	0.0666193
0	2	False	10	1	0	4	1.0	0.25	-1.0	--	--	[1, 2, 0]	[0, 1, 2]	--	--	--	0.0	0.25053	client-A	--	--	--	0.0500833	0.483664	0.066604	0.984102	0.066626
0	2	False	11	0	1	1	1.0	0.115	1.0	1.0	0.773327	[1, 2, 0]	[0, 1, 2]	--	--	--	1.0	0.851683	client-A	--	--	--	0.0333976	0.483667	0.0666016	0.984112	0.0665871
0	2	False	12	1	0	4	1.0	0.25	-1.0	--	--	[1, 2, 0]	[0, 1, 2]	--	--	--	0.0	0.350082	client-A	--	--	--	0.0332985	0.500425	0.0998742	1.00077	0.094307
0	2	False	13	1	0	1	1.0	0.115	2.0	--	--	[1, 2, 0]	[0, 1, 2]	--	--	--	0.0	0.500735	client-A	--	--	--	0.0333788	0.483663	0.0666253	0.984082	0.0666104
0	2	False	14	4	1	2	1.0	0.135	0.0	--	--	[1, 2, 0]	[0, 1, 2]	--	--	--	1.0	0.851032	client-A	--	--	--	0.0333962	0.483658	0.0666058	0.984093	0.0666263
0	2	False	15	5	1	3	1.0	0.17	-1.0	--	--	[1, 2, 0]	[0, 1, 2]	--	--	--	1.0	0.867759	client-A	--	--	--	0.0333838	0.483636	0.0666373	0.984077	0.0833106
0	2	False	16	0	0	2	1.0	0.135	1.0	1.0	0.867931	[1, 2, 0]	[0, 1, 2]	--	--	--	1.0	0.550796	client-A	--	--	--	0.0333771	0.483646	0.0666005	0.9841	0.0666157
0	2	False	17	3	1	4	1.0	0.25	2.0	--	--	[1, 2, 0]	[0, 1, 2]	--	--	--	0.0	0.634197	client-A	--	--	--	0.0500758	0.483665	0.0666271	0.984097	0.0666083
0	2	False	18	3	1	4	1.0	0.25	0.0	--	--	[1, 2, 0]	[0, 1, 2]	--	--	--	1.0	0.901124	client-A	--	--	--	0.0333774	0.483653	0.0666175	0.984057	0.066586
0	2	False	19	4	1	2	1.0	0.135	-1.0	--	--	[1, 2, 0]	[0, 1, 2]	--	--	--	1.0	0.801046	client-A	--	--	--	0.0333774	0.483656	0.0665945	0.984113	0.0666115
0	2	False	20	0	1	1	1.0	0.115	-1.0	--	--	[1, 2, 0]	[0, 1, 2]	--	--	--	1.0	1.05121	client-A	--	--	--	0.0500801	0.483658	0.0666118	0.984107	0.0666274
0	2	False	21	3	1	4	1.0	0.25	1.0	1.0	0.917939	[1, 2, 0]	[0, 1, 2]	--	--	--	1.0	0.934492	client-A	--	--	--	0.0333809	0.500436	0.099865	0.994632	0.0665948
0	2	False	22	5	1	3	1.0	0.17	-1.0	--	--	[1, 2, 0]	[0, 1, 2]	--	--	--	1.0	1.18464	client-A	--	--	--	0.0834147	0.483653	0.0666055	0.984099	0.0666271
0	2	False	23	3	1	4	1.0	0.25	2.0	--	--	[1, 2, 0]	[0, 1, 2]	--	--	--	1.0	0.534079	client-A	--	--	--	0.0500999	0.483658	0.0666009	0.984094	0.0666278
0	2	False	24	1	0	1	1.0	0.115	-1.0	--	--	[1, 2, 0]	[0, 1, 2]	--	--	--	0.0	0.467331	client-A	--	--	--	0.0333873	0.483648	0.0666161	0.984093	0.0666412
0	2	False	25	0	1	1	1.0	0.115	-1.0	--	--	[1, 2, 0]	[0, 1, 2]	--	--	--	1.0	0.767655	client-A	--	--	--	0.0333923	0.483655	0.0666256	0.984089	0.0665814
0	2	False	26	1	0	4	1.0	0.25	-1.0	--	--	[1, 2, 0]	[0, 1, 2]	--	--	--	0.0	0.250528	client-A	--	--	--	0.0500702	0.483667	0.0666002	0.984094	0.0666228
0	2	False	27	2	0	3	1.0	0.17	0.0	--	--	[1, 2, 0]	[0, 1, 2]	--	--	--	0.0	0.700888	client-A	--	--	--	0.0334071	0.483635	0.0666465	0.984087	0.0666129
0	2	False	28	1	0	1	1.0	0.115	1.0	0.0	1.55184	[1, 2, 0]	[0, 1, 2]	--	--	--	1.0	0.567476	client-A	--	--	--	0.0334047	0.48366	0.0666203	0.984079	0.0665878
0	2	False	29	2	0	3	1.0	0.17	-1.0	--	--	[1, 2, 0]	[0, 1, 2]	--	--	--	0.0	0.200468	client-A	--	--	--	0.0500741	0.483651	0.06662	0.984687	0.0666196
0	2	False	30	0	0	2	1.0	0.135	2.0	--	--	[1, 2, 0]	[0, 1, 2]	--	--	--	0.0	1.35145	client-A	--	--	--	0.0333795	0.505902	0.0999793	1.00078	0.110508
0	2	False	31	5	1	3	1.0	0.17	0.0	--	--	[1, 2, 0]	[0, 1, 2]	--	--	--	1.0	0.884398	client-A	--	--	--	0.0667775	0.483655	0.0666164	0.984095	0.0666394
0	2	False	32	0	0	2	1.0	0.135	1.0	1.0	2.23576	[1, 2, 0]	[0, 1, 2]	--	--	--	1.0	1.78523	client-A	--	--	--	0.0333937	0.483653	0.066603	0.984119	0.0832689
1	2	False	1	1	0	3	1.0	0.17	-1.0	--	--	[1, 2, 0]	[0, 1, 2]	--	--	--	0.0	0.233825	client-A	--	--	--	0.0500298	0.483606	0.066574	0.984061	0.0665779
1	2	False	2	1	0	3	1.0	0.17	2.0	--	--	[1, 2, 0]	[0, 1, 2]	--	--	--	1.0	0.901061	client-A	--	--	--	0.0334078	0.483654	0.0666055	0.984074	0.0666302
1	2	False	3	5	0	2	1.0	0.135	-1.0	--	--	[1, 2, 0]	[0, 1, 2]	--	--	--	0.0	1.30142	client-A	--	--	--	0.0333785	0.48363	0.0666302	0.984123	0.066591
1	2	False	4	4	1	1	1.0	0.115	0.0	--	--	[1, 2, 0]	[0, 1, 2]	--	--	--	1.0	1.16864	client-A	--	--	--	0.033364	0.483674	0.0666069	0.984103	0.0666253
1	2	False	5	2	1	4	1.0	0.25	1.0	1.0	1.41841	[1, 2, 0]	[0, 1, 2]	--	--	--	0.0	0.682896	client-A	--	--	--	0.0333937	0.500389	0.0999259	1.00079	0.111816
1	2	False	6	5	0	2	1.0	0.135	2.0	--	--	[1, 2, 0]	[0, 1, 2]	--	--	--	1.0	1.08462	client-A	--	--	--	0.083466	0.483653	0.0666094	0.984085	0.0665895
1	2	False	7	5	1	3	1.0	0.17	-1.0	--	--	[1, 2, 0]	[0, 1, 2]	--	--	--	1.0	0.70091	client-A	--	--	--	0.0333781	0.483648	0.0666345	0.984077	0.066632
1	2	False	8	1	0	1	1.0	0.115	0.0	--	--	[1, 2, 0]	[0, 1, 2]	--	--	--	1.0	0.500745	client-A	--	--	--	0.0500957	0.483659	0.0665998	0.984113	0.0665917
1	2	False	9	3	1	2	1.0	0.135	1.0	1.0	1.45175	[1, 2, 0]	[0, 1, 2]	--	--	--	1.0	0.717591	client-A	--	--	--	0.0333937	0.483644	0.0666033	0.984097	0.0666189
1	2	False	10	1	0	3	1.0	0.17	2.0	--	--	[1, 2, 0]	[0, 1, 2]	--	--	--	0.0	0.100389	client-A	--	--	--	0.0500819	0.483649	0.0666281	0.984094	0.0666097
1	2	False	11	2	1	4	1.0	0.25	0.0	--	--	[1, 2, 0]	[0, 1, 2]	--	--	--	0.0	0.967809	client-A	--	--	--	0.0333686	0.50028	0.09383	0.984101	0.0666048
1	2	False	12	1	0	4	1.0	0.25	1.0	0.0	1.20156	[1, 2, 0]	[0, 1, 2]	--	--	--	0.0	0.41732	client-A	--	--	--	0.0667718	0.483632	0.0666207	0.984101	0.0666221
1	2	False	13	3	1	2	1.0	0.135	-1.0	--	--	[1, 2, 0]	[0, 1, 2]	--	--	--	0.0	0.684208	client-A	--	--	--	0.083438	0.483639	0.0666164	0.984105	0.0666179
1	2	False	14	2	1	4	1.0	0.25	-1.0	--	--	[1, 2, 0]	[0, 1, 2]	--	--	--	1.0	1.00123	client-A	--	--	--	0.0334107	0.483644	0.0666281	0.984064	0.0666214
1	2	False	15	5	0	2	1.0	0.135	2.0	--	--	[1, 2, 0]	[0, 1, 2]	--	--	--	1.0	0.55079	client-A	--	--	--	0.0333873	0.483651	0.0666203	0.984094	0.0666196
1	2	False	16	1	0	4	1.0	0.25	-1.0	--	--	[1, 2, 0]	[0, 1, 2]	--	--	--	0.0	0.0670401	client-A	--	--	--	0.0333894	0.483657	0.0666416	0.984082	0.066591
1	2	False	17	1	0	4	1.0	0.25	-1.0	--	--	[1, 2, 0]	[0, 1, 2]	--	--	--	0.0	3.4033	client-A	--	--	--	0.050101	0.483629	0.0666147	0.9841	0.066609
1	2	False	18	1	0	1	1.0	0.115	0.0	--	--	[1, 2, 0]	[0, 1, 2]	--	--	--	1.0	0.90107	client-A	--	--	--	0.0334054	0.48425	0.0665853	0.984117	0.0665998
1	2	False	19	3	1	2	1.0	0.135	1.0	1.0	0.717764	[1, 2, 0]	[0, 1, 2]	--	--	--	1.0	0.801017	client-A	--	--	--	0.0333845	0.500312	0.100051	0.994544	0.0666087
1	2	False	20	1	0	4	1.0	0.25	-1.0	--	--	[1, 2, 0]	[0, 1, 2]	--	--	--	0.0	0.550891	client-A	--	--	--	0.0334245	0.483647	0.0666246	0.984095	0.06662
1	2	False	21	4	1	1	1.0	0.115	-1.0	--	--	[1, 2, 0]	[0, 1, 2]	--	--	--	1.0	1.01784	client-A	--	--	--	0.0500663	0.483663	0.0666179	0.98408	0.066604
1	2	False	22	5	1	3	1.0	0.17	-1.0	--	--	[1, 2, 0]	[0, 1, 2]	--	--	--	1.0	0.700913	client-A	--	--	--	0.0333951	0.483669	0.0666016	0.984103	0.0666164
1	2	False	23	4	1	1	1.0	0.115	2.0	--	--	[1, 2, 0]	[0, 1, 2]	--	--	--	1.0	0.617511	client-A	--	--	--	0.0334192	0.483649	0.0666016	0.984088	0.0666094
1	2	False	24	3	1	2	1.0	0.135	0.0	--	--	[1, 2, 0]	[0, 1, 2]	--	--	--	1.0	1.06795	client-A	--	--	--	0.033411	0.483675	0.0665881	0.984091	0.0666101
1	2	False	25	5	1	3	1.0	0.17	-1.0	--	--	[1, 2, 0]	[0, 1, 2]	--	--	--	1.0	0.917792	client-A	--	--	--	0.0333986	0.483667	0.0666186	0.984104	0.0666161
1	2	False	26	2	1	4	1.0	0.25	1.0	1.0	0.767806	[1, 2, 0]	[0, 1, 2]	--	--	--	1.0	0.684203	client-A	--	--	--	0.0500985	0.483647	0.0666387	0.984097	0.0666108
1	2	False	27	1	0	3	1.0	0.17	2.0	--	--	[1, 2, 0]	[0, 1, 2]	--	--	--	1.0	2.26894	client-A	--	--	--	0.0335844	0.500176	0.100038	0.994559	0.0666083
1	2	False	28	5	1	3	1.0	0.17	-1.0	--	--	[1, 2, 0]	[0, 1, 2]	--	--	--	1.0	0.750937	client-A	--	--	--	0.0667576	0.483642	0.066637	0.984091	0.0666179
1	2	False	29	4	1	1	1.0	0.115	0.0	--	--	[1, 2, 0]	[0, 1, 2]	--	--	--	1.0	0.650908	client-A	--	--	--	0.033371	0.483652	0.0666104	0.984084	0.0666118
1	2	False	30	1	0	1	1.0	0.115	-1.0	--	--	[1, 2, 0]	[0, 1, 2]	--	--	--	1.0	2.03545	client-A	--	--	--	0.0333785	0.483684	0.0666072	0.984095	0.0666157
1	2	False	31	1	0	1	1.0	0.115	-1.0	--	--	[1, 2, 0]	[0, 1, 2]	--	--	--	1.0	0.750991	client-A	--	--	--	0.0333887	0.483653	0.0666101	0.984107	0.0666002
1	2	False	32	5	0	2	1.0	0.135	-1.0	--	--	[1, 2, 0]	[0, 1, 2]	--	--	--	1.0	0.96779	client-A	--	--	--	0.0334085	0.483648	0.0666132	0.984096	0.0666189
2	2	False	1	4	1	3	1.0	0.17	-1.0	--	--	[1, 2, 0]	[0, 1, 2]	--	--	--	1.0	0.951084	client-A	--	--	--	0.0333629	0.483602	0.0665701	0.984069	0.0665697
2	2	False	2	3	1	4	1.0	0.25	-1.0	--	--	[1, 2, 0]	[0, 1, 2]	--	--	--	1.0	0.367302	client-A	--	--	--	0.0333979	0.483666	0.0666051	0.984104	0.0666037
2	2	False	3	4	1	1	1.0	0.115	1.0	1.0	1.16815	[1, 2, 0]	[0, 1, 2]	--	--	--	1.0	1.16797	client-A	--	--	--	0.0334071	0.483663	0.0666055	0.984722	0.0666094
2	2	False	4	3	1	4	1.0	0.25	-1.0	--	--	[1, 2, 0]	[0, 1, 2]	--	--	--	1.0	0.884372	client-A	--	--	--	0.0333824	0.500238	0.0999839	0.994616	0.0666009
2	2	False	5	0	0	3	1.0	0.17	2.0	--	--	[1, 2, 0]	[0, 1, 2]	--	--	--	1.0	0.534114	client-A	--	--	--	0.0500893	0.483656	0.0666108	0.984071	0.0666416
2	2	False	6	0	0	3	1.0	0.17	0.0	--	--	[1, 2, 0]	[0, 1, 2]	--	--	--	1.0	1.41821	client-A	--	--	--	0.0500882	0.483641	0.0666129	0.984107	0.0666118
2	2	False	7	3	1	4	1.0	0.25	-1.0	--	--	[1, 2, 0]	[0, 1, 2]	--	--	--	1.0	0.700873	client-A	--	--	--	0.0334036	0.483654	0.0666069	0.984102	0.0666327
2	2	False	8	5	1	2	1.0	0.135	-1.0	--	--	[1, 2, 0]	[0, 1, 2]	--	--	--	1.0	0.650899	client-A	--	--	--	0.0333785	0.483656	0.0666207	0.984103	0.0665892
2	2	False	9	0	0	3	1.0	0.17	1.0	0.0	1.46842	[1, 2, 0]	[0, 1, 2]	--	--	--	1.0	0.53411	client-A	--	--	--	0.0333983	0.483663	0.0666147	0.984085	0.0665832
2	2	False	10	5	0	4	1.0	0.25	-1.0	--	--	[1, 2, 0]	[0, 1, 2]	--	--	--	0.0	0.700959	client-A	--	--	--	0.0333983	0.483632	0.0666171	0.984104	0.0666274
2	2	False	11	5	0	4	1.0	0.25	-1.0	--	--	[1, 2, 0]	[0, 1, 2]	--	--	--	0.0	0.700941	client-A	--	--	--	0.033394	0.483634	0.0666005	0.984111	0.066621
2	2	False	12	4	1	3	1.0	0.17	2.0	--	--	[1, 2, 0]	[0, 1, 2]	--	--	--	1.0	1.28473	client-A	--	--	--	0.0334149	0.483653	0.0666193	0.984698	0.0666249
2	2	False	13	5	1	2	1.0	0.135	-1.0	--	--	[1, 2, 0]	[0, 1, 2]	--	--	--	1.0	0.734248	client-A	--	--	--	0.0334153	0.500316	0.0938268	0.984082	0.0666377
2	2	False	14	0	0	1	1.0	0.115	-1.0	--	--	[1, 2, 0]	[0, 1, 2]	--	--	--	1.0	0.917797	client-A	--	--	--	0.0500854	0.48367	0.0665881	0.984099	0.0666044
2	2	False	15	0	0	2	1.0	0.135	0.0	--	--	[1, 2, 0]	[0, 1, 2]	--	--	--	1.0	0.500773	client-A	--	--	--	0.0667591	0.483669	0.0666203	0.984097	0.0665966
2	2	False	16	5	0	4	1.0	0.25	1.0	0.0	1.41838	[1, 2, 0]	[0, 1, 2]	--	--	--	1.0	2.20225	client-A	--	--	--	0.033411	0.483667	0.0666097	0.984102	0.0666278
2	2	False	17	0	0	2	1.0	0.135	2.0	--	--	[1, 2, 0]	[0, 1, 2]	--	--	--	0.0	0.283875	client-A	--	--	--	0.0334188	0.483639	0.0666309	0.984095	0.0666108
2	2	False	18	5	1	2	1.0	0.135	-1.0	--	--	[1, 2, 0]	[0, 1, 2]	--	--	--	1.0	1.75185	client-A	--	--	--	0.0333969	0.483649	0.0666317	0.984082	0.066621
2	2	False	19	0	0	3	1.0	0.17	-1.0	--	--	[1, 2, 0]	[0, 1, 2]	--	--	--	1.0	0.91774	client-A	--	--	--	0.0500925	0.483667	0.0832905	0.984125	0.0665389
2	2	False	20	0	0	1	1.0	0.115	-1.0	--	--	[1, 2, 0]	[0, 1, 2]	--	--	--	1.0	0.901673	client-A	--	--	--	0.0333976	0.483659	0.0666023	0.984104	0.0666196
2	2	False	21	4	1	1	1.0	0.115	-1.0	--	--	[1, 2, 0]	[0, 1, 2]	--	--	--	1.0	0.634242	client-A	--	--	--	0.0571351	0.515585	0.0999057	0.994627	0.0665648
2	2	False	22	0	0	1	1.0	0.115	-1.0	--	--	[1, 2, 0]	[0, 1, 2]	--	--	--	1.0	0.867749	client-A	--	--	--	0.0333937	0.483661	0.066614	0.984108	0.0665835
2	2	False	23	4	1	3	1.0	0.17	-1.0	--	--	[1, 2, 0]	[0, 1, 2]	--	--	--	1.0	0.617489	client-A	--	--	--	0.03341	0.483644	0.0666309	0.984073	0.0666348
2	2	False	24	0	0	2	1.0	0.135	0.0	--	--	[1, 2, 0]	[0, 1, 2]	--	--	--	1.0	0.534136	client-A	--	--	--	0.0334117	0.483648	0.0666118	0.984108	0.0665973
2	2	False	25	5	1	2	1.0	0.135	-1.0	--	--	[1, 2, 0]	[0, 1, 2]	--	--	--	1.0	0.83435	client-A	--	--	--	0.0334156	0.483638	0.0666334	0.984091	0.0666196
2	2	False	26	4	1	1	1.0	0.115	1.0	1.0	0.434155	[1, 2, 0]	[0, 1, 2]	--	--	--	1.0	0.584176	client-A	--	--	--	0.0333983	0.483656	0.0666111	0.984087	0.0666274
2	2	False	27	0	0	2	1.0	0.135	2.0	--	--	[1, 2, 0]	[0, 1, 2]	--	--	--	1.0	0.717627	client-A	--	--	--	0.0334124	0.483659	0.0666072	0.984098	0.066603
2	2	False	28	3	1	4	1.0	0.25	-1.0	--	--	[1, 2, 0]	[0, 1, 2]	--	--	--	1.0	1.01787	client-A	--	--	--	0.033399	0.48365	0.0666235	0.984094	0.066621
2	2	False	29	5	0	4	1.0	0.25	-1.0	--	--	[1, 2, 0]	[0, 1, 2]	--	--	--	0.0	0.934402	client-A	--	--	--	0.0333972	0.483658	0.0666239	0.984692	0.0666493
2	2	False	30	0	0	1	1.0	0.115	-1.0	--	--	[1, 2, 0]	[0, 1, 2]	--	--	--	1.0	0.350626	client-A	--	--	--	0.0334082	0.500319	0.0999669	0.994616	0.0666026
2	2	False	31	4	1	1	1.0	0.115	-1.0	--	--	[1, 2, 0]	[0, 1, 2]	--	--	--	1.0	0.517392	client-A	--	--	--	0.0333993	0.483657	0.0666055	0.984112	0.0666108
2	2	False	32	4	1	3	1.0	0.17	0.0	--	--	[1, 2, 0]	[0, 1, 2]	--	--	--	1.0	0.834347	client-A	--	--	--	0.0333958	0.48364	0.0666164	0.984076	0.0666242
